testdata_20211008/BK000001.CSV

Record Length,40000,,Source,CH1,CH2
Sample Interval,CH1:0.0001999999949 CH2:0.0001999999949,,Second,Volt,Volt
Vertical Units,CH1:V CH2:V,,-4.00000000000,5.04000,2.96000
Vertical Scale,CH1:2.00 CH2:2.00,,-3.99979996681,5.04000,2.88000
Vertical Offset,CH1:1.36000 CH2:-4.04000,,-3.99959993362,5.28000,2.24000
Horizontal Units,s,,-3.99939990044,0.16000,2.88000
Horizontal Scale,0.5000000000,,-3.99919986725,0.16000,2.96000
Model Number,2190E,,-3.99899983406,5.04000,2.88000
Serial Number,512C18110,,-3.99879980087,5.04000,2.88000
Software Version,6.01.01.19,,-3.99860000610,0.16000,2.88000
,,,-3.99839997292,0.08000,2.88000
,,,-3.99819993973,5.04000,2.96000
,,,-3.99799990654,5.04000,2.88000
,,,-3.99779987335,5.04000,2.88000
,,,-3.99759984016,0.08000,2.88000
,,,-3.99739980698,0.16000,2.88000
,,,-3.99720001221,5.04000,2.88000
,,,-3.99699997902,5.04000,2.88000
,,,-3.99679994583,5.04000,2.88000
,,,-3.99659991264,0.08000,2.88000
,,,-3.99639987946,0.00,2.96000
,,,-3.99619984627,5.04000,2.96000
,,,-3.99599981308,5.04000,2.88000
,,,-3.99579977989,0.08000,2.88000
,,,-3.99559998512,0.16000,2.96000
,,,-3.99539995193,5.04000,2.96000
,,,-3.99519991875,5.04000,2.88000
,,,-3.99499988556,5.04000,2.88000
,,,-3.99479985237,0.16000,2.88000
,,,-3.99459981918,0.16000,2.96000
,,,-3.99439978600,5.04000,2.96000
,,,-3.99419999123,5.04000,2.96000
,,,-3.99399995804,5.04000,2.88000
,,,-3.99379992485,0.16000,2.96000
,,,-3.99359989166,5.04000,2.96000
,,,-3.99339985847,5.04000,2.96000
,,,-3.99319982529,5.04000,2.88000
,,,-3.99299979210,0.16000,2.88000
,,,-3.99279999733,0.16000,2.96000
,,,-3.99259996414,5.04000,2.96000
,,,-3.99239993095,5.04000,2.96000
,,,-3.99219989777,5.04000,2.88000
,,,-3.99199986458,0.16000,2.96000
,,,-3.99179983139,0.16000,2.96000
,,,-3.99159979820,5.04000,2.88000
,,,-3.99140000343,5.04000,2.96000
,,,-3.99119997025,0.16000,2.96000
,,,-3.99099993706,0.08000,2.88000
,,,-3.99079990387,5.04000,2.96000
,,,-3.99059987068,5.04000,2.96000
,,,-3.99039983749,5.04000,2.88000
,,,-3.99019980431,0.16000,2.88000
,,,-3.99000000954,0.16000,2.88000
,,,-3.98979997635,5.04000,2.96000
,,,-3.98959994316,5.04000,2.96000
,,,-3.98939990997,5.04000,2.96000
,,,-3.98919987679,0.08000,2.96000
,,,-3.98899984360,0.08000,2.96000
,,,-3.98879981041,5.04000,3.04000
,,,-3.98860001564,5.04000,2.96000
,,,-3.98839998245,0.16000,2.88000
,,,-3.98819994926,0.08000,2.96000
,,,-3.98799991608,5.04000,2.96000
,,,-3.98779988289,5.04000,2.96000
,,,-3.98759984970,5.04000,2.88000
,,,-3.98739981651,0.08000,2.96000
,,,-3.98719978333,0.16000,2.96000
,,,-3.98699998856,5.04000,2.96000
,,,-3.98679995537,5.04000,2.96000
,,,-3.98659992218,5.04000,2.96000
,,,-3.98639988899,0.16000,2.96000
,,,-3.98619985580,5.04000,2.96000
,,,-3.98599982262,5.04000,2.96000
,,,-3.98579978943,5.04000,2.96000
,,,-3.98559999466,0.08000,2.96000
,,,-3.98539996147,0.08000,2.96000
,,,-3.98519992828,5.04000,2.96000
,,,-3.98499989510,5.04000,2.96000
,,,-3.98479986191,5.04000,2.96000
,,,-3.98459982872,0.16000,2.88000
,,,-3.98439979553,0.16000,2.96000
,,,-3.98420000076,5.04000,2.96000
,,,-3.98399996758,5.04000,2.96000
,,,-3.98379993439,5.04000,2.96000
,,,-3.98359990120,0.16000,2.96000
,,,-3.98339986801,4.96000,2.96000
,,,-3.98319983482,5.04000,2.96000
,,,-3.98299980164,5.04000,2.96000
,,,-3.98280000687,0.08000,2.96000
,,,-3.98259997368,0.16000,2.96000
,,,-3.98239994049,5.04000,3.04000
,,,-3.98219990730,5.04000,2.96000
,,,-3.98199987411,5.04000,2.96000
,,,-3.98179984093,0.08000,2.96000
,,,-3.98159980774,0.16000,2.96000
,,,-3.98140001297,5.04000,2.96000
,,,-3.98119997978,5.04000,2.96000
,,,-3.98099994659,0.16000,2.96000
,,,-3.98079991341,0.08000,2.96000
,,,-3.98059988022,5.04000,3.04000
,,,-3.98039984703,5.04000,2.96000
,,,-3.98019981384,5.04000,2.96000
,,,-3.97999978065,5.04000,3.68000
,,,-3.97979998589,5.12000,3.68000
,,,-3.97959995270,0.16000,3.68000
,,,-3.97939991951,5.04000,3.68000
,,,-3.97919988632,5.04000,3.68000
,,,-3.97899985313,5.04000,3.68000
,,,-3.97879981995,0.16000,3.68000
,,,-3.97859978676,5.04000,3.76000
,,,-3.97839999199,5.04000,3.68000
,,,-3.97819995880,5.04000,3.68000
,,,-3.97799992561,5.04000,3.68000
,,,-3.97779989243,0.16000,3.68000
,,,-3.97759985924,5.04000,3.68000
,,,-3.97739982605,5.04000,3.68000
,,,-3.97719979286,5.04000,3.68000
,,,-3.97699999809,0.16000,3.68000
,,,-3.97679996490,0.16000,3.68000
,,,-3.97659993172,5.04000,3.68000
,,,-3.97639989853,5.04000,3.68000
,,,-3.97619986534,5.12000,3.68000
,,,-3.97599983215,0.16000,3.68000
,,,-3.97579979897,5.04000,3.76000
,,,-3.97560000420,5.04000,3.68000
,,,-3.97539997101,5.04000,3.68000
,,,-3.97519993782,5.04000,3.60000
,,,-3.97499990463,0.08000,3.68000
,,,-3.97479987144,5.04000,3.68000
,,,-3.97459983826,5.04000,3.68000
,,,-3.97439980507,5.04000,3.68000
,,,-3.97420001030,0.16000,3.60000
,,,-3.97399997711,0.00,3.68000
,,,-3.97379994392,5.04000,3.68000
,,,-3.97359991074,5.04000,3.68000
,,,-3.97339987755,5.04000,3.68000
,,,-3.97319984436,0.16000,3.60000
,,,-3.97299981117,5.04000,3.68000
,,,-3.97280001640,5.04000,3.68000
,,,-3.97259998322,5.04000,3.68000
,,,-3.97239995003,5.04000,3.68000
,,,-3.97219991684,0.16000,3.68000
,,,-3.97199988365,5.04000,3.68000
,,,-3.97179985046,5.04000,3.68000
,,,-3.97159981728,5.04000,3.68000
,,,-3.97139978409,0.16000,3.68000
,,,-3.97119998932,5.04000,3.68000
,,,-3.97099995613,5.04000,3.68000
,,,-3.97079992294,5.04000,3.68000
,,,-3.97059988976,5.04000,3.68000
,,,-3.97039985657,0.16000,3.68000
,,,-3.97019982338,5.04000,3.68000
,,,-3.96999979019,5.04000,3.68000
,,,-3.96979999542,5.04000,3.68000
,,,-3.96959996223,5.12000,3.60000
,,,-3.96939992905,0.16000,3.68000
,,,-3.96919989586,5.04000,3.68000
,,,-3.96899986267,5.04000,3.60000
,,,-3.96879982948,5.04000,3.60000
,,,-3.96859979630,0.16000,3.60000
,,,-3.96840000153,5.04000,3.68000
,,,-3.96819996834,5.04000,3.60000
,,,-3.96799993515,5.04000,3.68000
,,,-3.96779990196,5.04000,3.60000
,,,-3.96759986877,0.16000,3.60000
,,,-3.96739983559,5.04000,3.68000
,,,-3.96719980240,5.12000,3.60000
,,,-3.96700000763,5.04000,3.68000
,,,-3.96679997444,0.16000,3.60000
,,,-3.96659994125,0.16000,3.68000
,,,-3.96639990807,5.04000,3.68000
,,,-3.96619987488,5.04000,3.60000
,,,-3.96599984169,5.04000,3.60000
,,,-3.96579980850,0.16000,3.60000
,,,-3.96560001373,5.04000,3.68000
,,,-3.96539998055,5.12000,3.68000
,,,-3.96519994736,5.04000,3.68000
,,,-3.96499991417,5.04000,3.60000
,,,-3.96479988098,0.16000,3.60000
,,,-3.96459984779,5.04000,3.68000
,,,-3.96439981461,5.04000,3.60000
,,,-3.96419978142,5.04000,3.60000
,,,-3.96399998665,0.16000,3.60000
,,,-3.96379995346,-0.08000,3.68000
,,,-3.96359992027,5.04000,3.60000
,,,-3.96339988708,5.04000,3.60000
,,,-3.96319985390,5.04000,3.60000
,,,-3.96299982071,0.08000,3.60000
,,,-3.96279978752,5.04000,3.68000
,,,-3.96259999275,5.04000,3.68000
,,,-3.96239995956,5.04000,3.60000
,,,-3.96219992638,5.04000,3.60000
,,,-3.96199989319,0.16000,3.60000
,,,-3.96179986000,5.04000,3.60000
,,,-3.96159982681,5.04000,3.60000
,,,-3.96139979362,5.04000,3.60000
,,,-3.96119999886,0.08000,3.60000
,,,-3.96099996567,5.04000,3.68000
,,,-3.96079993248,5.04000,3.68000
,,,-3.96059989929,5.04000,3.60000
,,,-3.96039986610,5.04000,3.60000
,,,-3.96019983292,0.08000,3.60000
,,,-3.95999979973,5.04000,3.60000
,,,-3.95980000496,5.04000,3.60000
,,,-3.95959997177,5.04000,3.60000
,,,-3.95939993858,0.08000,3.60000
,,,-3.95919990540,0.16000,3.60000
,,,-3.95899987221,5.04000,3.60000
,,,-3.95879983902,5.04000,3.60000
,,,-3.95859980583,5.04000,3.60000
,,,-3.95840001106,0.16000,3.60000
,,,-3.95819997787,5.04000,3.60000
,,,-3.95799994469,5.04000,3.60000
,,,-3.95779991150,5.04000,3.60000
,,,-3.95759987831,5.04000,3.60000
,,,-3.95739984512,0.08000,3.60000
,,,-3.95719981194,5.04000,3.60000
,,,-3.95700001717,5.04000,3.60000
,,,-3.95679998398,5.04000,3.60000
,,,-3.95659995079,0.16000,3.60000
,,,-3.95639991760,0.08000,3.60000
,,,-3.95619988441,5.04000,3.60000
,,,-3.95599985123,5.04000,3.60000
,,,-3.95579981804,5.04000,3.60000
,,,-3.95559978485,0.16000,3.60000
,,,-3.95539999008,5.04000,3.68000
,,,-3.95519995689,5.04000,3.60000
,,,-3.95499992371,5.04000,3.60000
,,,-3.95479989052,5.04000,3.60000
,,,-3.95459985733,0.08000,3.60000
,,,-3.95439982414,5.04000,3.60000
,,,-3.95419979095,5.04000,3.60000
,,,-3.95399999619,5.04000,3.60000
,,,-3.95379996300,0.16000,3.60000
,,,-3.95359992981,5.04000,3.60000
,,,-3.95339989662,5.04000,3.60000
,,,-3.95319986343,5.04000,3.60000
,,,-3.95299983025,5.04000,3.60000
,,,-3.95279979706,0.16000,3.60000
,,,-3.95260000229,5.04000,3.60000
,,,-3.95239996910,5.04000,3.60000
,,,-3.95219993591,5.04000,3.60000
,,,-3.95199990273,0.08000,3.52000
,,,-3.95179986954,0.16000,3.60000
,,,-3.95159983635,5.04000,3.60000
,,,-3.95139980316,5.04000,3.52000
,,,-3.95120000839,5.04000,3.52000
,,,-3.95099997520,0.16000,3.52000
,,,-3.95079994202,5.04000,3.60000
,,,-3.95059990883,5.04000,3.60000
,,,-3.95039987564,5.04000,3.60000
,,,-3.95019984245,5.04000,3.52000
,,,-3.94999980927,0.16000,3.60000
,,,-3.94980001450,5.04000,3.60000
,,,-3.94959998131,5.04000,3.60000
,,,-3.94939994812,5.04000,3.52000
,,,-3.94919991493,0.08000,3.52000
,,,-3.94899988174,0.16000,3.60000
,,,-3.94879984856,5.04000,3.60000
,,,-3.94859981537,5.04000,3.52000
,,,-3.94839978218,5.04000,3.60000
,,,-3.94819998741,0.16000,3.60000
,,,-3.94799995422,5.04000,3.60000
,,,-3.94779992104,5.04000,3.60000
,,,-3.94759988785,5.04000,3.52000
,,,-3.94739985466,5.04000,3.52000
,,,-3.94719982147,0.16000,3.52000
,,,-3.94699978828,5.04000,3.60000
,,,-3.94679999352,5.04000,3.52000
,,,-3.94659996033,5.04000,3.60000
,,,-3.94639992714,0.08000,3.52000
,,,-3.94619989395,0.00,3.52000
,,,-3.94599986076,5.04000,3.60000
,,,-3.94579982758,5.04000,3.60000
,,,-3.94559979439,5.04000,3.52000
,,,-3.94539999962,0.16000,3.52000
,,,-3.94519996643,5.04000,3.60000
,,,-3.94499993324,5.04000,3.60000
,,,-3.94479990005,5.04000,3.52000
,,,-3.94459986687,5.12000,3.52000
,,,-3.94439983368,0.16000,3.52000
,,,-3.94419980049,5.04000,3.52000
,,,-3.94400000572,5.04000,3.52000
,,,-3.94379997253,5.04000,3.52000
,,,-3.94359993935,0.08000,3.52000
,,,-3.94339990616,5.04000,3.60000
,,,-3.94319987297,5.04000,3.52000
,,,-3.94299983978,5.04000,3.52000
,,,-3.94279980659,5.04000,3.52000
,,,-3.94260001183,0.08000,3.52000
,,,-3.94239997864,5.04000,3.60000
,,,-3.94219994545,5.04000,3.52000
,,,-3.94199991226,5.04000,3.52000
,,,-3.94179987907,0.08000,3.52000
,,,-3.94159984589,0.16000,3.52000
,,,-3.94139981270,5.04000,3.60000
,,,-3.94120001793,5.04000,3.52000
,,,-3.94099998474,5.04000,3.52000
,,,-3.94079995155,0.16000,3.52000
,,,-3.94059991837,5.04000,3.52000
,,,-3.94039988518,5.04000,3.52000
,,,-3.94019985199,5.04000,3.52000
,,,-3.93999981880,5.04000,3.52000
,,,-3.93979978561,0.16000,3.52000
,,,-3.93959999084,5.04000,3.52000
,,,-3.93939995766,5.04000,3.52000
,,,-3.93919992447,5.04000,3.52000
,,,-3.93899989128,0.16000,3.52000
,,,-3.93879985809,0.16000,3.60000
,,,-3.93859982491,5.04000,3.52000
,,,-3.93839979172,5.04000,3.52000
,,,-3.93819999695,5.04000,3.52000
,,,-3.93799996376,0.16000,3.52000
,,,-3.93779993057,5.04000,3.52000
,,,-3.93759989738,5.04000,3.52000
,,,-3.93739986420,5.04000,3.52000
,,,-3.93719983101,5.12000,3.52000
,,,-3.93699979782,0.16000,3.52000
,,,-3.93680000305,5.04000,3.52000
,,,-3.93659996986,5.04000,3.52000
,,,-3.93639993668,5.04000,3.52000
,,,-3.93619990349,0.16000,3.52000
,,,-3.93599987030,5.04000,3.52000
,,,-3.93579983711,5.04000,3.52000
,,,-3.93559980392,5.04000,3.52000
,,,-3.93540000916,5.04000,3.52000
,,,-3.93519997597,0.16000,3.52000
,,,-3.93499994278,5.04000,3.52000
,,,-3.93479990959,5.04000,3.52000
,,,-3.93459987640,5.04000,3.52000
,,,-3.93439984322,0.16000,3.44000
,,,-3.93419981003,0.16000,3.52000
,,,-3.93400001526,5.04000,3.52000
,,,-3.93379998207,5.04000,3.52000
,,,-3.93359994888,5.04000,3.44000
,,,-3.93339991570,0.16000,3.52000
,,,-3.93319988251,5.04000,3.52000
,,,-3.93299984932,5.04000,3.52000
,,,-3.93279981613,5.04000,3.52000
,,,-3.93259978294,5.04000,3.44000
,,,-3.93239998817,0.16000,3.44000
,,,-3.93219995499,5.04000,3.52000
,,,-3.93199992180,5.04000,3.52000
,,,-3.93179988861,5.04000,3.44000
,,,-3.93159985542,0.08000,3.44000
,,,-3.93139982224,0.16000,3.52000
,,,-3.93119978905,5.04000,3.52000
,,,-3.93099999428,5.04000,3.44000
,,,-3.93079996109,5.04000,3.44000
,,,-3.93059992790,0.16000,3.44000
,,,-3.93039989471,5.04000,3.52000
,,,-3.93019986153,5.04000,3.52000
,,,-3.92999982834,5.04000,3.44000
,,,-3.92979979515,5.04000,3.44000
,,,-3.92960000038,0.16000,3.44000
,,,-3.92939996719,5.04000,3.52000
,,,-3.92919993401,5.04000,3.52000
,,,-3.92899990082,5.04000,3.44000
,,,-3.92879986763,0.16000,3.44000
,,,-3.92859983444,0.00,3.52000
,,,-3.92839980125,5.04000,3.52000
,,,-3.92820000648,5.04000,3.44000
,,,-3.92799997330,5.04000,3.44000
,,,-3.92779994011,0.08000,3.44000
,,,-3.92759990692,5.04000,3.52000
,,,-3.92739987373,5.04000,3.44000
,,,-3.92719984055,5.04000,3.44000
,,,-3.92699980736,0.16000,3.44000
,,,-3.92680001259,0.16000,3.44000
,,,-3.92659997940,5.04000,3.52000
,,,-3.92639994621,5.04000,3.44000
,,,-3.92619991302,5.04000,3.44000
,,,-3.92599987984,0.16000,3.44000
,,,-3.92579984665,5.04000,3.52000
,,,-3.92559981346,5.04000,3.52000
,,,-3.92540001869,5.04000,3.44000
,,,-3.92519998550,5.04000,3.44000
,,,-3.92499995232,0.08000,3.44000
,,,-3.92479991913,5.04000,3.52000
,,,-3.92459988594,5.04000,3.44000
,,,-3.92439985275,5.04000,3.44000
,,,-3.92419981956,0.16000,3.44000
,,,-3.92399978638,0.16000,3.52000
,,,-3.92379999161,5.04000,3.44000
,,,-3.92359995842,5.04000,3.44000
,,,-3.92339992523,5.04000,3.44000
,,,-3.92319989204,0.16000,3.44000
,,,-3.92299985886,5.04000,3.44000
,,,-3.92279982567,5.04000,3.52000
,,,-3.92259979248,5.04000,3.44000
,,,-3.92239999771,5.04000,3.44000
,,,-3.92219996452,0.16000,3.44000
,,,-3.92199993134,5.04000,3.44000
,,,-3.92179989815,5.04000,3.44000
,,,-3.92159986496,5.04000,3.36000
,,,-3.92139983177,0.16000,3.44000
,,,-3.92119979858,0.16000,3.44000
,,,-3.92100000381,5.04000,3.44000
,,,-3.92079997063,5.04000,3.44000
,,,-3.92059993744,5.04000,3.36000
,,,-3.92039990425,0.16000,3.44000
,,,-3.92019987106,5.04000,3.44000
,,,-3.91999983788,5.04000,3.44000
,,,-3.91979980469,5.04000,3.44000
,,,-3.91960000992,4.80000,3.44000
,,,-3.91939997673,0.08000,3.44000
,,,-3.91919994354,5.04000,3.44000
,,,-3.91899991035,5.04000,3.44000
,,,-3.91879987717,5.04000,3.44000
,,,-3.91859984398,0.08000,3.44000
,,,-3.91839981079,0.00,3.44000
,,,-3.91820001602,5.04000,3.44000
,,,-3.91799998283,5.04000,3.44000
,,,-3.91779994965,5.04000,3.36000
,,,-3.91759991646,0.16000,3.44000
,,,-3.91739988327,5.04000,3.44000
,,,-3.91719985008,5.04000,3.44000
,,,-3.91699981689,5.04000,3.44000
,,,-3.91679978371,0.08000,3.36000
,,,-3.91659998894,0.16000,3.44000
,,,-3.91639995575,5.04000,3.44000
,,,-3.91619992256,5.04000,3.44000
,,,-3.91599988937,5.04000,3.36000
,,,-3.91579985619,0.16000,3.44000
,,,-3.91559982300,5.04000,3.44000
,,,-3.91539978981,5.04000,3.44000
,,,-3.91519999504,5.04000,3.36000
,,,-3.91499996185,5.04000,3.36000
,,,-3.91479992867,0.08000,3.36000
,,,-3.91459989548,4.96000,3.44000
,,,-3.91439986229,5.04000,3.36000
,,,-3.91419982910,5.04000,3.36000
,,,-3.91399979591,0.16000,3.36000
,,,-3.91380000114,0.08000,3.44000
,,,-3.91359996796,5.04000,3.44000
,,,-3.91339993477,5.04000,3.44000
,,,-3.91319990158,5.04000,3.36000
,,,-3.91299986839,0.08000,3.36000
,,,-3.91279983521,5.04000,3.44000
,,,-3.91259980202,5.04000,3.44000
,,,-3.91240000725,5.04000,3.36000
,,,-3.91219997406,5.12000,3.36000
,,,-3.91199994087,0.16000,3.36000
,,,-3.91179990768,5.04000,3.44000
,,,-3.91159987450,5.04000,3.44000
,,,-3.91139984131,5.04000,3.36000
,,,-3.91119980812,0.16000,3.36000
,,,-3.91100001335,0.08000,3.44000
,,,-3.91079998016,5.04000,3.36000
,,,-3.91059994698,5.04000,3.44000
,,,-3.91039991379,5.04000,3.36000
,,,-3.91019988060,0.16000,3.36000
,,,-3.90999984741,5.04000,3.44000
,,,-3.90979981422,5.04000,3.44000
,,,-3.90960001945,5.04000,3.36000
,,,-3.90939998627,0.08000,3.36000
,,,-3.90919995308,0.16000,3.44000
,,,-3.90899991989,5.04000,3.36000
,,,-3.90879988670,5.04000,3.36000
,,,-3.90859985352,5.04000,3.36000
,,,-3.90839982033,0.16000,3.36000
,,,-3.90819978714,-0.08000,3.36000
,,,-3.90799999237,5.04000,3.36000
,,,-3.90779995918,5.04000,3.36000
,,,-3.90759992599,5.04000,3.36000
,,,-3.90739989281,0.16000,3.36000
,,,-3.90719985962,5.04000,3.44000
,,,-3.90699982643,4.96000,3.36000
,,,-3.90679979324,5.04000,3.36000
,,,-3.90659999847,0.16000,3.28000
,,,-3.90639996529,0.08000,3.36000
,,,-3.90619993210,5.04000,3.36000
,,,-3.90599989891,5.04000,3.36000
,,,-3.90579986572,5.04000,3.36000
,,,-3.90559983253,0.16000,3.36000
,,,-3.90539979935,5.04000,3.36000
,,,-3.90520000458,5.04000,3.36000
,,,-3.90499997139,5.04000,3.36000
,,,-3.90479993820,5.04000,3.36000
,,,-3.90459990501,0.16000,3.36000
,,,-3.90439987183,5.04000,3.36000
,,,-3.90419983864,5.04000,3.36000
,,,-3.90399980545,5.04000,3.28000
,,,-3.90380001068,0.16000,3.36000
,,,-3.90359997749,0.16000,3.36000
,,,-3.90339994431,5.04000,3.36000
,,,-3.90319991112,5.04000,3.36000
,,,-3.90299987793,5.12000,3.36000
,,,-3.90279984474,0.16000,3.36000
,,,-3.90259981155,5.04000,3.36000
,,,-3.90240001678,5.04000,3.28000
,,,-3.90219998360,5.04000,3.36000
,,,-3.90199995041,0.16000,3.28000
,,,-3.90179991722,0.16000,3.28000
,,,-3.90159988403,5.04000,3.36000
,,,-3.90139985085,5.04000,3.36000
,,,-3.90119981766,5.04000,3.28000
,,,-3.90099978447,0.16000,3.28000
,,,-3.90079998970,0.08000,3.36000
,,,-3.90059995651,5.04000,3.36000
,,,-3.90039992332,5.04000,3.36000
,,,-3.90019989014,5.04000,3.28000
,,,-3.89999985695,0.16000,3.36000
,,,-3.89979982376,5.04000,3.36000
,,,-3.89959979057,5.04000,3.36000
,,,-3.89939999580,5.04000,3.36000
,,,-3.89919996262,0.16000,3.28000
,,,-3.89899992943,0.16000,3.36000
,,,-3.89879989624,5.04000,3.36000
,,,-3.89859986305,5.04000,3.36000
,,,-3.89839982986,5.04000,3.28000
,,,-3.89819979668,0.16000,3.28000
,,,-3.89800000191,5.04000,3.36000
,,,-3.89779996872,5.04000,3.36000
,,,-3.89759993553,5.04000,3.36000
,,,-3.89739990234,5.04000,3.36000
,,,-3.89719986916,0.16000,3.36000
,,,-3.89699983597,5.04000,3.36000
,,,-3.89679980278,5.04000,3.28000
,,,-3.89660000801,5.04000,3.36000
,,,-3.89639997482,0.16000,3.28000
,,,-3.89619994164,0.16000,3.28000
,,,-3.89599990845,5.04000,3.36000
,,,-3.89579987526,5.04000,3.28000
,,,-3.89559984207,5.04000,3.28000
,,,-3.89539980888,0.16000,3.28000
,,,-3.89520001411,5.04000,3.36000
,,,-3.89499998093,5.04000,3.28000
,,,-3.89479994774,5.04000,3.28000
,,,-3.89459991455,0.16000,3.28000
,,,-3.89439988136,0.08000,3.28000
,,,-3.89419984818,5.04000,3.36000
,,,-3.89399981499,5.04000,3.28000
,,,-3.89380002022,5.04000,3.36000
,,,-3.89359998703,0.08000,3.36000
,,,-3.89339995384,0.16000,3.36000
,,,-3.89319992065,5.04000,3.36000
,,,-3.89299988747,5.12000,3.28000
,,,-3.89279985428,5.04000,3.28000
,,,-3.89259982109,0.16000,3.28000
,,,-3.89239978790,5.04000,3.36000
,,,-3.89219999313,5.04000,3.36000
,,,-3.89199995995,4.96000,3.36000
,,,-3.89179992676,0.08000,3.28000
,,,-3.89159989357,0.08000,3.28000
,,,-3.89139986038,5.04000,3.36000
,,,-3.89119982719,5.04000,3.28000
,,,-3.89099979401,5.04000,3.28000
,,,-3.89079999924,0.16000,3.28000
,,,-3.89059996605,0.00,3.36000
,,,-3.89039993286,5.04000,3.28000
,,,-3.89019989967,5.04000,3.28000
,,,-3.88999986649,4.96000,3.28000
,,,-3.88979983330,0.08000,3.28000
,,,-3.88959980011,5.04000,3.28000
,,,-3.88940000534,5.04000,3.36000
,,,-3.88919997215,5.04000,3.28000
,,,-3.88899993896,0.16000,3.28000
,,,-3.88879990578,0.16000,3.28000
,,,-3.88859987259,5.04000,3.36000
,,,-3.88839983940,5.04000,3.28000
,,,-3.88819980621,5.04000,3.28000
,,,-3.88800001144,0.16000,3.28000
,,,-3.88779997826,5.04000,3.36000
,,,-3.88759994507,5.04000,3.36000
,,,-3.88739991188,4.96000,3.28000
,,,-3.88719987869,5.12000,3.28000
,,,-3.88699984550,0.08000,3.28000
,,,-3.88679981232,5.04000,3.28000
,,,-3.88660001755,5.04000,3.28000
,,,-3.88639998436,5.04000,3.28000
,,,-3.88619995117,0.08000,3.28000
,,,-3.88599991798,0.16000,3.28000
,,,-3.88579988480,5.04000,3.28000
,,,-3.88559985161,5.04000,3.28000
,,,-3.88539981842,5.04000,3.28000
,,,-3.88519978523,0.16000,3.20000
,,,-3.88499999046,5.04000,3.28000
,,,-3.88479995728,5.04000,3.28000
,,,-3.88459992409,5.04000,3.28000
,,,-3.88439989090,0.16000,3.20000
