testdata_20211008/BK000004.CSV

Record Length,40000,,Source,CH1,CH2
Sample Interval,CH1:0.0001999999949 CH2:0.0001999999949,,Second,Volt,Volt
Vertical Units,CH1:V CH2:V,,-4.00000000000,0.00,-2.88000
Vertical Scale,CH1:2.00 CH2:2.00,,-3.99979996681,0.00,-2.88000
Vertical Offset,CH1:3.92000 CH2:-4.04000,,-3.99959993362,-0.08000,-0.24000
Horizontal Units,s,,-3.99939990044,-0.08000,-0.16000
Horizontal Scale,0.5000000000,,-3.99919986725,-0.08000,-0.16000
Model Number,2190E,,-3.99899983406,-0.08000,-0.24000
Serial Number,512C18110,,-3.99879980087,-0.08000,-0.16000
Software Version,6.01.01.19,,-3.99860000610,-0.08000,-0.24000
,,,-3.99839997292,-0.16000,-0.24000
,,,-3.99819993973,-0.16000,-0.24000
,,,-3.99799990654,-0.08000,-0.16000
,,,-3.99779987335,-0.08000,-0.24000
,,,-3.99759984016,-0.08000,-0.16000
,,,-3.99739980698,-0.16000,-0.24000
,,,-3.99720001221,-0.16000,-0.16000
,,,-3.99699997902,-0.16000,-0.24000
,,,-3.99679994583,-0.08000,-0.16000
,,,-3.99659991264,-0.08000,-0.24000
,,,-3.99639987946,-0.08000,-0.16000
,,,-3.99619984627,-0.16000,-0.24000
,,,-3.99599981308,-0.08000,-0.16000
,,,-3.99579977989,-0.08000,-0.16000
,,,-3.99559998512,-0.08000,-0.24000
,,,-3.99539995193,-0.08000,-0.16000
,,,-3.99519991875,-0.08000,-0.16000
,,,-3.99499988556,-0.08000,-0.16000
,,,-3.99479985237,-0.08000,-0.16000
,,,-3.99459981918,-0.16000,-0.16000
,,,-3.99439978600,-0.16000,-0.16000
,,,-3.99419999123,-0.08000,-0.24000
,,,-3.99399995804,-0.16000,-0.16000
,,,-3.99379992485,-0.08000,-0.16000
,,,-3.99359989166,-0.08000,-0.16000
,,,-3.99339985847,-0.16000,-0.16000
,,,-3.99319982529,-0.08000,-0.16000
,,,-3.99299979210,-0.08000,-0.16000
,,,-3.99279999733,-0.08000,-0.16000
,,,-3.99259996414,-0.16000,-0.16000
,,,-3.99239993095,-0.16000,-0.16000
,,,-3.99219989777,-0.08000,-0.24000
,,,-3.99199986458,-0.16000,-0.16000
,,,-3.99179983139,-0.16000,-0.16000
,,,-3.99159979820,-0.16000,-0.16000
,,,-3.99140000343,-0.08000,-0.16000
,,,-3.99119997025,-0.08000,-0.24000
,,,-3.99099993706,-0.16000,-0.16000
,,,-3.99079990387,-0.08000,-0.24000
,,,-3.99059987068,-0.16000,-0.16000
,,,-3.99039983749,-0.08000,-0.16000
,,,-3.99019980431,-0.16000,-0.16000
,,,-3.99000000954,-0.16000,-0.16000
,,,-3.98979997635,-0.16000,-0.16000
,,,-3.98959994316,-0.08000,-0.16000
,,,-3.98939990997,-0.08000,-0.16000
,,,-3.98919987679,-0.08000,-0.16000
,,,-3.98899984360,-0.08000,-0.16000
,,,-3.98879981041,-0.08000,-0.16000
,,,-3.98860001564,-0.08000,-0.24000
,,,-3.98839998245,-0.16000,-0.16000
,,,-3.98819994926,-0.08000,-0.24000
,,,-3.98799991608,-0.08000,-0.16000
,,,-3.98779988289,-0.16000,-0.24000
,,,-3.98759984970,-0.08000,-0.16000
,,,-3.98739981651,-0.08000,-0.16000
,,,-3.98719978333,-0.08000,-0.16000
,,,-3.98699998856,-0.08000,-0.16000
,,,-3.98679995537,-0.16000,-0.16000
,,,-3.98659992218,-0.08000,-0.24000
,,,-3.98639988899,-0.08000,-0.16000
,,,-3.98619985580,-0.08000,-0.16000
,,,-3.98599982262,-0.16000,-0.16000
,,,-3.98579978943,-0.08000,-0.24000
,,,-3.98559999466,-0.16000,-0.16000
,,,-3.98539996147,-0.08000,-0.24000
,,,-3.98519992828,-0.08000,-0.16000
,,,-3.98499989510,-0.08000,-0.24000
,,,-3.98479986191,-0.08000,-0.16000
,,,-3.98459982872,-0.16000,-0.24000
,,,-3.98439979553,-0.16000,-0.24000
,,,-3.98420000076,-0.08000,-0.16000
,,,-3.98399996758,-0.08000,-0.16000
,,,-3.98379993439,-0.08000,-0.24000
,,,-3.98359990120,-0.08000,-0.16000
,,,-3.98339986801,-0.08000,-0.16000
,,,-3.98319983482,-0.16000,-0.16000
,,,-3.98299980164,-0.16000,-0.16000
,,,-3.98280000687,-0.08000,-0.16000
,,,-3.98259997368,-0.08000,-0.16000
,,,-3.98239994049,-0.08000,-0.16000
,,,-3.98219990730,-0.08000,-0.16000
,,,-3.98199987411,-0.08000,-0.16000
,,,-3.98179984093,-0.16000,-0.16000
,,,-3.98159980774,-0.16000,-0.16000
,,,-3.98140001297,-0.08000,-0.16000
,,,-3.98119997978,-0.16000,-0.16000
,,,-3.98099994659,-0.16000,-0.16000
,,,-3.98079991341,-0.08000,-0.16000
,,,-3.98059988022,-0.16000,-0.16000
,,,-3.98039984703,-0.08000,-0.16000
,,,-3.98019981384,-0.16000,-0.16000
,,,-3.97999978065,0.00,-0.08000
,,,-3.97979998589,0.00,-0.08000
,,,-3.97959995270,0.00,-0.08000
,,,-3.97939991951,0.00,-0.08000
,,,-3.97919988632,0.00,-0.08000
,,,-3.97899985313,0.00,-0.08000
,,,-3.97879981995,0.00,-0.08000
,,,-3.97859978676,0.00,-0.08000
,,,-3.97839999199,0.00,0.00
,,,-3.97819995880,0.00,0.00
,,,-3.97799992561,0.00,-0.08000
,,,-3.97779989243,0.00,-0.08000
,,,-3.97759985924,0.00,-0.08000
,,,-3.97739982605,0.00,-0.08000
,,,-3.97719979286,0.00,-0.08000
,,,-3.97699999809,0.00,-0.08000
,,,-3.97679996490,0.00,-0.08000
,,,-3.97659993172,0.00,-0.08000
,,,-3.97639989853,0.00,-0.08000
,,,-3.97619986534,0.00,-0.08000
,,,-3.97599983215,0.00,-0.08000
,,,-3.97579979897,0.00,-0.08000
,,,-3.97560000420,0.00,-0.08000
,,,-3.97539997101,0.00,-0.08000
,,,-3.97519993782,0.00,-0.08000
,,,-3.97499990463,0.00,-0.08000
,,,-3.97479987144,0.00,-0.08000
,,,-3.97459983826,0.00,-0.08000
,,,-3.97439980507,0.00,-0.08000
,,,-3.97420001030,0.00,-0.08000
,,,-3.97399997711,0.00,-0.08000
,,,-3.97379994392,0.00,-0.08000
,,,-3.97359991074,0.00,-0.08000
,,,-3.97339987755,0.00,-0.08000
,,,-3.97319984436,0.00,-0.08000
,,,-3.97299981117,0.00,-0.08000
,,,-3.97280001640,0.00,-0.08000
,,,-3.97259998322,0.00,-0.08000
,,,-3.97239995003,0.00,-0.08000
,,,-3.97219991684,0.00,-0.08000
,,,-3.97199988365,0.00,-0.08000
,,,-3.97179985046,0.00,-0.08000
,,,-3.97159981728,0.00,-0.08000
,,,-3.97139978409,0.00,-0.08000
,,,-3.97119998932,0.00,-0.08000
,,,-3.97099995613,0.00,-0.08000
,,,-3.97079992294,0.08000,-0.08000
,,,-3.97059988976,0.00,-0.08000
,,,-3.97039985657,0.00,-0.08000
,,,-3.97019982338,0.00,-0.08000
,,,-3.96999979019,-0.48000,-0.64000
,,,-3.96979999542,-0.48000,-0.56000
,,,-3.96959996223,-0.48000,-0.56000
,,,-3.96939992905,-0.48000,-0.56000
,,,-3.96919989586,-0.48000,-0.64000
,,,-3.96899986267,-0.48000,-0.48000
,,,-3.96879982948,-0.48000,-0.56000
,,,-3.96859979630,-0.48000,-0.56000
,,,-3.96840000153,-0.56000,-0.56000
,,,-3.96819996834,-0.48000,-0.56000
,,,-3.96799993515,-0.48000,-0.56000
,,,-3.96779990196,-0.48000,-0.56000
,,,-3.96759986877,-0.48000,-0.56000
,,,-3.96739983559,-0.48000,-0.56000
,,,-3.96719980240,-0.48000,-0.64000
,,,-3.96700000763,-0.48000,-0.56000
,,,-3.96679997444,-0.48000,-0.56000
,,,-3.96659994125,-0.48000,-0.64000
,,,-3.96639990807,-0.48000,-0.64000
,,,-3.96619987488,-0.48000,-0.64000
,,,-3.96599984169,-0.48000,-0.56000
,,,-3.96579980850,-0.48000,-0.56000
,,,-3.96560001373,-0.48000,-0.56000
,,,-3.96539998055,-0.48000,-0.56000
,,,-3.96519994736,-0.48000,-0.56000
,,,-3.96499991417,-0.48000,-0.56000
,,,-3.96479988098,-0.48000,-0.56000
,,,-3.96459984779,-0.56000,-0.56000
,,,-3.96439981461,-0.48000,-0.56000
,,,-3.96419978142,-0.48000,-0.56000
,,,-3.96399998665,-0.48000,-0.64000
,,,-3.96379995346,-0.48000,-0.64000
,,,-3.96359992027,-0.48000,-0.64000
,,,-3.96339988708,-0.48000,-0.56000
,,,-3.96319985390,-0.48000,-0.56000
,,,-3.96299982071,-0.48000,-0.56000
,,,-3.96279978752,-0.56000,-0.56000
,,,-3.96259999275,-0.56000,-0.64000
,,,-3.96239995956,-0.56000,-0.64000
,,,-3.96219992638,-0.56000,-0.64000
,,,-3.96199989319,-0.48000,-0.64000
,,,-3.96179986000,-0.48000,-0.64000
,,,-3.96159982681,-0.48000,-0.56000
,,,-3.96139979362,-0.48000,-0.64000
,,,-3.96119999886,-0.48000,-0.56000
,,,-3.96099996567,-0.48000,-0.56000
,,,-3.96079993248,-0.56000,-0.56000
,,,-3.96059989929,-0.48000,-0.64000
,,,-3.96039986610,-0.48000,-0.64000
,,,-3.96019983292,-0.48000,-0.56000
,,,-3.95999979973,-0.48000,-0.64000
,,,-3.95980000496,-0.56000,-0.56000
,,,-3.95959997177,-0.48000,-0.56000
,,,-3.95939993858,-0.48000,-0.56000
,,,-3.95919990540,-0.48000,-0.64000
,,,-3.95899987221,-0.56000,-0.56000
,,,-3.95879983902,-0.48000,-0.64000
,,,-3.95859980583,-0.56000,-0.56000
,,,-3.95840001106,-0.48000,-0.56000
,,,-3.95819997787,-0.56000,-0.64000
,,,-3.95799994469,-0.56000,-0.64000
,,,-3.95779991150,-0.48000,-0.64000
,,,-3.95759987831,-0.48000,-0.64000
,,,-3.95739984512,-0.56000,-0.64000
,,,-3.95719981194,-0.48000,-0.64000
,,,-3.95700001717,-0.48000,-0.64000
,,,-3.95679998398,-0.56000,-0.56000
,,,-3.95659995079,-0.48000,-0.56000
,,,-3.95639991760,-0.48000,-0.64000
,,,-3.95619988441,-0.48000,-0.64000
,,,-3.95599985123,-0.48000,-0.56000
,,,-3.95579981804,-0.48000,-0.56000
,,,-3.95559978485,-0.48000,-0.56000
,,,-3.95539999008,-0.56000,-0.64000
,,,-3.95519995689,-0.56000,-0.64000
,,,-3.95499992371,-0.48000,-0.64000
,,,-3.95479989052,-0.48000,-0.56000
,,,-3.95459985733,-0.48000,-0.64000
,,,-3.95439982414,-0.48000,-0.64000
,,,-3.95419979095,-0.56000,-0.56000
,,,-3.95399999619,-0.48000,-0.64000
,,,-3.95379996300,-0.48000,-0.56000
,,,-3.95359992981,-0.56000,-0.64000
,,,-3.95339989662,-0.48000,-0.64000
,,,-3.95319986343,-0.48000,-0.56000
,,,-3.95299983025,-0.48000,-0.64000
,,,-3.95279979706,-0.56000,-0.64000
,,,-3.95260000229,-0.56000,-0.64000
,,,-3.95239996910,-0.56000,-0.56000
,,,-3.95219993591,-0.48000,-0.64000
,,,-3.95199990273,-0.48000,-0.64000
,,,-3.95179986954,-0.56000,-0.64000
,,,-3.95159983635,-0.56000,-0.64000
,,,-3.95139980316,-0.48000,-0.64000
,,,-3.95120000839,-0.48000,-0.56000
,,,-3.95099997520,-0.48000,-0.64000
,,,-3.95079994202,-0.56000,-0.64000
,,,-3.95059990883,-0.48000,-0.64000
,,,-3.95039987564,-0.56000,-0.64000
,,,-3.95019984245,-0.48000,-0.56000
,,,-3.94999980927,-0.48000,-0.56000
,,,-3.94980001450,-0.48000,-0.64000
,,,-3.94959998131,-0.64000,-0.56000
,,,-3.94939994812,-0.56000,-0.64000
,,,-3.94919991493,-0.48000,-0.64000
,,,-3.94899988174,-0.48000,-0.64000
,,,-3.94879984856,-0.56000,-0.64000
,,,-3.94859981537,-0.48000,-0.64000
,,,-3.94839978218,-0.48000,-0.64000
,,,-3.94819998741,-0.56000,-0.64000
,,,-3.94799995422,-0.48000,-0.64000
,,,-3.94779992104,-0.56000,-0.64000
,,,-3.94759988785,-0.56000,-0.64000
,,,-3.94739985466,-0.56000,-0.64000
,,,-3.94719982147,-0.48000,-0.64000
,,,-3.94699978828,-0.48000,-0.64000
,,,-3.94679999352,-0.56000,-0.64000
,,,-3.94659996033,-0.56000,-0.56000
,,,-3.94639992714,-0.56000,-0.64000
,,,-3.94619989395,-0.64000,-0.64000
,,,-3.94599986076,-0.56000,-0.64000
,,,-3.94579982758,-0.56000,-0.64000
,,,-3.94559979439,-0.56000,-0.64000
,,,-3.94539999962,-0.56000,-0.64000
,,,-3.94519996643,-0.64000,-0.64000
,,,-3.94499993324,-0.56000,-0.64000
,,,-3.94479990005,-0.48000,-0.64000
,,,-3.94459986687,-0.56000,-0.64000
,,,-3.94439983368,-0.48000,-0.64000
,,,-3.94419980049,-0.64000,-0.64000
,,,-3.94400000572,-0.56000,-0.64000
,,,-3.94379997253,-0.48000,-0.64000
,,,-3.94359993935,-0.56000,-0.56000
,,,-3.94339990616,-0.56000,-0.64000
,,,-3.94319987297,-0.56000,-0.56000
,,,-3.94299983978,-0.56000,-0.64000
,,,-3.94279980659,-0.56000,-0.64000
,,,-3.94260001183,-0.56000,-0.64000
,,,-3.94239997864,-0.56000,-0.64000
,,,-3.94219994545,-0.56000,-0.56000
,,,-3.94199991226,-0.48000,-0.64000
,,,-3.94179987907,-0.56000,-0.64000
,,,-3.94159984589,-0.56000,-0.64000
,,,-3.94139981270,-0.56000,-0.64000
,,,-3.94120001793,-0.56000,-0.64000
,,,-3.94099998474,-0.56000,-0.64000
,,,-3.94079995155,-0.56000,-0.64000
,,,-3.94059991837,-0.56000,-0.64000
,,,-3.94039988518,-0.56000,-0.64000
,,,-3.94019985199,-0.48000,-0.64000
,,,-3.93999981880,-0.48000,-0.64000
,,,-3.93979978561,-0.56000,-0.64000
,,,-3.93959999084,-0.56000,-0.64000
,,,-3.93939995766,-0.56000,-0.72000
,,,-3.93919992447,-0.56000,-0.64000
,,,-3.93899989128,-0.48000,-0.64000
,,,-3.93879985809,-0.56000,-0.64000
,,,-3.93859982491,-0.56000,-0.64000
,,,-3.93839979172,-0.56000,-0.64000
,,,-3.93819999695,-0.56000,-0.64000
,,,-3.93799996376,-0.56000,-0.64000
,,,-3.93779993057,-0.56000,-0.64000
,,,-3.93759989738,-0.48000,-0.64000
,,,-3.93739986420,-0.48000,-0.64000
,,,-3.93719983101,-0.56000,-0.64000
,,,-3.93699979782,-0.64000,-0.64000
,,,-3.93680000305,-0.56000,-0.64000
,,,-3.93659996986,-0.56000,-0.64000
,,,-3.93639993668,-0.56000,-0.64000
,,,-3.93619990349,-0.56000,-0.64000
,,,-3.93599987030,-0.56000,-0.64000
,,,-3.93579983711,-0.64000,-0.64000
,,,-3.93559980392,-0.56000,-0.64000
,,,-3.93540000916,-0.56000,-0.64000
,,,-3.93519997597,-0.64000,-0.64000
,,,-3.93499994278,-0.56000,-0.64000
,,,-3.93479990959,-0.64000,-0.64000
,,,-3.93459987640,-0.64000,-0.64000
,,,-3.93439984322,-0.56000,-0.64000
,,,-3.93419981003,-0.48000,-0.64000
,,,-3.93400001526,-0.64000,-0.64000
,,,-3.93379998207,-0.64000,-0.64000
,,,-3.93359994888,-0.56000,-0.64000
,,,-3.93339991570,-0.56000,-0.64000
,,,-3.93319988251,-0.64000,-0.64000
,,,-3.93299984932,-0.56000,-0.64000
,,,-3.93279981613,-0.64000,-0.64000
,,,-3.93259978294,-0.64000,-0.64000
,,,-3.93239998817,-0.64000,-0.64000
,,,-3.93219995499,-0.56000,-0.64000
,,,-3.93199992180,-0.56000,-0.64000
,,,-3.93179988861,-0.56000,-0.64000
,,,-3.93159985542,-0.64000,-0.64000
,,,-3.93139982224,-0.64000,-0.64000
,,,-3.93119978905,-0.56000,-0.72000
,,,-3.93099999428,-0.56000,-0.64000
,,,-3.93079996109,-0.56000,-0.64000
,,,-3.93059992790,-0.56000,-0.64000
,,,-3.93039989471,-0.64000,-0.64000
,,,-3.93019986153,-0.56000,-0.64000
,,,-3.92999982834,-0.64000,-0.64000
,,,-3.92979979515,-0.56000,-0.64000
,,,-3.92960000038,-0.56000,-0.64000
,,,-3.92939996719,-0.48000,-0.64000
,,,-3.92919993401,-0.64000,-0.72000
,,,-3.92899990082,-0.64000,-0.64000
,,,-3.92879986763,-0.64000,-0.64000
,,,-3.92859983444,-0.56000,-0.72000
,,,-3.92839980125,-0.64000,-0.64000
,,,-3.92820000648,-0.64000,-0.64000
,,,-3.92799997330,-0.56000,-0.64000
,,,-3.92779994011,-0.56000,-0.64000
,,,-3.92759990692,-0.56000,-0.64000
,,,-3.92739987373,-0.56000,-0.64000
,,,-3.92719984055,-0.64000,-0.64000
,,,-3.92699980736,-0.56000,-0.72000
,,,-3.92680001259,-0.56000,-0.64000
,,,-3.92659997940,-0.56000,-0.72000
,,,-3.92639994621,-0.56000,-0.64000
,,,-3.92619991302,-0.56000,-0.64000
,,,-3.92599987984,-0.56000,-0.64000
,,,-3.92579984665,-0.56000,-0.64000
,,,-3.92559981346,-0.56000,-0.64000
,,,-3.92540001869,-0.64000,-0.72000
,,,-3.92519998550,-0.64000,-0.64000
,,,-3.92499995232,-0.56000,-0.64000
,,,-3.92479991913,-0.64000,-0.64000
,,,-3.92459988594,-0.56000,-0.72000
,,,-3.92439985275,-0.56000,-0.72000
,,,-3.92419981956,-0.56000,-0.64000
,,,-3.92399978638,-0.56000,-0.64000
,,,-3.92379999161,-0.64000,-0.72000
,,,-3.92359995842,-0.64000,-0.64000
,,,-3.92339992523,-0.56000,-0.64000
,,,-3.92319989204,-0.56000,-0.64000
,,,-3.92299985886,-0.64000,-0.72000
,,,-3.92279982567,-0.64000,-0.64000
,,,-3.92259979248,-0.64000,-0.64000
,,,-3.92239999771,-0.56000,-0.64000
,,,-3.92219996452,-0.64000,-0.64000
,,,-3.92199993134,-0.56000,-0.72000
,,,-3.92179989815,-0.56000,-0.64000
,,,-3.92159986496,-0.56000,-0.72000
,,,-3.92139983177,-0.64000,-0.64000
,,,-3.92119979858,-0.56000,-0.72000
,,,-3.92100000381,-0.64000,-0.72000
,,,-3.92079997063,-0.56000,-0.64000
,,,-3.92059993744,-0.64000,-0.72000
,,,-3.92039990425,-0.56000,-0.64000
,,,-3.92019987106,-0.64000,-0.64000
,,,-3.91999983788,-0.64000,-0.64000
,,,-3.91979980469,-0.64000,-0.64000
,,,-3.91960000992,-0.56000,-0.72000
,,,-3.91939997673,-0.64000,-0.64000
,,,-3.91919994354,-0.64000,-0.72000
,,,-3.91899991035,-0.56000,-0.64000
,,,-3.91879987717,-0.56000,-0.72000
,,,-3.91859984398,-0.64000,-0.72000
,,,-3.91839981079,-0.64000,-0.72000
,,,-3.91820001602,-0.64000,-0.64000
,,,-3.91799998283,-0.64000,-0.72000
,,,-3.91779994965,-0.64000,-0.64000
,,,-3.91759991646,-0.56000,-0.72000
,,,-3.91739988327,-0.64000,-0.72000
,,,-3.91719985008,-0.64000,-0.72000
,,,-3.91699981689,-0.64000,-0.72000
,,,-3.91679978371,-0.64000,-0.72000
,,,-3.91659998894,-0.56000,-0.72000
,,,-3.91639995575,-0.64000,-0.72000
,,,-3.91619992256,-0.56000,-0.64000
,,,-3.91599988937,-0.64000,-0.72000
,,,-3.91579985619,-0.56000,-0.64000
,,,-3.91559982300,-0.64000,-0.64000
,,,-3.91539978981,-0.56000,-0.72000
,,,-3.91519999504,-0.64000,-0.72000
,,,-3.91499996185,-0.64000,-0.72000
,,,-3.91479992867,-0.64000,-0.72000
,,,-3.91459989548,-0.64000,-0.72000
,,,-3.91439986229,-0.64000,-0.72000
,,,-3.91419982910,-0.64000,-0.72000
,,,-3.91399979591,-0.64000,-0.72000
,,,-3.91380000114,-0.64000,-0.72000
,,,-3.91359996796,-0.64000,-0.72000
,,,-3.91339993477,-0.64000,-0.64000
,,,-3.91319990158,-0.64000,-0.72000
,,,-3.91299986839,-0.56000,-0.64000
,,,-3.91279983521,-0.64000,-0.72000
,,,-3.91259980202,-0.64000,-0.72000
,,,-3.91240000725,-0.64000,-0.64000
,,,-3.91219997406,-0.56000,-0.72000
,,,-3.91199994087,-0.64000,-0.64000
,,,-3.91179990768,-0.64000,-0.72000
,,,-3.91159987450,-0.64000,-0.64000
,,,-3.91139984131,-0.64000,-0.72000
,,,-3.91119980812,-0.64000,-0.72000
,,,-3.91100001335,-0.64000,-0.72000
,,,-3.91079998016,-0.64000,-0.72000
,,,-3.91059994698,-0.56000,-0.72000
,,,-3.91039991379,-0.64000,-0.72000
,,,-3.91019988060,-0.64000,-0.64000
,,,-3.90999984741,-0.64000,-0.72000
,,,-3.90979981422,-0.64000,-0.64000
,,,-3.90960001945,-0.64000,-0.64000
,,,-3.90939998627,-0.64000,-0.72000
,,,-3.90919995308,-0.64000,-0.72000
,,,-3.90899991989,-0.64000,-0.64000
,,,-3.90879988670,-0.64000,-0.72000
,,,-3.90859985352,-0.64000,-0.72000
,,,-3.90839982033,-0.64000,-0.64000
,,,-3.90819978714,-0.64000,-0.72000
,,,-3.90799999237,-0.64000,-0.72000
,,,-3.90779995918,-0.64000,-0.72000
,,,-3.90759992599,-0.64000,-0.72000
,,,-3.90739989281,-0.64000,-0.72000
,,,-3.90719985962,-0.64000,-0.72000
,,,-3.90699982643,-0.64000,-0.72000
,,,-3.90679979324,-0.64000,-0.72000
,,,-3.90659999847,-0.64000,-0.72000
,,,-3.90639996529,-0.64000,-0.72000
,,,-3.90619993210,-0.64000,-0.72000
,,,-3.90599989891,-0.64000,-0.72000
,,,-3.90579986572,-0.64000,-0.72000
,,,-3.90559983253,-0.64000,-0.72000
,,,-3.90539979935,-0.64000,-0.72000
,,,-3.90520000458,-0.64000,-0.72000
,,,-3.90499997139,-0.64000,-0.72000
,,,-3.90479993820,-0.64000,-0.72000
,,,-3.90459990501,-0.64000,-0.72000
,,,-3.90439987183,-0.64000,-0.72000
,,,-3.90419983864,-0.64000,-0.72000
,,,-3.90399980545,-0.64000,-0.72000
,,,-3.90380001068,-0.64000,-0.72000
,,,-3.90359997749,-0.64000,-0.72000
,,,-3.90339994431,-0.64000,-0.72000
,,,-3.90319991112,-0.64000,-0.72000
,,,-3.90299987793,-0.64000,-0.72000
,,,-3.90279984474,-0.64000,-0.72000
,,,-3.90259981155,-0.64000,-0.72000
,,,-3.90240001678,-0.64000,-0.72000
,,,-3.90219998360,-0.64000,-0.72000
,,,-3.90199995041,-0.64000,-0.72000
,,,-3.90179991722,-0.64000,-0.72000
,,,-3.90159988403,-0.64000,-0.72000
,,,-3.90139985085,-0.64000,-0.72000
,,,-3.90119981766,-0.64000,-0.72000
,,,-3.90099978447,-0.64000,-0.72000
,,,-3.90079998970,-0.64000,-0.72000
,,,-3.90059995651,-0.64000,-0.72000
,,,-3.90039992332,-0.56000,-0.72000
,,,-3.90019989014,-0.64000,-0.72000
,,,-3.89999985695,-0.64000,-0.72000
,,,-3.89979982376,-0.64000,-0.64000
,,,-3.89959979057,-0.64000,-0.72000
,,,-3.89939999580,-0.64000,-0.72000
,,,-3.89919996262,-0.64000,-0.72000
,,,-3.89899992943,-0.64000,-0.72000
,,,-3.89879989624,-0.64000,-0.72000
,,,-3.89859986305,-0.64000,-0.72000
,,,-3.89839982986,-0.64000,-0.72000
,,,-3.89819979668,-0.64000,-0.72000
,,,-3.89800000191,-0.64000,-0.72000
,,,-3.89779996872,-0.64000,-0.72000
,,,-3.89759993553,-0.64000,-0.72000
,,,-3.89739990234,-0.64000,-0.72000
,,,-3.89719986916,-0.64000,-0.72000
,,,-3.89699983597,-0.64000,-0.72000
,,,-3.89679980278,-0.64000,-0.72000
,,,-3.89660000801,-0.64000,-0.72000
,,,-3.89639997482,-0.64000,-0.72000
,,,-3.89619994164,-0.64000,-0.72000
,,,-3.89599990845,-0.64000,-0.72000
,,,-3.89579987526,-0.64000,-0.72000
,,,-3.89559984207,-0.64000,-0.72000
,,,-3.89539980888,-0.64000,-0.72000
,,,-3.89520001411,-0.64000,-0.72000
,,,-3.89499998093,-0.64000,-0.72000
,,,-3.89479994774,-0.64000,-0.72000
,,,-3.89459991455,-0.64000,-0.72000
,,,-3.89439988136,-0.64000,-0.72000
,,,-3.89419984818,-0.64000,-0.72000
,,,-3.89399981499,-0.64000,-0.72000
,,,-3.89380002022,-0.64000,-0.72000
,,,-3.89359998703,-0.64000,-0.72000
,,,-3.89339995384,-0.64000,-0.72000
,,,-3.89319992065,-0.64000,-0.72000
,,,-3.89299988747,-0.64000,-0.72000
,,,-3.89279985428,-0.64000,-0.72000
,,,-3.89259982109,-0.64000,-0.72000
,,,-3.89239978790,-0.64000,-0.72000
,,,-3.89219999313,-0.64000,-0.72000
,,,-3.89199995995,-0.64000,-0.72000
,,,-3.89179992676,-0.64000,-0.72000
,,,-3.89159989357,-0.64000,-0.72000
,,,-3.89139986038,-0.64000,-0.72000
,,,-3.89119982719,-0.64000,-0.72000
,,,-3.89099979401,-0.64000,-0.72000
,,,-3.89079999924,-0.64000,-0.72000
,,,-3.89059996605,-0.64000,-0.72000
,,,-3.89039993286,-0.64000,-0.72000
,,,-3.89019989967,-0.64000,-0.72000
,,,-3.88999986649,-0.64000,-0.72000
,,,-3.88979983330,-0.64000,-0.72000
