Oscope_Logs/testdata_20211021/T0004ALL.CSV

Model,MSO2024B
Firmware Version,1.56

Point Format,Y,,,
Horizontal Units,S,,,
Horizontal Scale,1,,,
Sample Interval,8e-05,,,
Filter Frequency,2e+08,,,
Record Length,125000,,,
Gating,0.0% to 100.0%,,0.0% to 100.0%,
Probe Attenuation,10,,10,
Vertical Units,V,,V,
Vertical Offset,0,,0,
Vertical Scale,2,,2,
Label,,,,
TIME,CH1,CH1 Peak Detect,CH2,CH2 Peak Detect
-5.00000e+00,-2.24,-1.84,-2.28,-1.8
-4.99992e+00,-3.36,-5.84,-3.4,-5.88
-4.99984e+00,-4.48,-1.76,-4.52,-1.72
-4.99976e+00,-2.8,-5.44,-2.84,-5.4
-4.99968e+00,-5.2,-2.24,-5.16,-2.2
-4.99960e+00,-3.6,-5.92,-3.72,-5.96
-4.99952e+00,-4.08,-1.28,-4.12,-1.24
-4.99944e+00,-4.08,-5.44,-4.04,-5.4
-4.99936e+00,-2.72,-1.76,-2.84,-1.72
-4.99928e+00,-4.72,-4.8,-4.76,-4.76
-4.99920e+00,-5.04,-2.08,-5.08,-2.04
-4.99912e+00,-2.8,-6,-2.84,-5.96
-4.99904e+00,-4.72,-1.68,-4.76,-1.72
-4.99896e+00,-2.64,-5.44,-2.68,-5.4
-4.99888e+00,-3.44,-2.64,-3.48,-2.6
-4.99880e+00,-3.76,-5.6,-3.8,-5.64
-4.99872e+00,-2.88,-1.76,-2.92,-1.8
-4.99864e+00,-5.2,-5.76,-5.24,-5.72
-4.99856e+00,-3.44,-2.32,-3.48,-2.28
-4.99848e+00,-3.76,-5.68,-3.8,-5.64
-4.99840e+00,-4.16,-1.28,-4.2,-1.24
-4.99832e+00,-3.12,-5.36,-3.16,-5.4
-4.99824e+00,-4.56,-2,-4.6,-1.96
-4.99816e+00,-4.72,-5.6,-4.76,-5.64
-4.99808e+00,-3.28,-2.08,-3.32,-2.12
-4.99800e+00,-5.12,-5.04,-5.16,-5.08
-4.99792e+00,-2.16,-1.36,-2.2,-1.4
-4.99784e+00,-3.68,-5.68,-3.8,-5.64
-4.99776e+00,-3.68,-1.6,-3.72,-1.56
-4.99768e+00,-3.2,-5.52,-3.24,-5.48
-4.99760e+00,-5.12,-2.16,-5.16,-2.2
-4.99752e+00,-2.88,-5.28,-2.92,-5.24
-4.99744e+00,-4.48,-1.44,-4.52,-1.4
-4.99736e+00,-4.16,-6.16,-4.2,-6.12
-4.99728e+00,-2.56,-1.84,-2.6,-1.8
-4.99720e+00,-4.32,-5.12,-4.28,-5.16
-4.99712e+00,-4.56,-2.16,-4.6,-2.12
-4.99704e+00,-4,-5.52,-4.04,-5.56
-4.99696e+00,-5.2,-1.84,-5.24,-1.88
-4.99688e+00,-2.16,-5.52,-2.2,-5.48
-4.99680e+00,-4,-2.8,-3.96,-2.76
-4.99672e+00,-3.36,-5.6,-3.4,-5.56
-4.99664e+00,-2.88,-1.44,-2.92,-1.48
-4.99656e+00,-5.04,-5.76,-5.08,-5.8
-4.99648e+00,-3.04,-2.64,-3.08,-2.6
-4.99640e+00,-4.8,-5.76,-4.84,-5.8
-4.99632e+00,-4,-1.44,-4.04,-1.48
-4.99624e+00,-2.64,-5.04,-2.76,-5.08
-4.99616e+00,-4.96,-1.44,-4.92,-1.48
-4.99608e+00,-3.76,-5.68,-3.8,-5.72
-4.99600e+00,-3.76,-2.24,-3.8,-2.28
-4.99592e+00,-5.04,-5.04,-5.08,-5.08
-4.99584e+00,-2.24,-1.68,-2.36,-1.64
-4.99576e+00,-4.64,-5.2,-4.6,-5.16
-4.99568e+00,-2.88,-1.92,-2.92,-1.96
-4.99560e+00,-3.12,-6,-3.16,-5.96
-4.99552e+00,-5.12,-2.24,-5.16,-2.2
-4.99544e+00,-2.88,-5.52,-2.84,-5.48
-4.99536e+00,-4.72,-1.68,-4.76,-1.64
-4.99528e+00,-3.84,-5.92,-3.88,-5.96
-4.99520e+00,-2.96,-2,-3,-2.04
-4.99512e+00,-4.96,-5.12,-5,-5.16
-4.99504e+00,-3.36,-2.16,-3.4,-2.12
-4.99496e+00,-4,-5.52,-4.04,-5.56
-4.99488e+00,-5.68,-1.6,-5.64,-1.64
-4.99480e+00,-2.32,-5.68,-2.36,-5.72
-4.99472e+00,-4.16,-2.56,-4.2,-2.6
-4.99464e+00,-2.48,-5.68,-2.44,-5.72
-4.99456e+00,-3.2,-1.76,-3.16,-1.8
-4.99448e+00,-4.88,-5.36,-4.92,-5.4
-4.99440e+00,-2.4,-2.08,-2.44,-2.04
-4.99432e+00,-4.96,-6.08,-5,-6.04
-4.99424e+00,-4.16,-1.92,-4.2,-1.96
-4.99416e+00,-3.04,-5.12,-3.08,-5.16
-4.99408e+00,-4.8,-1.52,-4.84,-1.48
-4.99400e+00,-3.04,-5.2,-3.08,-5.24
-4.99392e+00,-4.16,-1.92,-4.2,-1.96
-4.99384e+00,-5.28,-5.2,-5.32,-5.24
-4.99376e+00,-2.56,-1.76,-2.6,-1.72
-4.99368e+00,-4.96,-5.44,-5,-5.4
-4.99360e+00,-2.64,-2,-2.68,-2.04
-4.99352e+00,-3.28,-5.52,-3.4,-5.56
-4.99344e+00,-4.16,-2.16,-4.28,-2.2
-4.99336e+00,-2.64,-5.44,-2.68,-5.4
-4.99328e+00,-4.96,-2.32,-5,-2.36
-4.99320e+00,-3.52,-5.92,-3.48,-5.96
-4.99312e+00,-2.88,-1.36,-2.84,-1.4
-4.99304e+00,-4.96,-5.12,-5,-5.16
-4.99296e+00,-3.36,-2.08,-3.32,-2.12
-4.99288e+00,-4.16,-5.76,-4.2,-5.8
-4.99280e+00,-4.96,-1.76,-5,-1.72
-4.99272e+00,-2.96,-4.96,-3,-5.08
-4.99264e+00,-5.04,-1.76,-5.08,-1.8
-4.99256e+00,-2.32,-5.6,-2.28,-5.64
-4.99248e+00,-3.6,-2.24,-3.64,-2.28
-4.99240e+00,-4.24,-5.44,-4.28,-5.4
-4.99232e+00,-2.88,-1.76,-2.92,-1.8
-4.99224e+00,-4.88,-5.6,-4.92,-5.64
-4.99216e+00,-3.28,-2.16,-3.32,-2.12
-4.99208e+00,-3.6,-5.52,-3.72,-5.48
-4.99200e+00,-4.72,-1.36,-4.76,-1.32
-4.99192e+00,-2.72,-5.36,-2.76,-5.4
-4.99184e+00,-3.92,-1.92,-4.04,-1.88
-4.99176e+00,-4.8,-5.28,-4.84,-5.32
-4.99168e+00,-3.6,-1.84,-3.64,-1.88
-4.99160e+00,-5.2,-5.52,-5.24,-5.48
-4.99152e+00,-2.24,-2.24,-2.28,-2.2
-4.99144e+00,-4,-5.52,-4.04,-5.56
-4.99136e+00,-3.76,-2,-3.8,-1.96
-4.99128e+00,-2.64,-5.44,-2.68,-5.4
-4.99120e+00,-4.8,-2.16,-4.84,-2.12
-4.99112e+00,-3.28,-6.16,-3.4,-6.2
-4.99104e+00,-4,-1.28,-4.04,-1.24
-4.99096e+00,-4.64,-5.2,-4.68,-5.24
-4.99088e+00,-2.8,-1.6,-2.84,-1.56
-4.99080e+00,-4.8,-5.28,-4.84,-5.32
-4.99072e+00,-4.4,-2.16,-4.36,-2.12
-4.99064e+00,-3.36,-5.28,-3.4,-5.32
-4.99056e+00,-5.2,-1.76,-5.24,-1.8
-4.99048e+00,-2.24,-5.36,-2.28,-5.4
-4.99040e+00,-4.24,-2.24,-4.28,-2.2
-4.99032e+00,-3.28,-5.84,-3.32,-5.8
-4.99024e+00,-2.88,-2,-2.92,-1.96
-4.99016e+00,-4.88,-5.84,-4.92,-5.8
-4.99008e+00,-2.96,-2.72,-3,-2.76
-4.99000e+00,-3.92,-5.6,-3.96,-5.56
-4.98992e+00,-4.72,-1.36,-4.68,-1.32
-4.98984e+00,-2.88,-5.28,-2.92,-5.32
-4.98976e+00,-4.64,-2.08,-4.68,-2.12
-4.98968e+00,-3.84,-5.36,-3.88,-5.32
-4.98960e+00,-3.68,-2,-3.72,-1.96
-4.98952e+00,-5.68,-5.2,-5.72,-5.16
-4.98944e+00,-2.24,-1.76,-2.28,-1.72
-4.98936e+00,-4.08,-5.84,-4.12,-5.8
-4.98928e+00,-3.12,-1.68,-3.16,-1.72
-4.98920e+00,-2.96,-5.28,-3,-5.32
-4.98912e+00,-4.56,-2.08,-4.6,-2.12
-4.98904e+00,-2.4,-5.76,-2.44,-5.8
-4.98896e+00,-4.24,-1.6,-4.28,-1.56
-4.98888e+00,-4.88,-5.6,-4.92,-5.56
-4.98880e+00,-2.8,-1.84,-2.84,-1.88
-4.98872e+00,-4.64,-5.12,-4.76,-5.16
-4.98864e+00,-3.44,-1.84,-3.48,-1.88
-4.98856e+00,-3.68,-5.36,-3.64,-5.32
-4.98848e+00,-5.44,-1.76,-5.56,-1.72
-4.98840e+00,-2.4,-5.6,-2.44,-5.56
-4.98832e+00,-4.56,-2.48,-4.6,-2.52
-4.98824e+00,-3.28,-5.6,-3.32,-5.56
-4.98816e+00,-2.96,-1.76,-3,-1.8
-4.98808e+00,-4.24,-5.68,-4.2,-5.72
-4.98800e+00,-2.88,-2.4,-2.92,-2.36
-4.98792e+00,-4.24,-5.6,-4.28,-5.56
-4.98784e+00,-4.16,-1.28,-4.12,-1.24
-4.98776e+00,-2.56,-5.12,-2.6,-5.16
-4.98768e+00,-4.8,-1.92,-4.76,-1.88
-4.98760e+00,-3.68,-5.84,-3.72,-5.8
-4.98752e+00,-3.6,-2,-3.72,-2.04
-4.98744e+00,-5.36,-4.96,-5.48,-5
-4.98736e+00,-2.72,-1.68,-2.76,-1.72
-4.98728e+00,-4.8,-5.6,-4.76,-5.64
-4.98720e+00,-2.72,-1.84,-2.68,-1.8
-4.98712e+00,-3.2,-5.44,-3.16,-5.48
-4.98704e+00,-4.4,-2.48,-4.44,-2.44
-4.98696e+00,-2.88,-5.6,-2.92,-5.64
-4.98688e+00,-4.4,-1.2,-4.36,-1.16
-4.98680e+00,-4,-5.6,-4.04,-5.64
-4.98672e+00,-3.28,-2,-3.32,-1.96
-4.98664e+00,-4.8,-5.44,-4.92,-5.48
-4.98656e+00,-3.2,-2,-3.16,-1.96
-4.98648e+00,-3.36,-5.6,-3.48,-5.64
-4.98640e+00,-5.28,-1.68,-5.32,-1.64
-4.98632e+00,-3.04,-5.36,-3.08,-5.32
-4.98624e+00,-4.8,-2.88,-4.84,-2.84
-4.98616e+00,-2.72,-5.6,-2.76,-5.64
-4.98608e+00,-3.68,-1.76,-3.64,-1.8
-4.98600e+00,-4.08,-5.52,-4.12,-5.48
-4.98592e+00,-2.64,-2.56,-2.68,-2.52
-4.98584e+00,-4.4,-6.16,-4.36,-6.12
-4.98576e+00,-3.92,-1.6,-4.04,-1.64
-4.98568e+00,-3.36,-4.96,-3.4,-5
-4.98560e+00,-4.8,-1.84,-4.84,-1.88
-4.98552e+00,-3.36,-5.68,-3.48,-5.64
-4.98544e+00,-4.08,-1.68,-4.2,-1.64
-4.98536e+00,-4.8,-4.96,-4.76,-5
-4.98528e+00,-2.88,-2,-2.92,-2.04
-4.98520e+00,-5.12,-5.6,-5.16,-5.56
-4.98512e+00,-2.56,-1.84,-2.68,-1.88
-4.98504e+00,-3.68,-5.28,-3.72,-5.24
-4.98496e+00,-3.52,-1.92,-3.56,-1.88
-4.98488e+00,-2.72,-5.84,-2.76,-5.8
-4.98480e+00,-4.64,-1.68,-4.68,-1.72
-4.98472e+00,-3.68,-6,-3.8,-5.96
-4.98464e+00,-3.36,-1.68,-3.4,-1.64
-4.98456e+00,-4.72,-5.28,-4.76,-5.32
-4.98448e+00,-3.6,-2.32,-3.64,-2.28
-4.98440e+00,-3.92,-5.6,-3.88,-5.64
-4.98432e+00,-4.24,-1.52,-4.28,-1.56
-4.98424e+00,-3.44,-4.56,-3.48,-4.6
-4.98416e+00,-5.68,-2.4,-5.72,-2.36
-4.98408e+00,-2.64,-5.84,-2.68,-5.8
-4.98400e+00,-3.76,-2.16,-3.8,-2.12
-4.98392e+00,-3.52,-5.76,-3.64,-5.8
-4.98384e+00,-2.88,-2.32,-2.92,-2.28
-4.98376e+00,-3.92,-6.08,-3.96,-6.12
-4.98368e+00,-3.2,-1.52,-3.24,-1.48
-4.98360e+00,-3.68,-4.96,-3.72,-4.92
-4.98352e+00,-5.12,-1.84,-5.16,-1.8
-4.98344e+00,-3.52,-5.6,-3.48,-5.56
-4.98336e+00,-4,-2,-4.04,-2.04
-4.98328e+00,-4,-5.28,-4.04,-5.32
-4.98320e+00,-3.52,-1.52,-3.48,-1.56
-4.98312e+00,-5.44,-5.92,-5.48,-5.88
-4.98304e+00,-2.72,-1.76,-2.76,-1.72
-4.98296e+00,-4.24,-5.52,-4.28,-5.48
-4.98288e+00,-3.6,-2.08,-3.64,-2.04
-4.98280e+00,-2.96,-5.28,-2.92,-5.24
-4.98272e+00,-3.6,-2.24,-3.64,-2.28
-4.98264e+00,-3.68,-6.08,-3.8,-6.04
-4.98256e+00,-3.68,-1.04,-3.72,-1.08
-4.98248e+00,-4.4,-5.04,-4.44,-5.08
-4.98240e+00,-3.28,-2.08,-3.32,-2.04
-4.98232e+00,-4.16,-5.52,-4.2,-5.56
-4.98224e+00,-3.68,-1.68,-3.72,-1.72
-4.98216e+00,-3.44,-5.28,-3.48,-5.24
-4.98208e+00,-5.44,-2.08,-5.4,-2.04
-4.98200e+00,-3.2,-5.44,-3.16,-5.48
-4.98192e+00,-4.56,-1.84,-4.6,-1.88
-4.98184e+00,-3.12,-5.68,-3.24,-5.64
-4.98176e+00,-3.12,-2.08,-3.16,-2.04
-4.98168e+00,-3.44,-6,-3.56,-5.96
-4.98160e+00,-3.52,-2.56,-3.48,-2.52
-4.98152e+00,-3.76,-5.04,-3.8,-5.08
-4.98144e+00,-4.4,-1.2,-4.44,-1.16
-4.98136e+00,-4.08,-5.76,-4.12,-5.8
-4.98128e+00,-4.08,-2,-4.12,-1.96
-4.98120e+00,-3.28,-5.2,-3.32,-5.16
-4.98112e+00,-3.36,-1.68,-3.4,-1.64
-4.98104e+00,-5.12,-5.28,-5.16,-5.32
-4.98096e+00,-3.44,-2,-3.48,-1.96
-4.98088e+00,-4.64,-5.68,-4.68,-5.72
-4.98080e+00,-3.12,-1.92,-3.24,-1.96
-4.98072e+00,-3.68,-5.28,-3.72,-5.32
-4.98064e+00,-2.96,-1.84,-3.08,-1.88
-4.98056e+00,-3.28,-6,-3.32,-5.96
-4.98048e+00,-3.76,-1.2,-3.8,-1.16
-4.98040e+00,-4.32,-5.28,-4.36,-5.24
-4.98032e+00,-4.08,-2,-4.12,-1.96
-4.98024e+00,-4,-4.96,-4.12,-5
-4.98016e+00,-3.52,-1.52,-3.48,-1.48
-4.98008e+00,-3.92,-5.44,-3.96,-5.4
-4.98000e+00,-4.72,-2.16,-4.84,-2.12
-4.97992e+00,-3.36,-5.28,-3.48,-5.24
-4.97984e+00,-5.04,-2.32,-5.16,-2.36
-4.97976e+00,-2.96,-5.6,-3.08,-5.64
-4.97968e+00,-3.6,-1.92,-3.64,-1.88
-4.97960e+00,-2.4,-6.16,-2.44,-6.12
-4.97952e+00,-3.44,-2.72,-3.48,-2.76
-4.97944e+00,-4,-5.36,-4.04,-5.4
-4.97936e+00,-4.08,-1.12,-4.12,-1.16
-4.97928e+00,-4.16,-5.04,-4.28,-5.08
-4.97920e+00,-4,-1.92,-4.04,-1.96
-4.97912e+00,-3.76,-5.6,-3.72,-5.56
-4.97904e+00,-3.68,-2.16,-3.72,-2.12
-4.97896e+00,-4.08,-5.28,-4.12,-5.32
-4.97888e+00,-3.84,-1.44,-3.88,-1.48
-4.97880e+00,-5.52,-5.68,-5.56,-5.64
-4.97872e+00,-2.96,-1.84,-3,-1.88
-4.97864e+00,-3.92,-5.68,-3.96,-5.64
-4.97856e+00,-2.72,-2,-2.68,-1.96
-4.97848e+00,-3.52,-5.36,-3.56,-5.4
-4.97840e+00,-3.12,-1.04,-3.16,-1
-4.97832e+00,-3.68,-5.76,-3.72,-5.72
-4.97824e+00,-4.48,-2.16,-4.44,-2.2
-4.97816e+00,-4.08,-4.88,-4.12,-4.92
-4.97808e+00,-3.76,-2,-3.8,-1.96
-4.97800e+00,-3.84,-5.68,-3.88,-5.64
-4.97792e+00,-3.84,-1.52,-3.8,-1.56
-4.97784e+00,-3.76,-4.4,-3.8,-4.44
-4.97776e+00,-5.28,-2.56,-5.24,-2.6
-4.97768e+00,-3.28,-5.84,-3.24,-5.88
-4.97760e+00,-4.4,-1.6,-4.36,-1.56
-4.97752e+00,-2.8,-5.44,-2.84,-5.48
-4.97744e+00,-3.52,-2.64,-3.56,-2.68
-4.97736e+00,-2.88,-6,-2.92,-5.96
-4.97728e+00,-4.24,-1.68,-4.28,-1.64
-4.97720e+00,-4.56,-4.8,-4.6,-4.84
-4.97712e+00,-3.44,-1.68,-3.48,-1.64
-4.97704e+00,-3.68,-5.68,-3.8,-5.72
-4.97696e+00,-4,-2.08,-3.96,-2.12
-4.97688e+00,-3.6,-4.8,-3.64,-4.84
-4.97680e+00,-3.68,-1.52,-3.64,-1.56
-4.97672e+00,-5.12,-5.2,-5.16,-5.16
-4.97664e+00,-3.92,-1.84,-3.88,-1.88
-4.97656e+00,-4.64,-5.6,-4.68,-5.64
-4.97648e+00,-2.48,-1.76,-2.52,-1.8
-4.97640e+00,-3.76,-5.28,-3.8,-5.32
-4.97632e+00,-2.72,-1.68,-2.84,-1.72
-4.97624e+00,-3.92,-6.08,-4.04,-6.04
-4.97616e+00,-4.48,-1.6,-4.52,-1.64
-4.97608e+00,-3.6,-4.88,-3.64,-4.92
-4.97600e+00,-4.48,-2.08,-4.44,-2.04
-4.97592e+00,-3.92,-5.92,-3.88,-5.88
-4.97584e+00,-3.36,-1.52,-3.4,-1.48
-4.97576e+00,-3.84,-4.64,-3.8,-4.68
-4.97568e+00,-4.88,-2.4,-4.92,-2.36
-4.97560e+00,-3.84,-5.44,-3.88,-5.4
-4.97552e+00,-4.48,-1.84,-4.44,-1.8
-4.97544e+00,-2.48,-5.68,-2.6,-5.64
-4.97536e+00,-4.32,-2.08,-4.36,-2.04
-4.97528e+00,-2.32,-6,-2.36,-6.04
-4.97520e+00,-3.76,-1.92,-3.88,-1.96
-4.97512e+00,-4.4,-5.12,-4.36,-5.16
-4.97504e+00,-3.52,-1.28,-3.48,-1.32
-4.97496e+00,-4.24,-5.2,-4.28,-5.16
-4.97488e+00,-3.84,-2.08,-3.88,-2.04
-4.97480e+00,-3.6,-4.96,-3.64,-5
-4.97472e+00,-4.16,-1.36,-4.28,-1.32
-4.97464e+00,-4.48,-5.36,-4.6,-5.4
-4.97456e+00,-4,-1.68,-4.04,-1.64
-4.97448e+00,-5.04,-5.6,-5.08,-5.56
-4.97440e+00,-2.56,-2.08,-2.52,-2.12
-4.97432e+00,-3.84,-5.12,-3.88,-5.16
-4.97424e+00,-1.84,-2.16,-1.8,-2.2
-4.97416e+00,-4,-6.24,-4.04,-6.28
-4.97408e+00,-4.56,-0.96,-4.6,-1
-4.97400e+00,-3.36,-5.2,-3.4,-5.16
-4.97392e+00,-4.32,-1.76,-4.36,-1.8
-4.97384e+00,-4,-5.44,-4.12,-5.4
-4.97376e+00,-3.68,-1.92,-3.72,-1.88
-4.97368e+00,-4,-4.96,-3.96,-5.08
-4.97360e+00,-4.08,-1.84,-4.2,-1.88
-4.97352e+00,-4.16,-5.2,-4.2,-5.24
-4.97344e+00,-5.36,-1.92,-5.4,-1.96
-4.97336e+00,-2.56,-5.68,-2.68,-5.72
-4.97328e+00,-4,-1.84,-4.04,-1.88
-4.97320e+00,-2.16,-5.68,-2.12,-5.72
-4.97312e+00,-3.92,-2.48,-4.04,-2.44
-4.97304e+00,-3.68,-5.2,-3.64,-5.24
-4.97296e+00,-3.12,-1.04,-3.16,-1
-4.97288e+00,-4.56,-5.2,-4.6,-5.24
-4.97280e+00,-3.84,-2.24,-3.88,-2.28
-4.97272e+00,-3.68,-5.2,-3.72,-5.24
-4.97264e+00,-4,-1.68,-4.04,-1.72
-4.97256e+00,-4.08,-5.2,-4.12,-5.24
-4.97248e+00,-4.08,-1.84,-4.12,-1.88
-4.97240e+00,-5.12,-5.84,-5.16,-5.88
-4.97232e+00,-2.8,-1.76,-2.84,-1.8
-4.97224e+00,-4.4,-5.28,-4.44,-5.32
-4.97216e+00,-1.76,-1.76,-1.88,-1.8
-4.97208e+00,-4,-5.84,-4.04,-5.88
-4.97200e+00,-3.44,-1.36,-3.48,-1.32
-4.97192e+00,-3.6,-5.04,-3.72,-5.08
-4.97184e+00,-4.48,-1.68,-4.52,-1.72
-4.97176e+00,-3.36,-4.96,-3.4,-5
-4.97168e+00,-3.76,-1.92,-3.8,-1.88
-4.97160e+00,-3.92,-5.68,-3.96,-5.72
-4.97152e+00,-3.44,-1.68,-3.48,-1.64
-4.97144e+00,-3.84,-5.44,-3.96,-5.4
-4.97136e+00,-5.04,-2.4,-5.08,-2.44
-4.97128e+00,-3.44,-5.28,-3.48,-5.32
-4.97120e+00,-4.48,-1.76,-4.6,-1.8
-4.97112e+00,-1.52,-5.6,-1.56,-5.64
-4.97104e+00,-4.24,-2.8,-4.28,-2.84
-4.97096e+00,-3.28,-5.36,-3.24,-5.4
-4.97088e+00,-3.44,-1.2,-3.48,-1.16
-4.97080e+00,-4.56,-5.04,-4.6,-5
-4.97072e+00,-3.52,-1.84,-3.56,-1.88
-4.97064e+00,-4.48,-5.52,-4.44,-5.48
-4.97056e+00,-3.92,-1.92,-3.96,-1.96
-4.97048e+00,-3.28,-4.88,-3.32,-4.92
-4.97040e+00,-4.16,-1.36,-4.2,-1.32
-4.97032e+00,-4.8,-5.6,-4.84,-5.56
-4.97024e+00,-3.28,-1.6,-3.32,-1.56
-4.97016e+00,-4.4,-5.44,-4.44,-5.4
-4.97008e+00,-1.6,-2.16,-1.64,-2.12
-4.97000e+00,-4.72,-5.44,-4.76,-5.48
-4.96992e+00,-2.8,-1.28,-2.84,-1.24
-4.96984e+00,-3.36,-5.92,-3.48,-5.88
-4.96976e+00,-4.72,-1.52,-4.84,-1.56
-4.96968e+00,-3.2,-5.2,-3.24,-5.16
-4.96960e+00,-4.32,-2,-4.36,-1.96
-4.96952e+00,-3.92,-5.28,-3.96,-5.32
-4.96944e+00,-3.44,-1.44,-3.48,-1.4
-4.96936e+00,-4.64,-4.72,-4.6,-4.76
-4.96928e+00,-4.4,-2.72,-4.36,-2.76
-4.96920e+00,-3.76,-5.44,-3.8,-5.4
-4.96912e+00,-5.2,-1.28,-5.24,-1.32
-4.96904e+00,-1.52,-5.44,-1.56,-5.48
-4.96896e+00,-4.32,-2.64,-4.36,-2.68
-4.96888e+00,-2.16,-5.6,-2.2,-5.56
-4.96880e+00,-3.44,-1.36,-3.48,-1.32
-4.96872e+00,-4.56,-4.96,-4.6,-4.92
-4.96864e+00,-3.12,-1.44,-3.16,-1.48
-4.96856e+00,-4.56,-5.52,-4.6,-5.48
-4.96848e+00,-4.24,-2.08,-4.36,-2.12
-4.96840e+00,-3.44,-4.8,-3.48,-4.84
-4.96832e+00,-4.24,-1.68,-4.36,-1.64
-4.96824e+00,-3.92,-5.2,-3.88,-5.24
-4.96816e+00,-4.08,-1.84,-4.12,-1.8
-4.96808e+00,-5.28,-5.68,-5.32,-5.72
-4.96800e+00,-1.6,-2.08,-1.64,-2.12
-4.96792e+00,-4.88,-5.52,-4.92,-5.56
-4.96784e+00,-2.4,-1.52,-2.44,-1.48
-4.96776e+00,-3.6,-5.68,-3.64,-5.72
-4.96768e+00,-4,-1.52,-4.04,-1.56
-4.96760e+00,-2.8,-5.04,-2.76,-5
-4.96752e+00,-4.64,-2.16,-4.68,-2.2
-4.96744e+00,-3.68,-5.44,-3.72,-5.4
-4.96736e+00,-3.44,-1.52,-3.4,-1.56
-4.96728e+00,-4.56,-4.72,-4.52,-4.76
-4.96720e+00,-4.08,-2.48,-4.12,-2.52
-4.96712e+00,-4,-5.44,-4.04,-5.48
-4.96704e+00,-5.28,-1.84,-5.32,-1.8
-4.96696e+00,-1.76,-5.6,-1.72,-5.64
-4.96688e+00,-5.04,-2.08,-5.08,-2.04
-4.96680e+00,-2,-5.92,-1.96,-5.88
-4.96672e+00,-3.68,-1.6,-3.8,-1.64
-4.96664e+00,-4.08,-5.12,-4.12,-5.08
-4.96656e+00,-3.36,-1.84,-3.4,-1.88
-4.96648e+00,-4.72,-5.2,-4.68,-5.16
-4.96640e+00,-3.52,-1.76,-3.56,-1.8
-4.96632e+00,-3.6,-4.88,-3.64,-4.92
-4.96624e+00,-4.56,-1.68,-4.6,-1.64
-4.96616e+00,-3.12,-5.6,-3.08,-5.56
-4.96608e+00,-3.68,-1.76,-3.8,-1.8
-4.96600e+00,-5.2,-5.28,-5.24,-5.24
-4.96592e+00,-2.16,-2.08,-2.2,-2.04
-4.96584e+00,-5.12,-5.36,-5.24,-5.4
-4.96576e+00,-1.6,-2.16,-1.64,-2.12
-4.96568e+00,-3.92,-5.84,-3.96,-5.8
-4.96560e+00,-3.76,-1.52,-3.8,-1.48
-4.96552e+00,-2.96,-4.96,-3,-5
-4.96544e+00,-4.8,-1.52,-4.84,-1.56
-4.96536e+00,-3.6,-5.44,-3.64,-5.4
-4.96528e+00,-4.08,-1.6,-4.12,-1.56
-4.96520e+00,-4.56,-4.88,-4.6,-4.84
-4.96512e+00,-3.2,-1.92,-3.24,-1.88
-4.96504e+00,-4.24,-5.36,-4.28,-5.4
-4.96496e+00,-4.96,-1.92,-5,-1.96
-4.96488e+00,-1.92,-5.52,-1.96,-5.56
-4.96480e+00,-4.88,-2.16,-4.92,-2.12
-4.96472e+00,-1.44,-5.52,-1.48,-5.48
-4.96464e+00,-4.32,-1.76,-4.36,-1.72
-4.96456e+00,-3.44,-5.28,-3.48,-5.32
-4.96448e+00,-2.96,-1.36,-3,-1.4
-4.96440e+00,-5.12,-5.52,-5.08,-5.48
-4.96432e+00,-3.28,-1.84,-3.24,-1.8
-4.96424e+00,-4.08,-5.2,-4.12,-5.24
-4.96416e+00,-4.56,-1.6,-4.6,-1.64
-4.96408e+00,-3.28,-5.52,-3.32,-5.48
-4.96400e+00,-4.56,-2,-4.6,-1.96
-4.96392e+00,-4.64,-5.44,-4.68,-5.4
-4.96384e+00,-2.64,-1.84,-2.6,-1.8
-4.96376e+00,-5.68,-5.28,-5.64,-5.32
-4.96368e+00,-1.28,-2.08,-1.24,-2.12
-4.96360e+00,-4,-5.84,-4.04,-5.8
-4.96352e+00,-2.88,-1.2,-2.92,-1.16
-4.96344e+00,-3.12,-5.12,-3.08,-5.16
-4.96336e+00,-4.72,-1.2,-4.68,-1.16
-4.96328e+00,-3.04,-5.2,-3.08,-5.24
-4.96320e+00,-4.4,-1.76,-4.44,-1.8
-4.96312e+00,-4.72,-5.12,-4.76,-5.16
-4.96304e+00,-3.28,-1.92,-3.32,-1.96
-4.96296e+00,-4.4,-5.36,-4.44,-5.4
-4.96288e+00,-4.16,-2,-4.2,-1.96
-4.96280e+00,-3.12,-5.12,-3.16,-5.08
-4.96272e+00,-5.68,-2.08,-5.64,-2.12
-4.96264e+00,-1.44,-5.92,-1.48,-5.96
-4.96256e+00,-4.64,-2.4,-4.68,-2.44
-4.96248e+00,-3.04,-5.76,-3,-5.72
-4.96240e+00,-3.04,-1.2,-3.08,-1.24
-4.96232e+00,-4.24,-5.28,-4.2,-5.24
-4.96224e+00,-2.88,-1.84,-2.92,-1.8
-4.96216e+00,-4.64,-5.04,-4.6,-5.08
-4.96208e+00,-4,-1.84,-4.04,-1.88
-4.96200e+00,-3.12,-5.36,-3.24,-5.32
-4.96192e+00,-4.56,-1.76,-4.6,-1.72
-4.96184e+00,-3.84,-5.52,-3.88,-5.48
-4.96176e+00,-3.04,-1.84,-3.08,-1.8
-4.96168e+00,-5.6,-5.2,-5.56,-5.24
-4.96160e+00,-1.84,-2,-1.88,-2.04
-4.96152e+00,-4.96,-5.68,-4.92,-5.64
-4.96144e+00,-2.32,-1.76,-2.36,-1.72
-4.96136e+00,-3.12,-5.12,-3.16,-5.16
-4.96128e+00,-4.16,-1.52,-4.28,-1.56
-4.96120e+00,-3.12,-5.12,-3.16,-5.16
-4.96112e+00,-4.72,-1.68,-4.76,-1.64
-4.96104e+00,-3.84,-4.88,-3.96,-4.92
-4.96096e+00,-3.52,-1.68,-3.64,-1.64
-4.96088e+00,-4.64,-5.12,-4.68,-5.16
-4.96080e+00,-3.04,-2.32,-3.08,-2.28
-4.96072e+00,-2.88,-5.6,-2.92,-5.56
-4.96064e+00,-5.52,-1.76,-5.48,-1.8
-4.96056e+00,-2.16,-5.52,-2.2,-5.56
-4.96048e+00,-5.2,-2.56,-5.32,-2.6
-4.96040e+00,-2,-5.68,-2.04,-5.64
-4.96032e+00,-3.68,-1.28,-3.72,-1.32
-4.96024e+00,-3.6,-5.36,-3.56,-5.32
-4.96016e+00,-2.8,-1.84,-2.84,-1.8
-4.96008e+00,-4.72,-5.6,-4.76,-5.64
-4.96000e+00,-3.68,-2,-3.72,-1.96
-4.95992e+00,-4.16,-4.88,-4.12,-4.84
-4.95984e+00,-4.48,-1.6,-4.52,-1.56
-4.95976e+00,-3.2,-5.44,-3.32,-5.4
-4.95968e+00,-3.6,-1.84,-3.64,-1.8
-4.95960e+00,-4.88,-5.44,-4.92,-5.4
-4.95952e+00,-2.24,-2.32,-2.28,-2.36
-4.95944e+00,-5.2,-5.44,-5.24,-5.48
-4.95936e+00,-1.92,-2.16,-1.88,-2.12
-4.95928e+00,-3.84,-5.36,-3.88,-5.32
-4.95920e+00,-3.04,-1.28,-3.08,-1.24
-4.95912e+00,-2.88,-5.44,-2.92,-5.4
-4.95904e+00,-4.88,-1.84,-4.92,-1.8
-4.95896e+00,-3.36,-5.44,-3.4,-5.48
-4.95888e+00,-4,-1.6,-4.04,-1.56
-4.95880e+00,-4.48,-5.2,-4.6,-5.24
-4.95872e+00,-3.36,-2.48,-3.4,-2.44
-4.95864e+00,-3.92,-5.52,-3.96,-5.56
-4.95856e+00,-4.08,-1.76,-4.12,-1.8
-4.95848e+00,-2.4,-5.28,-2.44,-5.32
-4.95840e+00,-5.84,-2.24,-5.88,-2.28
-4.95832e+00,-1.84,-5.92,-1.96,-5.88
-4.95824e+00,-3.84,-1.68,-3.88,-1.72
-4.95816e+00,-2.48,-6,-2.52,-5.96
-4.95808e+00,-2.96,-1.52,-3,-1.56
-4.95800e+00,-4.24,-5.44,-4.28,-5.4
-4.95792e+00,-2.96,-1.52,-3,-1.56
-4.95784e+00,-4.32,-4.8,-4.36,-4.76
-4.95776e+00,-4.8,-2,-4.84,-1.96
-4.95768e+00,-3.36,-5.44,-3.4,-5.4
-4.95760e+00,-3.76,-1.92,-3.88,-1.96
-4.95752e+00,-3.6,-4.96,-3.64,-5
-4.95744e+00,-2.48,-1.92,-2.44,-1.88
-4.95736e+00,-5.68,-5.68,-5.72,-5.72
-4.95728e+00,-2.16,-2.24,-2.12,-2.28
-4.95720e+00,-4.24,-5.92,-4.36,-5.88
-4.95712e+00,-2.64,-1.84,-2.68,-1.88
-4.95704e+00,-3.04,-5.28,-3.08,-5.24
-4.95696e+00,-3.84,-1.44,-3.96,-1.4
-4.95688e+00,-3.04,-5.44,-3.08,-5.48
-4.95680e+00,-4.4,-1.52,-4.52,-1.56
-4.95672e+00,-4.08,-4.64,-4.12,-4.6
-4.95664e+00,-3.2,-2.08,-3.24,-2.04
-4.95656e+00,-4,-5.44,-4.04,-5.4
-4.95648e+00,-3.68,-2.08,-3.72,-2.12
-4.95640e+00,-2.48,-5.6,-2.44,-5.64
-4.95632e+00,-5.44,-2.08,-5.56,-2.04
