AAAlogs/BK000001.CSV

Record Length,40000,,Source,CH1,CH2
Sample Interval,CH1:0.0001999999949 CH2:0.0001999999949,,Second,Volt,Volt
Vertical Units,CH1:V CH2:V,,-4.00000000000,2.52000,0.06000
Vertical Scale,CH1:1.00 CH2:0.50,,-3.99979996681,2.48000,0.04000
Vertical Offset,CH1:-1.20000 CH2:0.00,,-3.99959993362,2.52000,0.02000
Horizontal Units,s,,-3.99939990044,2.52000,0.02000
Horizontal Scale,0.5000000000,,-3.99919986725,2.52000,0.04000
Model Number,2190E,,-3.99899983406,2.48000,0.04000
Serial Number,512C18110,,-3.99879980087,2.52000,0.04000
Software Version,6.01.01.19,,-3.99860000610,2.52000,0.04000
,,,-3.99839997292,2.52000,0.04000
,,,-3.99819993973,2.48000,0.04000
,,,-3.99799990654,2.52000,0.04000
,,,-3.99779987335,2.52000,0.04000
,,,-3.99759984016,2.52000,0.02000
,,,-3.99739980698,2.52000,0.02000
,,,-3.99720001221,2.48000,0.04000
,,,-3.99699997902,2.48000,0.02000
,,,-3.99679994583,2.52000,0.02000
,,,-3.99659991264,2.56000,0.02000
,,,-3.99639987946,2.56000,0.02000
,,,-3.99619984627,2.48000,0.02000
,,,-3.99599981308,2.52000,0.04000
,,,-3.99579977989,2.52000,0.00
,,,-3.99559998512,2.56000,0.02000
,,,-3.99539995193,2.48000,0.04000
,,,-3.99519991875,2.48000,0.04000
,,,-3.99499988556,2.52000,0.02000
,,,-3.99479985237,2.56000,0.02000
,,,-3.99459981918,2.52000,0.02000
,,,-3.99439978600,2.48000,0.04000
,,,-3.99419999123,2.52000,0.02000
,,,-3.99399995804,2.52000,0.02000
,,,-3.99379992485,2.52000,0.04000
,,,-3.99359989166,2.52000,0.04000
,,,-3.99339985847,2.48000,0.04000
,,,-3.99319982529,2.52000,0.04000
,,,-3.99299979210,2.52000,0.02000
,,,-3.99279999733,2.52000,0.00
,,,-3.99259996414,2.52000,0.02000
,,,-3.99239993095,2.52000,0.04000
,,,-3.99219989777,2.60000,0.02000
,,,-3.99199986458,2.56000,0.02000
,,,-3.99179983139,2.52000,0.02000
,,,-3.99159979820,2.52000,0.02000
,,,-3.99140000343,2.52000,0.02000
,,,-3.99119997025,2.56000,0.00
,,,-3.99099993706,2.56000,0.00
,,,-3.99079990387,2.52000,0.04000
,,,-3.99059987068,2.52000,0.02000
,,,-3.99039983749,2.52000,0.02000
,,,-3.99019980431,2.52000,0.00
,,,-3.99000000954,2.56000,0.02000
,,,-3.98979997635,2.52000,0.04000
,,,-3.98959994316,2.52000,0.02000
,,,-3.98939990997,2.56000,0.02000
,,,-3.98919987679,2.56000,0.02000
,,,-3.98899984360,2.56000,0.02000
,,,-3.98879981041,2.52000,0.02000
,,,-3.98860001564,2.52000,0.00
,,,-3.98839998245,2.60000,0.00
,,,-3.98819994926,2.56000,0.04000
,,,-3.98799991608,2.56000,0.02000
,,,-3.98779988289,2.56000,0.02000
,,,-3.98759984970,2.56000,0.00
,,,-3.98739981651,2.60000,0.00
,,,-3.98719978333,2.60000,0.02000
,,,-3.98699998856,2.56000,0.00
,,,-3.98679995537,2.56000,0.00
,,,-3.98659992218,2.60000,0.00
,,,-3.98639988899,2.60000,0.02000
,,,-3.98619985580,2.60000,0.02000
,,,-3.98599982262,2.52000,0.02000
,,,-3.98579978943,2.56000,0.02000
,,,-3.98559999466,2.60000,0.02000
,,,-3.98539996147,2.60000,0.00
,,,-3.98519992828,2.52000,0.02000
,,,-3.98499989510,2.56000,0.00
,,,-3.98479986191,2.56000,0.00
,,,-3.98459982872,2.60000,-0.02000
,,,-3.98439979553,2.60000,0.02000
,,,-3.98420000076,2.56000,0.02000
,,,-3.98399996758,2.52000,0.02000
,,,-3.98379993439,2.60000,0.00
,,,-3.98359990120,2.64000,0.00
,,,-3.98339986801,2.60000,0.00
,,,-3.98319983482,2.52000,0.02000
,,,-3.98299980164,2.60000,0.00
,,,-3.98280000687,2.64000,-0.04000
,,,-3.98259997368,2.60000,0.02000
,,,-3.98239994049,2.60000,0.00
,,,-3.98219990730,2.56000,0.00
,,,-3.98199987411,2.60000,0.00
,,,-3.98179984093,2.60000,0.00
,,,-3.98159980774,2.60000,0.00
,,,-3.98140001297,2.60000,0.00
,,,-3.98119997978,2.60000,0.00
,,,-3.98099994659,2.64000,0.00
,,,-3.98079991341,2.64000,0.00
,,,-3.98059988022,2.60000,0.00
,,,-3.98039984703,2.60000,0.00
,,,-3.98019981384,2.60000,-0.02000
,,,-3.97999978065,2.24000,0.16000
,,,-3.97979998589,2.20000,0.16000
,,,-3.97959995270,2.20000,0.18000
,,,-3.97939991951,2.20000,0.16000
,,,-3.97919988632,2.24000,0.16000
,,,-3.97899985313,2.20000,0.14000
,,,-3.97879981995,2.20000,0.16000
,,,-3.97859978676,2.20000,0.16000
,,,-3.97839999199,2.20000,0.14000
,,,-3.97819995880,2.20000,0.16000
,,,-3.97799992561,2.20000,0.16000
,,,-3.97779989243,2.16000,0.16000
,,,-3.97759985924,2.20000,0.16000
,,,-3.97739982605,2.20000,0.14000
,,,-3.97719979286,2.20000,0.18000
,,,-3.97699999809,2.20000,0.16000
,,,-3.97679996490,2.20000,0.14000
,,,-3.97659993172,2.24000,0.14000
,,,-3.97639989853,2.24000,0.16000
,,,-3.97619986534,2.16000,0.16000
,,,-3.97599983215,2.20000,0.18000
,,,-3.97579979897,2.20000,0.16000
,,,-3.97560000420,2.20000,0.14000
,,,-3.97539997101,2.24000,0.16000
,,,-3.97519993782,2.20000,0.16000
,,,-3.97499990463,2.20000,0.16000
,,,-3.97479987144,2.20000,0.16000
,,,-3.97459983826,2.20000,0.16000
,,,-3.97439980507,2.20000,0.16000
,,,-3.97420001030,2.16000,0.16000
,,,-3.97399997711,2.20000,0.16000
,,,-3.97379994392,2.20000,0.16000
,,,-3.97359991074,2.24000,0.16000
,,,-3.97339987755,2.16000,0.16000
,,,-3.97319984436,2.20000,0.16000
,,,-3.97299981117,2.20000,0.16000
,,,-3.97280001640,2.20000,0.14000
,,,-3.97259998322,2.20000,0.16000
,,,-3.97239995003,2.16000,0.16000
,,,-3.97219991684,2.16000,0.16000
,,,-3.97199988365,2.16000,0.16000
,,,-3.97179985046,2.20000,0.14000
,,,-3.97159981728,2.16000,0.18000
,,,-3.97139978409,2.16000,0.20000
,,,-3.97119998932,2.16000,0.14000
,,,-3.97099995613,2.20000,0.16000
,,,-3.97079992294,2.20000,0.16000
,,,-3.97059988976,2.16000,0.16000
,,,-3.97039985657,2.16000,0.18000
,,,-3.97019982338,2.16000,0.16000
,,,-3.96999979019,2.20000,0.18000
,,,-3.96979999542,2.16000,0.16000
,,,-3.96959996223,2.16000,0.18000
,,,-3.96939992905,2.16000,0.16000
,,,-3.96919989586,2.16000,0.16000
,,,-3.96899986267,2.20000,0.16000
,,,-3.96879982948,2.16000,0.16000
,,,-3.96859979630,2.16000,0.18000
,,,-3.96840000153,2.16000,0.16000
,,,-3.96819996834,2.16000,0.14000
,,,-3.96799993515,2.16000,0.16000
,,,-3.96779990196,2.12000,0.18000
,,,-3.96759986877,2.16000,0.16000
,,,-3.96739983559,2.16000,0.16000
,,,-3.96719980240,2.20000,0.16000
,,,-3.96700000763,2.16000,0.16000
,,,-3.96679997444,2.12000,0.18000
,,,-3.96659994125,2.16000,0.18000
,,,-3.96639990807,2.16000,0.14000
,,,-3.96619987488,2.20000,0.16000
,,,-3.96599984169,2.16000,0.16000
,,,-3.96579980850,2.16000,0.16000
,,,-3.96560001373,2.16000,0.18000
,,,-3.96539998055,2.20000,0.16000
,,,-3.96519994736,2.16000,0.18000
,,,-3.96499991417,2.12000,0.18000
,,,-3.96479988098,2.16000,0.18000
,,,-3.96459984779,2.16000,0.16000
,,,-3.96439981461,2.20000,0.18000
,,,-3.96419978142,2.16000,0.18000
,,,-3.96399998665,2.12000,0.16000
,,,-3.96379995346,2.16000,0.18000
,,,-3.96359992027,2.16000,0.18000
,,,-3.96339988708,2.16000,0.18000
,,,-3.96319985390,2.12000,0.18000
,,,-3.96299982071,2.12000,0.20000
,,,-3.96279978752,2.16000,0.18000
,,,-3.96259999275,2.16000,0.16000
,,,-3.96239995956,2.16000,0.20000
,,,-3.96219992638,2.12000,0.20000
,,,-3.96199989319,2.12000,0.18000
,,,-3.96179986000,2.16000,0.18000
,,,-3.96159982681,2.16000,0.18000
,,,-3.96139979362,2.16000,0.18000
,,,-3.96119999886,2.12000,0.18000
,,,-3.96099996567,2.16000,0.18000
,,,-3.96079993248,2.16000,0.18000
,,,-3.96059989929,2.16000,0.18000
,,,-3.96039986610,2.12000,0.18000
,,,-3.96019983292,2.16000,0.18000
,,,-3.95999979973,2.16000,0.16000
,,,-3.95980000496,2.16000,0.16000
,,,-3.95959997177,2.12000,0.20000
,,,-3.95939993858,2.08000,0.20000
,,,-3.95919990540,2.12000,0.18000
,,,-3.95899987221,2.16000,0.18000
,,,-3.95879983902,2.12000,0.16000
,,,-3.95859980583,2.08000,0.20000
,,,-3.95840001106,2.12000,0.18000
,,,-3.95819997787,2.16000,0.18000
,,,-3.95799994469,2.16000,0.16000
,,,-3.95779991150,2.12000,0.20000
,,,-3.95759987831,2.08000,0.20000
,,,-3.95739984512,2.12000,0.18000
,,,-3.95719981194,2.16000,0.18000
,,,-3.95700001717,2.16000,0.18000
,,,-3.95679998398,2.12000,0.20000
,,,-3.95659995079,2.08000,0.18000
,,,-3.95639991760,2.12000,0.18000
,,,-3.95619988441,2.16000,0.20000
,,,-3.95599985123,2.16000,0.18000
,,,-3.95579981804,2.12000,0.20000
,,,-3.95559978485,2.12000,0.20000
,,,-3.95539999008,2.12000,0.18000
,,,-3.95519995689,2.16000,0.18000
,,,-3.95499992371,2.12000,0.20000
,,,-3.95479989052,2.08000,0.20000
,,,-3.95459985733,2.08000,0.22000
,,,-3.95439982414,2.12000,0.20000
,,,-3.95419979095,2.16000,0.18000
,,,-3.95399999619,2.12000,0.20000
,,,-3.95379996300,2.04000,0.20000
,,,-3.95359992981,2.08000,0.20000
,,,-3.95339989662,2.16000,0.20000
,,,-3.95319986343,2.12000,0.16000
,,,-3.95299983025,2.12000,0.20000
,,,-3.95279979706,2.08000,0.20000
,,,-3.95260000229,2.12000,0.18000
,,,-3.95239996910,2.12000,0.18000
,,,-3.95219993591,2.12000,0.20000
,,,-3.95199990273,2.04000,0.20000
,,,-3.95179986954,2.08000,0.20000
,,,-3.95159983635,2.12000,0.20000
,,,-3.95139980316,2.12000,0.20000
,,,-3.95120000839,2.08000,0.20000
,,,-3.95099997520,2.04000,0.22000
,,,-3.95079994202,2.08000,0.20000
,,,-3.95059990883,2.12000,0.20000
,,,-3.95039987564,2.12000,0.20000
,,,-3.95019984245,2.08000,0.22000
,,,-3.94999980927,2.08000,0.18000
,,,-3.94980001450,2.08000,0.22000
,,,-3.94959998131,2.12000,0.22000
,,,-3.94939994812,2.08000,0.20000
,,,-3.94919991493,2.04000,0.22000
,,,-3.94899988174,2.04000,0.20000
,,,-3.94879984856,2.12000,0.20000
,,,-3.94859981537,2.12000,0.20000
,,,-3.94839978218,2.04000,0.22000
,,,-3.94819998741,2.04000,0.22000
,,,-3.94799995422,2.08000,0.20000
,,,-3.94779992104,2.12000,0.20000
,,,-3.94759988785,2.04000,0.20000
,,,-3.94739985466,2.04000,0.20000
,,,-3.94719982147,2.04000,0.22000
,,,-3.94699978828,2.04000,0.20000
,,,-3.94679999352,2.08000,0.20000
,,,-3.94659996033,2.04000,0.22000
,,,-3.94639992714,2.04000,0.22000
,,,-3.94619989395,2.04000,0.22000
,,,-3.94599986076,2.12000,0.20000
,,,-3.94579982758,2.04000,0.20000
,,,-3.94559979439,2.04000,0.22000
,,,-3.94539999962,2.04000,0.22000
,,,-3.94519996643,2.04000,0.22000
,,,-3.94499993324,2.04000,0.20000
,,,-3.94479990005,2.08000,0.20000
,,,-3.94459986687,2.04000,0.22000
,,,-3.94439983368,2.04000,0.22000
,,,-3.94419980049,2.08000,0.22000
,,,-3.94400000572,2.08000,0.22000
,,,-3.94379997253,2.04000,0.22000
,,,-3.94359993935,2.04000,0.22000
,,,-3.94339990616,2.04000,0.22000
,,,-3.94319987297,2.04000,0.20000
,,,-3.94299983978,2.04000,0.22000
,,,-3.94279980659,2.04000,0.22000
,,,-3.94260001183,2.04000,0.22000
,,,-3.94239997864,2.04000,0.20000
,,,-3.94219994545,2.08000,0.20000
,,,-3.94199991226,2.04000,0.22000
,,,-3.94179987907,2.04000,0.24000
,,,-3.94159984589,2.04000,0.20000
,,,-3.94139981270,2.04000,0.18000
,,,-3.94120001793,2.04000,0.22000
,,,-3.94099998474,2.04000,0.22000
,,,-3.94079995155,2.00000,0.24000
,,,-3.94059991837,2.04000,0.22000
,,,-3.94039988518,2.04000,0.22000
,,,-3.94019985199,2.04000,0.22000
,,,-3.93999981880,2.00000,0.24000
,,,-3.93979978561,2.04000,0.24000
,,,-3.93959999084,2.04000,0.22000
,,,-3.93939995766,2.04000,0.22000
,,,-3.93919992447,2.04000,0.22000
,,,-3.93899989128,2.04000,0.24000
,,,-3.93879985809,2.04000,0.22000
,,,-3.93859982491,2.04000,0.20000
,,,-3.93839979172,2.04000,0.22000
,,,-3.93819999695,2.04000,0.22000
,,,-3.93799996376,2.00000,0.24000
,,,-3.93779993057,2.04000,0.22000
,,,-3.93759989738,2.04000,0.22000
,,,-3.93739986420,2.04000,0.22000
,,,-3.93719983101,2.00000,0.24000
,,,-3.93699979782,2.04000,0.24000
,,,-3.93680000305,2.04000,0.22000
,,,-3.93659996986,2.04000,0.20000
,,,-3.93639993668,2.00000,0.24000
,,,-3.93619990349,2.04000,0.24000
,,,-3.93599987030,2.04000,0.22000
,,,-3.93579983711,2.04000,0.22000
,,,-3.93559980392,2.04000,0.24000
,,,-3.93540000916,2.00000,0.24000
,,,-3.93519997597,2.04000,0.24000
,,,-3.93499994278,2.04000,0.24000
,,,-3.93479990959,2.04000,0.22000
,,,-3.93459987640,2.04000,0.24000
,,,-3.93439984322,1.96000,0.24000
,,,-3.93419981003,2.00000,0.24000
,,,-3.93400001526,2.04000,0.22000
,,,-3.93379998207,2.04000,0.24000
,,,-3.93359994888,2.00000,0.26000
,,,-3.93339991570,2.00000,0.24000
,,,-3.93319988251,2.00000,0.22000
,,,-3.93299984932,2.04000,0.24000
,,,-3.93279981613,2.00000,0.24000
,,,-3.93259978294,2.00000,0.24000
,,,-3.93239998817,2.00000,0.24000
,,,-3.93219995499,2.00000,0.22000
,,,-3.93199992180,2.04000,0.22000
,,,-3.93179988861,2.04000,0.24000
,,,-3.93159985542,1.96000,0.26000
,,,-3.93139982224,2.00000,0.26000
,,,-3.93119978905,2.00000,0.24000
,,,-3.93099999428,2.00000,0.24000
,,,-3.93079996109,1.96000,0.24000
,,,-3.93059992790,1.96000,0.26000
,,,-3.93039989471,2.00000,0.22000
,,,-3.93019986153,2.00000,0.24000
,,,-3.92999982834,2.00000,0.24000
,,,-3.92979979515,1.96000,0.26000
,,,-3.92960000038,1.96000,0.24000
,,,-3.92939996719,2.00000,0.24000
,,,-3.92919993401,2.04000,0.22000
,,,-3.92899990082,2.00000,0.24000
,,,-3.92879986763,1.96000,0.26000
,,,-3.92859983444,1.96000,0.24000
,,,-3.92839980125,2.04000,0.24000
,,,-3.92820000648,2.04000,0.22000
,,,-3.92799997330,1.96000,0.26000
,,,-3.92779994011,2.00000,0.24000
,,,-3.92759990692,2.00000,0.24000
,,,-3.92739987373,2.04000,0.24000
,,,-3.92719984055,1.96000,0.24000
,,,-3.92699980736,1.96000,0.26000
,,,-3.92680001259,1.96000,0.24000
,,,-3.92659997940,2.00000,0.24000
,,,-3.92639994621,2.00000,0.22000
,,,-3.92619991302,1.96000,0.24000
,,,-3.92599987984,1.96000,0.26000
,,,-3.92579984665,1.96000,0.24000
,,,-3.92559981346,2.00000,0.24000
,,,-3.92540001869,1.96000,0.24000
,,,-3.92519998550,1.96000,0.24000
,,,-3.92499995232,1.92000,0.26000
,,,-3.92479991913,1.96000,0.22000
,,,-3.92459988594,2.00000,0.24000
,,,-3.92439985275,1.96000,0.26000
,,,-3.92419981956,1.96000,0.24000
,,,-3.92399978638,1.96000,0.22000
,,,-3.92379999161,1.96000,0.22000
,,,-3.92359995842,2.00000,0.24000
,,,-3.92339992523,1.96000,0.26000
,,,-3.92319989204,1.96000,0.24000
,,,-3.92299985886,1.96000,0.26000
,,,-3.92279982567,1.96000,0.24000
,,,-3.92259979248,2.00000,0.26000
,,,-3.92239999771,1.92000,0.26000
,,,-3.92219996452,1.96000,0.24000
,,,-3.92199993134,1.96000,0.26000
,,,-3.92179989815,1.96000,0.24000
,,,-3.92159986496,1.96000,0.24000
,,,-3.92139983177,1.96000,0.28000
,,,-3.92119979858,1.92000,0.26000
,,,-3.92100000381,1.96000,0.24000
,,,-3.92079997063,1.96000,0.28000
,,,-3.92059993744,1.92000,0.26000
,,,-3.92039990425,1.88000,0.26000
,,,-3.92019987106,1.96000,0.26000
,,,-3.91999983788,1.96000,0.28000
,,,-3.91979980469,1.92000,0.26000
,,,-3.91960000992,1.88000,0.28000
,,,-3.91939997673,1.92000,0.24000
,,,-3.91919994354,1.96000,0.24000
,,,-3.91899991035,2.00000,0.24000
,,,-3.91879987717,1.96000,0.26000
,,,-3.91859984398,1.92000,0.28000
,,,-3.91839981079,1.92000,0.26000
,,,-3.91820001602,1.96000,0.26000
,,,-3.91799998283,1.96000,0.28000
,,,-3.91779994965,1.88000,0.28000
,,,-3.91759991646,1.92000,0.26000
,,,-3.91739988327,1.96000,0.26000
,,,-3.91719985008,1.96000,0.24000
,,,-3.91699981689,1.96000,0.26000
,,,-3.91679978371,1.88000,0.26000
,,,-3.91659998894,1.92000,0.26000
,,,-3.91639995575,1.92000,0.24000
,,,-3.91619992256,1.96000,0.24000
,,,-3.91599988937,1.96000,0.28000
,,,-3.91579985619,1.88000,0.26000
,,,-3.91559982300,1.96000,0.26000
,,,-3.91539978981,1.96000,0.26000
,,,-3.91519999504,1.92000,0.28000
,,,-3.91499996185,1.88000,0.30000
,,,-3.91479992867,1.88000,0.26000
,,,-3.91459989548,1.88000,0.26000
,,,-3.91439986229,1.96000,0.26000
,,,-3.91419982910,1.88000,0.26000
,,,-3.91399979591,1.88000,0.28000
,,,-3.91380000114,1.88000,0.26000
,,,-3.91359996796,1.88000,0.28000
,,,-3.91339993477,1.92000,0.26000
,,,-3.91319990158,1.88000,0.26000
,,,-3.91299986839,1.88000,0.26000
,,,-3.91279983521,1.92000,0.24000
,,,-3.91259980202,1.96000,0.26000
,,,-3.91240000725,1.88000,0.28000
,,,-3.91219997406,1.88000,0.28000
,,,-3.91199994087,1.88000,0.28000
,,,-3.91179990768,1.92000,0.28000
,,,-3.91159987450,1.92000,0.24000
,,,-3.91139984131,1.88000,0.28000
,,,-3.91119980812,1.88000,0.28000
,,,-3.91100001335,1.88000,0.28000
,,,-3.91079998016,1.96000,0.28000
,,,-3.91059994698,1.92000,0.30000
,,,-3.91039991379,1.88000,0.28000
,,,-3.91019988060,1.88000,0.30000
,,,-3.90999984741,1.88000,0.26000
,,,-3.90979981422,1.92000,0.24000
,,,-3.90960001945,1.88000,0.28000
,,,-3.90939998627,1.88000,0.30000
,,,-3.90919995308,1.88000,0.28000
,,,-3.90899991989,1.92000,0.28000
,,,-3.90879988670,1.88000,0.28000
,,,-3.90859985352,1.88000,0.28000
,,,-3.90839982033,1.88000,0.28000
,,,-3.90819978714,1.88000,0.28000
,,,-3.90799999237,1.88000,0.26000
,,,-3.90779995918,1.92000,0.30000
,,,-3.90759992599,1.88000,0.30000
,,,-3.90739989281,1.88000,0.26000
,,,-3.90719985962,1.88000,0.28000
,,,-3.90699982643,1.88000,0.26000
,,,-3.90679979324,1.88000,0.30000
,,,-3.90659999847,1.88000,0.28000
,,,-3.90639996529,1.88000,0.30000
,,,-3.90619993210,1.88000,0.30000
,,,-3.90599989891,1.88000,0.30000
,,,-3.90579986572,1.88000,0.30000
,,,-3.90559983253,1.88000,0.28000
,,,-3.90539979935,1.84000,0.28000
,,,-3.90520000458,1.88000,0.28000
,,,-3.90499997139,1.88000,0.28000
,,,-3.90479993820,1.84000,0.30000
,,,-3.90459990501,1.88000,0.28000
,,,-3.90439987183,1.88000,0.28000
,,,-3.90419983864,1.88000,0.28000
,,,-3.90399980545,1.88000,0.30000
,,,-3.90380001068,1.84000,0.30000
,,,-3.90359997749,1.88000,0.32000
,,,-3.90339994431,1.88000,0.28000
,,,-3.90319991112,1.88000,0.28000
,,,-3.90299987793,1.88000,0.30000
,,,-3.90279984474,1.84000,0.32000
,,,-3.90259981155,1.88000,0.28000
,,,-3.90240001678,1.88000,0.30000
,,,-3.90219998360,1.88000,0.30000
,,,-3.90199995041,1.80000,0.28000
,,,-3.90179991722,1.88000,0.32000
,,,-3.90159988403,1.84000,0.30000
,,,-3.90139985085,1.88000,0.30000
,,,-3.90119981766,1.88000,0.32000
,,,-3.90099978447,1.84000,0.30000
,,,-3.90079998970,1.84000,0.28000
,,,-3.90059995651,1.88000,0.30000
,,,-3.90039992332,1.88000,0.30000
,,,-3.90019989014,1.84000,0.32000
,,,-3.89999985695,1.84000,0.30000
,,,-3.89979982376,1.84000,0.30000
,,,-3.89959979057,1.84000,0.28000
,,,-3.89939999580,1.84000,0.32000
,,,-3.89919996262,1.84000,0.30000
,,,-3.89899992943,1.84000,0.30000
,,,-3.89879989624,1.84000,0.28000
,,,-3.89859986305,1.88000,0.28000
,,,-3.89839982986,1.84000,0.32000
,,,-3.89819979668,1.84000,0.30000
,,,-3.89800000191,1.88000,0.28000
,,,-3.89779996872,1.84000,0.32000
,,,-3.89759993553,1.84000,0.30000
,,,-3.89739990234,1.84000,0.32000
,,,-3.89719986916,1.84000,0.30000
,,,-3.89699983597,1.88000,0.30000
,,,-3.89679980278,1.88000,0.30000
,,,-3.89660000801,1.84000,0.32000
,,,-3.89639997482,1.84000,0.32000
,,,-3.89619994164,1.84000,0.32000
,,,-3.89599990845,1.84000,0.28000
,,,-3.89579987526,1.88000,0.28000
,,,-3.89559984207,1.80000,0.30000
,,,-3.89539980888,1.84000,0.30000
,,,-3.89520001411,1.84000,0.30000
,,,-3.89499998093,1.84000,0.30000
,,,-3.89479994774,1.84000,0.32000
,,,-3.89459991455,1.80000,0.34000
,,,-3.89439988136,1.84000,0.30000
,,,-3.89419984818,1.84000,0.30000
,,,-3.89399981499,1.88000,0.28000
,,,-3.89380002022,1.80000,0.30000
,,,-3.89359998703,1.80000,0.32000
,,,-3.89339995384,1.84000,0.30000
,,,-3.89319992065,1.88000,0.30000
,,,-3.89299988747,1.84000,0.32000
,,,-3.89279985428,1.80000,0.32000
,,,-3.89259982109,1.80000,0.32000
,,,-3.89239978790,1.80000,0.32000
,,,-3.89219999313,1.84000,0.30000
,,,-3.89199995995,1.84000,0.28000
,,,-3.89179992676,1.80000,0.32000
,,,-3.89159989357,1.80000,0.30000
,,,-3.89139986038,1.84000,0.30000
,,,-3.89119982719,1.84000,0.32000
,,,-3.89099979401,1.80000,0.30000
,,,-3.89079999924,1.84000,0.32000
,,,-3.89059996605,1.80000,0.32000
,,,-3.89039993286,1.84000,0.30000
,,,-3.89019989967,1.84000,0.30000
,,,-3.88999986649,1.76000,0.32000
,,,-3.88979983330,1.80000,0.30000
,,,-3.88959980011,1.84000,0.32000
,,,-3.88940000534,1.84000,0.30000
,,,-3.88919997215,1.80000,0.32000
,,,-3.88899993896,1.76000,0.32000
,,,-3.88879990578,1.84000,0.30000
,,,-3.88859987259,1.84000,0.30000
,,,-3.88839983940,1.80000,0.30000
,,,-3.88819980621,1.80000,0.32000
,,,-3.88800001144,1.80000,0.32000
,,,-3.88779997826,1.80000,0.32000
,,,-3.88759994507,1.84000,0.32000
,,,-3.88739991188,1.80000,0.30000
,,,-3.88719987869,1.76000,0.32000
,,,-3.88699984550,1.80000,0.32000
,,,-3.88679981232,1.80000,0.30000
,,,-3.88660001755,1.84000,0.30000
,,,-3.88639998436,1.80000,0.30000
,,,-3.88619995117,1.76000,0.32000
,,,-3.88599991798,1.80000,0.32000
,,,-3.88579988480,1.80000,0.28000
,,,-3.88559985161,1.84000,0.32000
,,,-3.88539981842,1.80000,0.32000
,,,-3.88519978523,1.80000,0.34000
,,,-3.88499999046,1.80000,0.32000
,,,-3.88479995728,1.80000,0.32000
,,,-3.88459992409,1.76000,0.32000
,,,-3.88439989090,1.76000,0.32000
,,,-3.88419985771,1.80000,0.34000
,,,-3.88399982452,1.80000,0.32000
