AAAlogs/BK000002.CSV

Record Length,40000,,Source,CH1,CH2
Sample Interval,CH1:0.0001999999949 CH2:0.0001999999949,,Second,Volt,Volt
Vertical Units,CH1:V CH2:V,,-4.00000000000,2.20000,0.16000
Vertical Scale,CH1:1.00 CH2:0.50,,-3.99979996681,2.16000,0.18000
Vertical Offset,CH1:-2.44000 CH2:0.00,,-3.99959993362,2.16000,0.18000
Horizontal Units,s,,-3.99939990044,2.16000,0.16000
Horizontal Scale,0.5000000000,,-3.99919986725,2.16000,0.16000
Model Number,2190E,,-3.99899983406,2.20000,0.16000
Serial Number,512C18110,,-3.99879980087,2.16000,0.18000
Software Version,6.01.01.19,,-3.99860000610,2.16000,0.18000
,,,-3.99839997292,2.16000,0.16000
,,,-3.99819993973,2.20000,0.16000
,,,-3.99799990654,2.16000,0.18000
,,,-3.99779987335,2.16000,0.18000
,,,-3.99759984016,2.16000,0.18000
,,,-3.99739980698,2.16000,0.16000
,,,-3.99720001221,2.16000,0.16000
,,,-3.99699997902,2.16000,0.16000
,,,-3.99679994583,2.12000,0.20000
,,,-3.99659991264,2.16000,0.16000
,,,-3.99639987946,2.20000,0.14000
,,,-3.99619984627,2.16000,0.18000
,,,-3.99599981308,2.12000,0.18000
,,,-3.99579977989,2.12000,0.18000
,,,-3.99559998512,2.16000,0.18000
,,,-3.99539995193,2.16000,0.16000
,,,-3.99519991875,2.16000,0.18000
,,,-3.99499988556,2.16000,0.18000
,,,-3.99479985237,2.16000,0.18000
,,,-3.99459981918,2.16000,0.16000
,,,-3.99439978600,2.20000,0.18000
,,,-3.99419999123,2.16000,0.20000
,,,-3.99399995804,2.16000,0.18000
,,,-3.99379992485,2.16000,0.18000
,,,-3.99359989166,2.20000,0.16000
,,,-3.99339985847,2.16000,0.20000
,,,-3.99319982529,2.12000,0.18000
,,,-3.99299979210,2.16000,0.18000
,,,-3.99279999733,2.12000,0.16000
,,,-3.99259996414,2.16000,0.18000
,,,-3.99239993095,2.16000,0.20000
,,,-3.99219989777,2.12000,0.20000
,,,-3.99199986458,2.16000,0.18000
,,,-3.99179983139,2.16000,0.16000
,,,-3.99159979820,2.16000,0.16000
,,,-3.99140000343,2.12000,0.18000
,,,-3.99119997025,2.12000,0.18000
,,,-3.99099993706,2.16000,0.18000
,,,-3.99079990387,2.16000,0.18000
,,,-3.99059987068,2.16000,0.18000
,,,-3.99039983749,2.12000,0.20000
,,,-3.99019980431,2.12000,0.20000
,,,-3.99000000954,2.16000,0.18000
,,,-3.98979997635,2.16000,0.18000
,,,-3.98959994316,2.16000,0.18000
,,,-3.98939990997,2.12000,0.18000
,,,-3.98919987679,2.12000,0.18000
,,,-3.98899984360,2.16000,0.18000
,,,-3.98879981041,2.16000,0.20000
,,,-3.98860001564,2.12000,0.20000
,,,-3.98839998245,2.12000,0.20000
,,,-3.98819994926,2.16000,0.18000
,,,-3.98799991608,2.12000,0.16000
,,,-3.98779988289,2.12000,0.20000
,,,-3.98759984970,2.08000,0.20000
,,,-3.98739981651,2.12000,0.18000
,,,-3.98719978333,2.12000,0.18000
,,,-3.98699998856,2.16000,0.18000
,,,-3.98679995537,2.08000,0.20000
,,,-3.98659992218,2.08000,0.18000
,,,-3.98639988899,2.12000,0.18000
,,,-3.98619985580,2.16000,0.18000
,,,-3.98599982262,2.16000,0.20000
,,,-3.98579978943,2.12000,0.20000
,,,-3.98559999466,2.12000,0.20000
,,,-3.98539996147,2.16000,0.20000
,,,-3.98519992828,2.12000,0.18000
,,,-3.98499989510,2.12000,0.18000
,,,-3.98479986191,2.08000,0.20000
,,,-3.98459982872,2.08000,0.20000
,,,-3.98439979553,2.16000,0.20000
,,,-3.98420000076,2.12000,0.18000
,,,-3.98399996758,2.08000,0.20000
,,,-3.98379993439,2.08000,0.20000
,,,-3.98359990120,2.12000,0.20000
,,,-3.98339986801,2.12000,0.18000
,,,-3.98319983482,2.12000,0.18000
,,,-3.98299980164,2.08000,0.20000
,,,-3.98280000687,2.12000,0.20000
,,,-3.98259997368,2.12000,0.20000
,,,-3.98239994049,2.16000,0.20000
,,,-3.98219990730,2.08000,0.18000
,,,-3.98199987411,2.08000,0.20000
,,,-3.98179984093,2.08000,0.20000
,,,-3.98159980774,2.12000,0.20000
,,,-3.98140001297,2.12000,0.20000
,,,-3.98119997978,2.08000,0.20000
,,,-3.98099994659,2.08000,0.20000
,,,-3.98079991341,2.12000,0.22000
,,,-3.98059988022,2.12000,0.18000
,,,-3.98039984703,2.12000,0.20000
,,,-3.98019981384,2.08000,0.22000
,,,-3.97999978065,1.80000,0.32000
,,,-3.97979998589,1.72000,0.34000
,,,-3.97959995270,1.76000,0.34000
,,,-3.97939991951,1.76000,0.32000
,,,-3.97919988632,1.80000,0.32000
,,,-3.97899985313,1.76000,0.34000
,,,-3.97879981995,1.76000,0.34000
,,,-3.97859978676,1.76000,0.34000
,,,-3.97839999199,1.76000,0.30000
,,,-3.97819995880,1.80000,0.32000
,,,-3.97799992561,1.72000,0.34000
,,,-3.97779989243,1.76000,0.34000
,,,-3.97759985924,1.76000,0.32000
,,,-3.97739982605,1.76000,0.34000
,,,-3.97719979286,1.80000,0.34000
,,,-3.97699999809,1.68000,0.36000
,,,-3.97679996490,1.72000,0.32000
,,,-3.97659993172,1.76000,0.34000
,,,-3.97639989853,1.76000,0.32000
,,,-3.97619986534,1.76000,0.34000
,,,-3.97599983215,1.72000,0.34000
,,,-3.97579979897,1.72000,0.34000
,,,-3.97560000420,1.76000,0.32000
,,,-3.97539997101,1.76000,0.34000
,,,-3.97519993782,1.72000,0.34000
,,,-3.97499990463,1.68000,0.34000
,,,-3.97479987144,1.76000,0.32000
,,,-3.97459983826,1.76000,0.34000
,,,-3.97439980507,1.76000,0.34000
,,,-3.97420001030,1.72000,0.36000
,,,-3.97399997711,1.72000,0.34000
,,,-3.97379994392,1.76000,0.34000
,,,-3.97359991074,1.76000,0.34000
,,,-3.97339987755,1.72000,0.34000
,,,-3.97319984436,1.68000,0.36000
,,,-3.97299981117,1.72000,0.34000
,,,-3.97280001640,1.76000,0.32000
,,,-3.97259998322,1.76000,0.34000
,,,-3.97239995003,1.72000,0.36000
,,,-3.97219991684,1.76000,0.34000
,,,-3.97199988365,1.72000,0.34000
,,,-3.97179985046,1.76000,0.34000
,,,-3.97159981728,1.68000,0.34000
,,,-3.97139978409,1.68000,0.34000
,,,-3.97119998932,1.68000,0.34000
,,,-3.97099995613,1.72000,0.34000
,,,-3.97079992294,1.76000,0.34000
,,,-3.97059988976,1.68000,0.34000
,,,-3.97039985657,1.68000,0.34000
,,,-3.97019982338,1.68000,0.34000
,,,-3.96999979019,3.64000,-0.40000
,,,-3.96979999542,3.68000,-0.38000
,,,-3.96959996223,3.68000,-0.40000
,,,-3.96939992905,3.64000,-0.36000
,,,-3.96919989586,3.60000,-0.38000
,,,-3.96899986267,3.68000,-0.40000
,,,-3.96879982948,3.68000,-0.40000
,,,-3.96859979630,3.68000,-0.38000
,,,-3.96840000153,3.64000,-0.38000
,,,-3.96819996834,3.64000,-0.38000
,,,-3.96799993515,3.68000,-0.40000
,,,-3.96779990196,3.68000,-0.40000
,,,-3.96759986877,3.64000,-0.36000
,,,-3.96739983559,3.60000,-0.38000
,,,-3.96719980240,3.68000,-0.38000
,,,-3.96700000763,3.68000,-0.40000
,,,-3.96679997444,3.68000,-0.40000
,,,-3.96659994125,3.64000,-0.40000
,,,-3.96639990807,3.64000,-0.40000
,,,-3.96619987488,3.68000,-0.40000
,,,-3.96599984169,3.72000,-0.38000
,,,-3.96579980850,3.68000,-0.40000
,,,-3.96560001373,3.60000,-0.38000
,,,-3.96539998055,3.68000,-0.40000
,,,-3.96519994736,3.72000,-0.40000
,,,-3.96499991417,3.64000,-0.40000
,,,-3.96479988098,3.68000,-0.38000
,,,-3.96459984779,3.64000,-0.38000
,,,-3.96439981461,3.68000,-0.40000
,,,-3.96419978142,3.72000,-0.40000
,,,-3.96399998665,3.68000,-0.40000
,,,-3.96379995346,3.68000,-0.38000
,,,-3.96359992027,3.64000,-0.38000
,,,-3.96339988708,3.68000,-0.40000
,,,-3.96319985390,3.68000,-0.40000
,,,-3.96299982071,3.68000,-0.38000
,,,-3.96279978752,3.68000,-0.38000
,,,-3.96259999275,3.68000,-0.40000
,,,-3.96239995956,3.72000,-0.40000
,,,-3.96219992638,3.72000,-0.42000
,,,-3.96199989319,3.68000,-0.38000
,,,-3.96179986000,3.68000,-0.42000
,,,-3.96159982681,3.72000,-0.38000
,,,-3.96139979362,3.72000,-0.40000
,,,-3.96119999886,3.68000,-0.38000
,,,-3.96099996567,3.68000,-0.40000
,,,-3.96079993248,3.68000,-0.40000
,,,-3.96059989929,3.72000,-0.40000
,,,-3.96039986610,3.68000,-0.40000
,,,-3.96019983292,3.72000,-0.40000
,,,-3.95999979973,3.68000,-0.40000
,,,-3.95980000496,3.68000,-0.42000
,,,-3.95959997177,3.72000,-0.42000
,,,-3.95939993858,3.72000,-0.40000
,,,-3.95919990540,3.72000,-0.40000
,,,-3.95899987221,3.68000,-0.40000
,,,-3.95879983902,3.72000,-0.42000
,,,-3.95859980583,3.72000,-0.42000
,,,-3.95840001106,3.68000,-0.40000
,,,-3.95819997787,3.72000,-0.40000
,,,-3.95799994469,3.72000,-0.42000
,,,-3.95779991150,3.72000,-0.40000
,,,-3.95759987831,3.72000,-0.42000
,,,-3.95739984512,3.72000,-0.42000
,,,-3.95719981194,3.68000,-0.40000
,,,-3.95700001717,3.72000,-0.40000
,,,-3.95679998398,3.72000,-0.42000
,,,-3.95659995079,3.72000,-0.40000
,,,-3.95639991760,3.68000,-0.40000
,,,-3.95619988441,3.68000,-0.42000
,,,-3.95599985123,3.72000,-0.42000
,,,-3.95579981804,3.72000,-0.42000
,,,-3.95559978485,3.68000,-0.42000
,,,-3.95539999008,3.72000,-0.40000
,,,-3.95519995689,3.68000,-0.42000
,,,-3.95499992371,3.72000,-0.42000
,,,-3.95479989052,3.72000,-0.42000
,,,-3.95459985733,3.72000,-0.40000
,,,-3.95439982414,3.68000,-0.40000
,,,-3.95419979095,3.72000,-0.44000
,,,-3.95399999619,3.72000,-0.42000
,,,-3.95379996300,3.76000,-0.40000
,,,-3.95359992981,3.72000,-0.40000
,,,-3.95339989662,3.72000,-0.42000
,,,-3.95319986343,3.72000,-0.42000
,,,-3.95299983025,3.76000,-0.42000
,,,-3.95279979706,3.72000,-0.42000
,,,-3.95260000229,3.72000,-0.40000
,,,-3.95239996910,3.76000,-0.42000
,,,-3.95219993591,3.76000,-0.42000
,,,-3.95199990273,3.72000,-0.42000
,,,-3.95179986954,3.72000,-0.42000
,,,-3.95159983635,3.72000,-0.42000
,,,-3.95139980316,3.72000,-0.42000
,,,-3.95120000839,3.76000,-0.42000
,,,-3.95099997520,3.72000,-0.42000
,,,-3.95079994202,3.72000,-0.40000
,,,-3.95059990883,3.76000,-0.40000
,,,-3.95039987564,3.72000,-0.44000
,,,-3.95019984245,3.72000,-0.42000
,,,-3.94999980927,3.72000,-0.42000
,,,-3.94980001450,3.72000,-0.40000
,,,-3.94959998131,3.76000,-0.44000
,,,-3.94939994812,3.76000,-0.44000
,,,-3.94919991493,3.76000,-0.40000
,,,-3.94899988174,3.72000,-0.40000
,,,-3.94879984856,3.72000,-0.40000
,,,-3.94859981537,3.76000,-0.44000
,,,-3.94839978218,3.76000,-0.42000
,,,-3.94819998741,3.72000,-0.40000
,,,-3.94799995422,3.72000,-0.42000
,,,-3.94779992104,3.76000,-0.44000
,,,-3.94759988785,3.76000,-0.42000
,,,-3.94739985466,3.76000,-0.42000
,,,-3.94719982147,3.72000,-0.42000
,,,-3.94699978828,3.72000,-0.44000
,,,-3.94679999352,3.76000,-0.42000
,,,-3.94659996033,3.76000,-0.42000
,,,-3.94639992714,3.76000,-0.42000
,,,-3.94619989395,3.72000,-0.40000
,,,-3.94599986076,3.72000,-0.42000
,,,-3.94579982758,3.80000,-0.42000
,,,-3.94559979439,3.76000,-0.42000
,,,-3.94539999962,3.72000,-0.40000
,,,-3.94519996643,3.72000,-0.42000
,,,-3.94499993324,3.76000,-0.44000
,,,-3.94479990005,3.76000,-0.44000
,,,-3.94459986687,3.76000,-0.42000
,,,-3.94439983368,3.72000,-0.42000
,,,-3.94419980049,3.72000,-0.42000
,,,-3.94400000572,3.76000,-0.44000
,,,-3.94379997253,3.76000,-0.44000
,,,-3.94359993935,3.76000,-0.44000
,,,-3.94339990616,3.72000,-0.44000
,,,-3.94319987297,3.76000,-0.44000
,,,-3.94299983978,3.80000,-0.44000
,,,-3.94279980659,3.76000,-0.44000
,,,-3.94260001183,3.76000,-0.44000
,,,-3.94239997864,3.76000,-0.42000
,,,-3.94219994545,3.76000,-0.44000
,,,-3.94199991226,3.76000,-0.44000
,,,-3.94179987907,3.76000,-0.44000
,,,-3.94159984589,3.76000,-0.42000
,,,-3.94139981270,3.72000,-0.44000
,,,-3.94120001793,3.80000,-0.46000
,,,-3.94099998474,3.84000,-0.44000
,,,-3.94079995155,3.76000,-0.44000
,,,-3.94059991837,3.76000,-0.42000
,,,-3.94039988518,3.76000,-0.44000
,,,-3.94019985199,3.84000,-0.46000
,,,-3.93999981880,3.76000,-0.42000
,,,-3.93979978561,3.76000,-0.42000
,,,-3.93959999084,3.76000,-0.42000
,,,-3.93939995766,3.80000,-0.44000
,,,-3.93919992447,3.80000,-0.44000
,,,-3.93899989128,3.76000,-0.46000
,,,-3.93879985809,3.76000,-0.42000
,,,-3.93859982491,3.76000,-0.44000
,,,-3.93839979172,3.80000,-0.46000
,,,-3.93819999695,3.80000,-0.44000
,,,-3.93799996376,3.76000,-0.44000
,,,-3.93779993057,3.76000,-0.44000
,,,-3.93759989738,3.84000,-0.44000
,,,-3.93739986420,3.84000,-0.44000
,,,-3.93719983101,3.80000,-0.44000
,,,-3.93699979782,3.80000,-0.42000
,,,-3.93680000305,3.76000,-0.44000
,,,-3.93659996986,3.84000,-0.46000
,,,-3.93639993668,3.80000,-0.44000
,,,-3.93619990349,3.80000,-0.44000
,,,-3.93599987030,3.76000,-0.44000
,,,-3.93579983711,3.80000,-0.44000
,,,-3.93559980392,3.80000,-0.46000
,,,-3.93540000916,3.80000,-0.46000
,,,-3.93519997597,3.76000,-0.44000
,,,-3.93499994278,3.76000,-0.44000
,,,-3.93479990959,3.80000,-0.44000
,,,-3.93459987640,3.80000,-0.44000
,,,-3.93439984322,3.80000,-0.44000
,,,-3.93419981003,3.84000,-0.46000
,,,-3.93400001526,3.76000,-0.46000
,,,-3.93379998207,3.80000,-0.46000
,,,-3.93359994888,3.80000,-0.44000
,,,-3.93339991570,3.80000,-0.46000
,,,-3.93319988251,3.80000,-0.44000
,,,-3.93299984932,3.76000,-0.44000
,,,-3.93279981613,3.84000,-0.44000
,,,-3.93259978294,3.84000,-0.46000
,,,-3.93239998817,3.80000,-0.46000
,,,-3.93219995499,3.76000,-0.44000
,,,-3.93199992180,3.80000,-0.44000
,,,-3.93179988861,3.84000,-0.46000
,,,-3.93159985542,3.76000,-0.46000
,,,-3.93139982224,3.80000,-0.44000
,,,-3.93119978905,3.80000,-0.44000
,,,-3.93099999428,3.84000,-0.44000
,,,-3.93079996109,3.84000,-0.46000
,,,-3.93059992790,3.80000,-0.44000
,,,-3.93039989471,3.80000,-0.44000
,,,-3.93019986153,3.80000,-0.46000
,,,-3.92999982834,3.88000,-0.44000
,,,-3.92979979515,3.84000,-0.46000
,,,-3.92960000038,3.84000,-0.46000
,,,-3.92939996719,3.80000,-0.44000
,,,-3.92919993401,3.84000,-0.46000
,,,-3.92899990082,3.84000,-0.44000
,,,-3.92879986763,3.80000,-0.44000
,,,-3.92859983444,3.80000,-0.44000
,,,-3.92839980125,3.84000,-0.46000
,,,-3.92820000648,3.84000,-0.48000
,,,-3.92799997330,3.84000,-0.46000
,,,-3.92779994011,3.84000,-0.46000
,,,-3.92759990692,3.80000,-0.44000
,,,-3.92739987373,3.84000,-0.44000
,,,-3.92719984055,3.84000,-0.48000
,,,-3.92699980736,3.84000,-0.46000
,,,-3.92680001259,3.84000,-0.44000
,,,-3.92659997940,3.80000,-0.44000
,,,-3.92639994621,3.84000,-0.48000
,,,-3.92619991302,3.88000,-0.48000
,,,-3.92599987984,3.84000,-0.46000
,,,-3.92579984665,3.84000,-0.46000
,,,-3.92559981346,3.84000,-0.44000
,,,-3.92540001869,3.88000,-0.46000
,,,-3.92519998550,3.84000,-0.48000
,,,-3.92499995232,3.88000,-0.46000
,,,-3.92479991913,3.84000,-0.46000
,,,-3.92459988594,3.84000,-0.48000
,,,-3.92439985275,3.92000,-0.44000
,,,-3.92419981956,3.84000,-0.46000
,,,-3.92399978638,3.84000,-0.44000
,,,-3.92379999161,3.84000,-0.46000
,,,-3.92359995842,3.88000,-0.48000
,,,-3.92339992523,3.88000,-0.48000
,,,-3.92319989204,3.84000,-0.46000
,,,-3.92299985886,3.84000,-0.48000
,,,-3.92279982567,3.84000,-0.48000
,,,-3.92259979248,3.84000,-0.48000
,,,-3.92239999771,3.84000,-0.46000
,,,-3.92219996452,3.88000,-0.46000
,,,-3.92199993134,3.84000,-0.46000
,,,-3.92179989815,3.88000,-0.46000
,,,-3.92159986496,3.88000,-0.48000
,,,-3.92139983177,3.84000,-0.48000
,,,-3.92119979858,3.84000,-0.46000
,,,-3.92100000381,3.84000,-0.48000
,,,-3.92079997063,3.88000,-0.46000
,,,-3.92059993744,3.88000,-0.46000
,,,-3.92039990425,3.84000,-0.48000
,,,-3.92019987106,3.84000,-0.46000
,,,-3.91999983788,3.88000,-0.48000
,,,-3.91979980469,3.88000,-0.48000
,,,-3.91960000992,3.88000,-0.48000
,,,-3.91939997673,3.88000,-0.48000
,,,-3.91919994354,3.88000,-0.46000
,,,-3.91899991035,3.88000,-0.48000
,,,-3.91879987717,3.92000,-0.48000
,,,-3.91859984398,3.88000,-0.48000
,,,-3.91839981079,3.88000,-0.48000
,,,-3.91820001602,3.88000,-0.48000
,,,-3.91799998283,3.88000,-0.50000
,,,-3.91779994965,3.92000,-0.48000
,,,-3.91759991646,3.88000,-0.46000
,,,-3.91739988327,3.88000,-0.48000
,,,-3.91719985008,3.92000,-0.52000
,,,-3.91699981689,3.92000,-0.48000
,,,-3.91679978371,3.92000,-0.48000
,,,-3.91659998894,3.92000,-0.48000
,,,-3.91639995575,3.88000,-0.48000
,,,-3.91619992256,3.92000,-0.48000
,,,-3.91599988937,3.92000,-0.48000
,,,-3.91579985619,3.92000,-0.48000
,,,-3.91559982300,3.88000,-0.46000
,,,-3.91539978981,3.88000,-0.48000
,,,-3.91519999504,3.92000,-0.48000
,,,-3.91499996185,3.92000,-0.48000
,,,-3.91479992867,3.92000,-0.46000
,,,-3.91459989548,3.88000,-0.48000
,,,-3.91439986229,3.92000,-0.48000
,,,-3.91419982910,3.92000,-0.48000
,,,-3.91399979591,3.88000,-0.48000
,,,-3.91380000114,3.88000,-0.46000
,,,-3.91359996796,3.88000,-0.48000
,,,-3.91339993477,3.92000,-0.50000
,,,-3.91319990158,3.92000,-0.48000
,,,-3.91299986839,3.88000,-0.48000
,,,-3.91279983521,3.88000,-0.46000
,,,-3.91259980202,3.88000,-0.48000
,,,-3.91240000725,3.92000,-0.48000
,,,-3.91219997406,3.92000,-0.48000
,,,-3.91199994087,3.88000,-0.46000
,,,-3.91179990768,3.92000,-0.48000
,,,-3.91159987450,3.92000,-0.48000
,,,-3.91139984131,3.92000,-0.48000
,,,-3.91119980812,3.88000,-0.48000
,,,-3.91100001335,3.88000,-0.48000
,,,-3.91079998016,3.88000,-0.48000
,,,-3.91059994698,3.92000,-0.50000
,,,-3.91039991379,3.92000,-0.48000
,,,-3.91019988060,3.92000,-0.48000
,,,-3.90999984741,3.92000,-0.46000
,,,-3.90979981422,3.92000,-0.50000
,,,-3.90960001945,3.92000,-0.48000
,,,-3.90939998627,3.92000,-0.48000
,,,-3.90919995308,3.92000,-0.50000
,,,-3.90899991989,3.88000,-0.48000
,,,-3.90879988670,3.92000,-0.48000
,,,-3.90859985352,3.96000,-0.48000
,,,-3.90839982033,3.96000,-0.50000
,,,-3.90819978714,3.92000,-0.50000
,,,-3.90799999237,3.92000,-0.48000
,,,-3.90779995918,3.96000,-0.50000
,,,-3.90759992599,3.92000,-0.48000
,,,-3.90739989281,3.92000,-0.50000
,,,-3.90719985962,3.92000,-0.50000
,,,-3.90699982643,3.92000,-0.52000
,,,-3.90679979324,3.96000,-0.48000
,,,-3.90659999847,3.92000,-0.50000
,,,-3.90639996529,3.92000,-0.50000
,,,-3.90619993210,3.92000,-0.50000
,,,-3.90599989891,3.96000,-0.48000
,,,-3.90579986572,3.96000,-0.50000
,,,-3.90559983253,3.96000,-0.48000
,,,-3.90539979935,3.92000,-0.50000
,,,-3.90520000458,3.92000,-0.48000
,,,-3.90499997139,3.92000,-0.48000
,,,-3.90479993820,3.92000,-0.50000
,,,-3.90459990501,3.96000,-0.50000
,,,-3.90439987183,3.92000,-0.48000
,,,-3.90419983864,3.96000,-0.52000
,,,-3.90399980545,3.96000,-0.48000
,,,-3.90380001068,3.96000,-0.50000
,,,-3.90359997749,3.96000,-0.48000
,,,-3.90339994431,3.96000,-0.50000
,,,-3.90319991112,3.96000,-0.50000
,,,-3.90299987793,3.96000,-0.50000
,,,-3.90279984474,3.96000,-0.48000
,,,-3.90259981155,3.92000,-0.50000
,,,-3.90240001678,3.96000,-0.50000
,,,-3.90219998360,3.96000,-0.50000
,,,-3.90199995041,3.96000,-0.52000
,,,-3.90179991722,3.96000,-0.50000
,,,-3.90159988403,3.92000,-0.48000
,,,-3.90139985085,3.96000,-0.50000
,,,-3.90119981766,3.96000,-0.50000
,,,-3.90099978447,3.96000,-0.52000
,,,-3.90079998970,3.96000,-0.50000
,,,-3.90059995651,3.96000,-0.50000
,,,-3.90039992332,4.00000,-0.52000
,,,-3.90019989014,4.00000,-0.50000
,,,-3.89999985695,3.96000,-0.50000
,,,-3.89979982376,3.92000,-0.48000
,,,-3.89959979057,4.00000,-0.52000
,,,-3.89939999580,4.00000,-0.50000
,,,-3.89919996262,3.96000,-0.50000
,,,-3.89899992943,3.96000,-0.50000
,,,-3.89879989624,3.96000,-0.50000
,,,-3.89859986305,4.00000,-0.52000
,,,-3.89839982986,4.00000,-0.52000
,,,-3.89819979668,4.00000,-0.50000
,,,-3.89800000191,3.96000,-0.50000
,,,-3.89779996872,4.00000,-0.50000
,,,-3.89759993553,4.00000,-0.52000
,,,-3.89739990234,4.00000,-0.50000
,,,-3.89719986916,4.00000,-0.48000
,,,-3.89699983597,4.00000,-0.50000
,,,-3.89679980278,4.00000,-0.50000
,,,-3.89660000801,4.00000,-0.52000
,,,-3.89639997482,4.00000,-0.52000
,,,-3.89619994164,3.96000,-0.50000
,,,-3.89599990845,4.00000,-0.52000
,,,-3.89579987526,4.04000,-0.52000
,,,-3.89559984207,4.04000,-0.52000
,,,-3.89539980888,4.00000,-0.52000
,,,-3.89520001411,4.00000,-0.50000
,,,-3.89499998093,4.00000,-0.50000
,,,-3.89479994774,4.00000,-0.52000
,,,-3.89459991455,4.04000,-0.52000
,,,-3.89439988136,4.00000,-0.52000
,,,-3.89419984818,4.00000,-0.52000
,,,-3.89399981499,4.00000,-0.54000
,,,-3.89380002022,4.00000,-0.52000
,,,-3.89359998703,4.00000,-0.52000
,,,-3.89339995384,4.00000,-0.50000
,,,-3.89319992065,4.00000,-0.50000
,,,-3.89299988747,4.04000,-0.54000
,,,-3.89279985428,4.00000,-0.52000
,,,-3.89259982109,4.00000,-0.52000
,,,-3.89239978790,4.00000,-0.54000
,,,-3.89219999313,4.00000,-0.52000
,,,-3.89199995995,4.00000,-0.52000
,,,-3.89179992676,4.00000,-0.52000
,,,-3.89159989357,4.04000,-0.52000
,,,-3.89139986038,4.00000,-0.50000
,,,-3.89119982719,4.00000,-0.54000
,,,-3.89099979401,4.00000,-0.52000
,,,-3.89079999924,4.04000,-0.52000
,,,-3.89059996605,4.00000,-0.52000
,,,-3.89039993286,4.00000,-0.54000
,,,-3.89019989967,4.04000,-0.52000
,,,-3.88999986649,4.00000,-0.52000
,,,-3.88979983330,4.04000,-0.52000
,,,-3.88959980011,4.00000,-0.50000
,,,-3.88940000534,4.04000,-0.52000
,,,-3.88919997215,4.04000,-0.54000
,,,-3.88899993896,4.04000,-0.52000
,,,-3.88879990578,4.00000,-0.54000
,,,-3.88859987259,4.00000,-0.54000
,,,-3.88839983940,4.04000,-0.54000
,,,-3.88819980621,4.04000,-0.52000
,,,-3.88800001144,4.04000,-0.50000
,,,-3.88779997826,4.04000,-0.54000
,,,-3.88759994507,4.00000,-0.54000
,,,-3.88739991188,4.04000,-0.54000
,,,-3.88719987869,4.04000,-0.54000
,,,-3.88699984550,4.00000,-0.52000
