Oscope_Logs/testdata_20210930/BK000005.CSV

Record Length,40000,,Source,CH1,CH2
Sample Interval,CH1:0.0003999999899 CH2:0.0003999999899,,Second,Volt,Volt
Vertical Units,CH1:V CH2:V,,-8.00000000000,-1.60000,-5.88000
Vertical Scale,CH1:1.00 CH2:1.00,,-7.99959993362,-1.64000,-5.80000
Vertical Offset,CH1:2.94000 CH2:2.94000,,-7.99919986725,-1.60000,-5.64000
Horizontal Units,s,,-7.99879980087,-1.68000,-5.48000
Horizontal Scale,1.0000000000,,-7.99839973450,-1.60000,-5.68000
Model Number,2190E,,-7.99799966812,-1.56000,-5.76000
Serial Number,512C18110,,-7.99759960175,-1.64000,-5.84000
Software Version,6.01.01.19,,-7.99720001221,-1.56000,-5.48000
,,,-7.99679994583,-1.64000,-5.92000
,,,-7.99639987946,-1.60000,-5.72000
,,,-7.99599981308,-1.64000,-5.68000
,,,-7.99559974670,-1.60000,-5.80000
,,,-7.99519968033,-1.56000,-5.12000
,,,-7.99479961395,-1.64000,-5.88000
,,,-7.99440002441,-1.60000,-5.52000
,,,-7.99399995804,-1.64000,-5.92000
,,,-7.99359989166,-1.60000,-5.80000
,,,-7.99319982529,-1.64000,-5.88000
,,,-7.99279975891,-1.60000,-5.88000
,,,-7.99239969254,-1.60000,-4.56000
,,,-7.99199962616,-1.64000,-6.00000
,,,-7.99159955978,-1.60000,-5.76000
,,,-7.99119997025,-1.64000,-5.92000
,,,-7.99079990387,-1.60000,-6.00000
,,,-7.99039983749,-1.64000,-5.80000
,,,-7.98999977112,-1.60000,-5.92000
,,,-7.98959970474,-1.60000,-4.24000
,,,-7.98919963837,-1.68000,-5.84000
,,,-7.98879957199,-1.60000,-6.00000
,,,-7.98839998245,-1.64000,-5.80000
,,,-7.98799991608,-1.60000,-6.00000
,,,-7.98759984970,-1.64000,-5.92000
,,,-7.98719978333,-1.60000,-5.84000
,,,-7.98679971695,-1.64000,-4.60000
,,,-7.98639965057,-1.64000,-5.88000
,,,-7.98599958420,-1.60000,-6.08000
,,,-7.98559999466,-1.64000,-5.88000
,,,-7.98519992828,-1.60000,-5.88000
,,,-7.98479986191,-1.64000,-5.92000
,,,-7.98439979553,-1.64000,-5.76000
,,,-7.98399972916,-1.64000,-5.08000
,,,-7.98359966278,-1.64000,-5.84000
,,,-7.98319959641,-1.60000,-6.04000
,,,-7.98280000687,-1.64000,-5.96000
,,,-7.98239994049,-1.60000,-5.40000
,,,-7.98199987411,-1.64000,-6.04000
,,,-7.98159980774,-1.60000,-5.72000
,,,-7.98119974136,-1.64000,-5.76000
,,,-7.98079967499,-1.64000,-5.96000
,,,-7.98039960861,-1.60000,-5.72000
,,,-7.98000001907,-1.64000,-5.96000
,,,-7.97959995270,-1.60000,-5.64000
,,,-7.97919988632,-1.68000,-5.92000
,,,-7.97879981995,-1.64000,-5.80000
,,,-7.97839975357,-1.68000,-5.80000
,,,-7.97799968719,-1.64000,-5.92000
,,,-7.97759962082,-1.60000,-5.12000
,,,-7.97720003128,-1.64000,-5.92000
,,,-7.97679996490,-1.64000,-5.68000
,,,-7.97639989853,-1.68000,-5.92000
,,,-7.97599983215,-1.60000,-6.00000
,,,-7.97559976578,-1.68000,-5.84000
,,,-7.97519969940,-1.64000,-5.88000
,,,-7.97479963303,-1.60000,-4.68000
,,,-7.97439956665,-1.64000,-5.76000
,,,-7.97399997711,-1.64000,-6.04000
,,,-7.97359991074,-1.64000,-5.92000
,,,-7.97319984436,-1.60000,-6.00000
,,,-7.97279977798,-1.68000,-5.96000
,,,-7.97239971161,-1.60000,-5.76000
,,,-7.97199964523,-1.64000,-4.72000
,,,-7.97159957886,-1.64000,-5.80000
,,,-7.97119998932,-1.64000,-6.04000
,,,-7.97079992294,-1.68000,-5.92000
,,,-7.97039985657,-1.64000,-5.96000
,,,-7.96999979019,-1.68000,-5.80000
,,,-7.96959972382,-1.68000,-5.80000
,,,-7.96919965744,-1.64000,-5.32000
,,,-7.96879959106,-1.68000,-5.88000
,,,-7.96840000153,-1.60000,-6.08000
,,,-7.96799993515,-1.64000,-5.84000
,,,-7.96759986877,-1.64000,-5.76000
,,,-7.96719980240,-1.64000,-5.64000
,,,-7.96679973602,-1.64000,-6.04000
,,,-7.96639966965,-1.68000,-5.60000
,,,-7.96599960327,-1.64000,-6.00000
,,,-7.96560001373,-1.64000,-6.04000
,,,-7.96519994736,-1.68000,-5.68000
,,,-7.96479988098,-1.64000,-5.80000
,,,-7.96439981461,-1.64000,-5.72000
,,,-7.96399974823,-1.64000,-5.96000
,,,-7.96359968185,-1.68000,-5.80000
,,,-7.96319961548,-1.64000,-6.00000
,,,-7.96280002594,-1.60000,-5.72000
,,,-7.96239995956,-1.64000,-5.84000
,,,-7.96199989319,-1.64000,-5.68000
,,,-7.96159982681,-1.64000,-5.84000
,,,-7.96119976044,-1.68000,-6.00000
,,,-7.96079969406,-1.68000,-5.80000
,,,-7.96039962769,-1.68000,-5.88000
,,,-7.95999956131,-1.64000,-5.24000
,,,-7.95959997177,-1.64000,-5.84000
,,,-7.95919990540,-1.64000,-5.92000
,,,-7.95879983902,-1.64000,-6.04000
,,,-7.95839977264,-1.64000,-6.00000
,,,-7.95799970627,-1.68000,-5.96000
,,,-7.95759963989,-1.64000,-5.84000
,,,-7.95719957352,-1.64000,-4.96000
,,,-7.95679998398,-1.64000,-6.04000
,,,-7.95639991760,-1.64000,-6.04000
,,,-7.95599985123,-1.64000,-5.84000
,,,-7.95559978485,-1.64000,-5.96000
,,,-7.95519971848,-1.64000,-5.76000
,,,-7.95479965210,-1.64000,-5.80000
,,,-7.95439958572,-1.64000,-5.56000
,,,-7.95399999619,-1.64000,-5.80000
,,,-7.95359992981,-1.64000,-6.04000
,,,-7.95319986343,-1.64000,-5.84000
,,,-7.95279979706,-1.68000,-5.84000
,,,-7.95239973068,-1.68000,-5.84000
,,,-7.95199966431,-1.64000,-5.80000
,,,-7.95159959793,-1.68000,-5.92000
,,,-7.95120000839,-1.64000,-5.80000
,,,-7.95079994202,-1.64000,-6.00000
,,,-7.95039987564,-1.64000,-5.64000
,,,-7.94999980927,-1.68000,-5.76000
,,,-7.94959974289,-1.64000,-5.80000
,,,-7.94919967651,-1.64000,-5.60000
,,,-7.94879961014,-1.68000,-6.00000
,,,-7.94840002060,-1.68000,-5.60000
,,,-7.94799995422,-1.68000,-5.88000
,,,-7.94759988785,-1.64000,-5.88000
,,,-7.94719982147,-1.64000,-5.76000
,,,-7.94679975510,-1.64000,-5.88000
,,,-7.94639968872,-1.68000,-5.92000
,,,-7.94599962234,-1.64000,-5.76000
,,,-7.94560003281,-1.64000,-5.84000
,,,-7.94519996643,-1.68000,-5.76000
,,,-7.94479990005,-1.64000,-5.84000
,,,-7.94439983368,-1.64000,-5.80000
,,,-7.94399976730,-1.68000,-5.80000
,,,-7.94359970093,-1.64000,-5.84000
,,,-7.94319963455,-1.64000,-5.80000
,,,-7.94279956818,-1.68000,-5.84000
,,,-7.94239997864,-1.68000,-5.80000
,,,-7.94199991226,-1.64000,-5.92000
,,,-7.94159984589,-1.68000,-5.88000
,,,-7.94119977951,-1.68000,-5.72000
,,,-7.94079971313,-1.64000,-6.00000
,,,-7.94039964676,-1.68000,-5.64000
,,,-7.93999958038,-1.68000,-6.00000
,,,-7.93959999084,-1.68000,-6.00000
,,,-7.93919992447,-1.68000,-5.76000
,,,-7.93879985809,-1.68000,-5.92000
,,,-7.93839979172,-1.68000,-5.80000
,,,-7.93799972534,-1.68000,-5.84000
,,,-7.93759965897,-1.64000,-5.88000
,,,-7.93719959259,-1.64000,-5.80000
,,,-7.93680000305,-1.68000,-5.92000
,,,-7.93639993668,-1.68000,-5.84000
,,,-7.93599987030,-1.64000,-6.00000
,,,-7.93559980392,-1.68000,-5.88000
,,,-7.93519973755,-1.64000,-5.80000
,,,-7.93479967117,-1.68000,-5.84000
,,,-7.93439960480,-1.68000,-5.80000
,,,-7.93400001526,-1.64000,-5.84000
,,,-7.93359994888,-1.64000,-6.00000
,,,-7.93319988251,-1.64000,-5.56000
,,,-7.93279981613,-1.64000,-5.88000
,,,-7.93239974976,-1.68000,-5.64000
,,,-7.93199968338,-1.64000,-5.76000
,,,-7.93159961700,-1.64000,-5.92000
,,,-7.93120002747,-1.64000,-5.64000
,,,-7.93079996109,-1.64000,-5.88000
,,,-7.93039989471,-1.64000,-5.88000
,,,-7.92999982834,-1.64000,-5.92000
,,,-7.92959976196,-1.64000,-5.80000
,,,-7.92919969559,-1.64000,-5.84000
,,,-7.92879962921,-1.64000,-5.84000
,,,-7.92839956284,-1.68000,-5.80000
,,,-7.92799997330,-1.64000,-5.84000
,,,-7.92759990692,-1.64000,-5.64000
,,,-7.92719984055,-1.64000,-5.84000
,,,-7.92679977417,-1.64000,-5.80000
,,,-7.92639970779,-1.64000,-5.84000
,,,-7.92599964142,-1.68000,-6.00000
,,,-7.92559957504,-1.68000,-5.80000
,,,-7.92519998550,-1.68000,-5.84000
,,,-7.92479991913,-1.60000,-5.36000
,,,-7.92439985275,-1.68000,-5.72000
,,,-7.92399978638,-1.64000,-6.08000
,,,-7.92359972000,-1.68000,-6.00000
,,,-7.92319965363,-1.64000,-6.00000
,,,-7.92279958725,-1.68000,-5.96000
,,,-7.92239999771,-1.68000,-5.88000
,,,-7.92199993134,-1.64000,-4.84000
,,,-7.92159986496,-1.64000,-5.76000
,,,-7.92119979858,-1.64000,-6.08000
,,,-7.92079973221,-1.64000,-5.84000
,,,-7.92039966583,-1.64000,-6.00000
,,,-7.91999959946,-1.64000,-5.80000
,,,-7.91960000992,-1.64000,-5.88000
,,,-7.91919994354,-1.64000,-5.16000
,,,-7.91879987717,-1.68000,-5.84000
,,,-7.91839981079,-1.64000,-6.08000
,,,-7.91799974442,-1.68000,-5.84000
,,,-7.91759967804,-1.60000,-5.92000
,,,-7.91719961166,-1.64000,-5.64000
,,,-7.91680002213,-1.64000,-6.04000
,,,-7.91639995575,-1.64000,-5.48000
,,,-7.91599988937,-1.64000,-5.76000
,,,-7.91559982300,-1.60000,-6.08000
,,,-7.91519975662,-1.64000,-5.64000
,,,-7.91479969025,-1.64000,-5.80000
,,,-7.91439962387,-1.64000,-5.80000
,,,-7.91400003433,-1.64000,-5.84000
,,,-7.91359996796,-1.68000,-5.76000
,,,-7.91319990158,-1.68000,-5.96000
,,,-7.91279983521,-1.60000,-6.04000
,,,-7.91239976883,-1.64000,-5.96000
,,,-7.91199970245,-1.64000,-5.64000
,,,-7.91159963608,-1.64000,-5.84000
,,,-7.91119956970,-1.60000,-5.84000
,,,-7.91079998016,-1.68000,-5.80000
,,,-7.91039991379,-1.64000,-5.92000
,,,-7.90999984741,-1.60000,-5.64000
,,,-7.90959978104,-1.68000,-5.96000
,,,-7.90919971466,-1.60000,-5.52000
,,,-7.90879964828,-1.68000,-6.04000
,,,-7.90839958191,-1.60000,-5.96000
,,,-7.90799999237,-1.68000,-5.84000
,,,-7.90759992599,-1.64000,-6.00000
,,,-7.90719985962,-1.60000,-4.80000
,,,-7.90679979324,-1.64000,-5.96000
,,,-7.90639972687,-1.64000,-5.76000
,,,-7.90599966049,-1.64000,-5.84000
,,,-7.90559959412,-1.60000,-6.04000
,,,-7.90520000458,-1.68000,-5.88000
,,,-7.90479993820,-1.64000,-5.92000
,,,-7.90439987183,-1.60000,-4.48000
,,,-7.90399980545,-1.64000,-5.88000
,,,-7.90359973907,-1.60000,-5.96000
,,,-7.90319967270,-1.64000,-5.88000
,,,-7.90279960632,-1.64000,-6.00000
,,,-7.90240001678,-1.68000,-5.92000
,,,-7.90199995041,-1.60000,-5.92000
,,,-7.90159988403,-1.60000,-4.44000
,,,-7.90119981766,-1.64000,-5.88000
,,,-7.90079975128,-1.64000,-6.04000
,,,-7.90039968491,-1.64000,-6.00000
,,,-7.89999961853,-1.60000,-5.92000
,,,-7.89960002899,-1.64000,-5.96000
,,,-7.89919996262,-1.60000,-5.68000
,,,-7.89879989624,-1.64000,-4.72000
,,,-7.89839982986,-1.64000,-5.88000
,,,-7.89799976349,-1.60000,-6.08000
,,,-7.89759969711,-1.68000,-5.92000
,,,-7.89719963074,-1.60000,-5.76000
,,,-7.89679956436,-1.64000,-5.96000
,,,-7.89639997482,-1.60000,-5.64000
,,,-7.89599990845,-1.64000,-5.08000
,,,-7.89559984207,-1.64000,-5.84000
,,,-7.89519977570,-1.60000,-6.00000
,,,-7.89479970932,-1.64000,-5.88000
,,,-7.89439964294,-1.60000,-5.72000
,,,-7.89399957657,-1.64000,-5.88000
,,,-7.89359998703,-1.60000,-5.80000
,,,-7.89319992065,-1.64000,-5.64000
,,,-7.89279985428,-1.64000,-5.84000
,,,-7.89239978790,-1.52000,-5.56000
,,,-7.89199972153,-1.60000,-5.68000
,,,-7.89159965515,-1.60000,-5.48000
,,,-7.89119958878,-1.64000,-5.84000
,,,-7.89079999924,-1.64000,-5.92000
,,,-7.89039993286,-1.64000,-5.92000
,,,-7.88999986649,-1.60000,-5.72000
,,,-7.88959980011,-1.56000,-5.00000
,,,-7.88919973373,-1.60000,-5.88000
,,,-7.88879966736,-1.60000,-5.52000
,,,-7.88839960098,-1.64000,-5.88000
,,,-7.88800001144,-1.60000,-5.88000
,,,-7.88759994507,-1.64000,-5.88000
,,,-7.88719987869,-1.60000,-5.84000
,,,-7.88679981232,-1.60000,-4.44000
,,,-7.88639974594,-1.64000,-5.88000
,,,-7.88599967957,-1.56000,-5.68000
,,,-7.88559961319,-1.64000,-5.84000
,,,-7.88520002365,-1.60000,-5.92000
,,,-7.88479995728,-1.60000,-5.88000
,,,-7.88439989090,-1.60000,-5.88000
,,,-7.88399982452,-1.56000,-4.32000
,,,-7.88359975815,-1.64000,-5.92000
,,,-7.88319969177,-1.60000,-5.80000
,,,-7.88279962540,-1.60000,-5.72000
,,,-7.88240003586,-1.56000,-6.04000
,,,-7.88199996948,-1.64000,-5.64000
,,,-7.88159990311,-1.60000,-5.92000
,,,-7.88119983673,-1.60000,-4.48000
,,,-7.88079977036,-1.60000,-5.76000
,,,-7.88039970398,-1.56000,-6.04000
,,,-7.87999963760,-1.60000,-5.72000
,,,-7.87959957123,-1.60000,-5.84000
,,,-7.87919998169,-1.60000,-5.88000
,,,-7.87879991531,-1.60000,-5.72000
,,,-7.87839984894,-1.64000,-4.96000
,,,-7.87799978256,-1.60000,-5.76000
,,,-7.87759971619,-1.56000,-5.84000
,,,-7.87719964981,-1.64000,-5.80000
,,,-7.87679958344,-1.56000,-5.64000
,,,-7.87639999390,-1.64000,-5.88000
,,,-7.87599992752,-1.60000,-5.68000
,,,-7.87559986115,-1.64000,-5.44000
,,,-7.87519979477,-1.60000,-5.92000
,,,-7.87479972839,-1.52000,-5.20000
,,,-7.87439966202,-1.60000,-5.96000
,,,-7.87399959564,-1.52000,-5.28000
,,,-7.87360000610,-1.64000,-6.00000
,,,-7.87319993973,-1.52000,-5.76000
,,,-7.87279987335,-1.64000,-5.68000
,,,-7.87239980698,-1.52000,-5.84000
,,,-7.87199974060,-1.52000,-4.72000
,,,-7.87159967422,-1.60000,-5.84000
,,,-7.87119960785,-1.56000,-5.96000
,,,-7.87080001831,-1.60000,-5.80000
,,,-7.87039995193,-1.56000,-5.76000
,,,-7.86999988556,-1.64000,-5.84000
,,,-7.86959981918,-1.60000,-5.80000
,,,-7.86919975281,-1.52000,-4.40000
,,,-7.86879968643,-1.60000,-5.80000
,,,-7.86839962006,-1.52000,-5.68000
,,,-7.86800003052,-1.60000,-5.80000
,,,-7.86759996414,-1.56000,-5.80000
,,,-7.86719989777,-1.60000,-5.88000
,,,-7.86679983139,-1.56000,-5.72000
,,,-7.86639976501,-1.56000,-4.40000
,,,-7.86599969864,-1.60000,-5.68000
,,,-7.86559963226,-1.56000,-5.96000
,,,-7.86519956589,-1.60000,-5.88000
,,,-7.86479997635,-1.56000,-5.76000
,,,-7.86439990997,-1.64000,-5.92000
,,,-7.86399984360,-1.60000,-5.72000
,,,-7.86359977722,-1.60000,-4.44000
,,,-7.86319971085,-1.56000,-5.76000
,,,-7.86279964447,-1.52000,-5.72000
,,,-7.86239957809,-1.60000,-5.80000
,,,-7.86199998856,-1.52000,-5.68000
,,,-7.86159992218,-1.64000,-5.84000
,,,-7.86119985580,-1.56000,-5.68000
,,,-7.86079978943,-1.60000,-4.76000
,,,-7.86039972305,-1.56000,-5.72000
,,,-7.85999965668,-1.52000,-5.56000
,,,-7.85959959030,-1.60000,-5.76000
,,,-7.85920000076,-1.52000,-5.60000
,,,-7.85879993439,-1.60000,-5.68000
,,,-7.85839986801,-1.52000,-5.80000
,,,-7.85799980164,-1.64000,-5.16000
,,,-7.85759973526,-1.56000,-5.84000
,,,-7.85719966888,-1.44000,-5.16000
,,,-7.85679960251,-1.60000,-5.60000
,,,-7.85640001297,-1.52000,-5.64000
,,,-7.85599994659,-1.60000,-5.76000
,,,-7.85559988022,-1.52000,-5.64000
,,,-7.85519981384,-1.60000,-5.64000
,,,-7.85479974747,-1.56000,-5.60000
,,,-7.85439968109,-1.48000,-4.64000
,,,-7.85399961472,-1.56000,-5.76000
,,,-7.85360002518,-1.52000,-5.56000
,,,-7.85319995880,-1.60000,-5.76000
,,,-7.85279989243,-1.52000,-5.72000
,,,-7.85239982605,-1.60000,-5.76000
,,,-7.85199975967,-1.56000,-5.76000
,,,-7.85159969330,-1.52000,-4.36000
,,,-7.85119962692,-1.60000,-5.80000
,,,-7.85080003738,-1.52000,-5.64000
,,,-7.85039997101,-1.60000,-6.00000
,,,-7.84999990463,-1.52000,-5.72000
,,,-7.84959983826,-1.60000,-5.80000
,,,-7.84919977188,-1.52000,-5.84000
,,,-7.84879970551,-1.52000,-4.00000
,,,-7.84839963913,-1.56000,-5.92000
,,,-7.84799957275,-1.52000,-5.76000
,,,-7.84759998322,-1.60000,-5.76000
,,,-7.84719991684,-1.48000,-5.76000
,,,-7.84679985046,-1.60000,-5.76000
,,,-7.84639978409,-1.52000,-5.64000
,,,-7.84599971771,-1.52000,-4.32000
,,,-7.84559965134,-1.52000,-5.72000
,,,-7.84519958496,-1.48000,-5.68000
,,,-7.84479999542,-1.56000,-5.72000
,,,-7.84439992905,-1.52000,-5.60000
,,,-7.84399986267,-1.60000,-5.80000
,,,-7.84359979630,-1.52000,-5.60000
,,,-7.84319972992,-1.56000,-4.64000
,,,-7.84279966354,-1.52000,-5.72000
,,,-7.84239959717,-1.44000,-5.36000
,,,-7.84200000763,-1.56000,-5.76000
,,,-7.84159994125,-1.48000,-5.48000
,,,-7.84119987488,-1.56000,-5.92000
,,,-7.84079980850,-1.52000,-5.44000
,,,-7.84039974213,-1.60000,-5.16000
,,,-7.83999967575,-1.52000,-5.72000
,,,-7.83959960938,-1.44000,-4.84000
,,,-7.83920001984,-1.52000,-5.80000
,,,-7.83879995346,-1.48000,-5.40000
,,,-7.83839988708,-1.60000,-5.80000
,,,-7.83799982071,-1.48000,-5.68000
,,,-7.83759975433,-1.56000,-5.48000
,,,-7.83719968796,-1.52000,-5.72000
,,,-7.83679962158,-1.44000,-4.52000
,,,-7.83640003204,-1.56000,-5.72000
,,,-7.83599996567,-1.48000,-5.56000
,,,-7.83559989929,-1.56000,-5.72000
,,,-7.83519983292,-1.48000,-5.72000
,,,-7.83479976654,-1.60000,-5.72000
,,,-7.83439970016,-1.52000,-5.68000
,,,-7.83399963379,-1.48000,-4.36000
,,,-7.83359956741,-1.52000,-5.56000
,,,-7.83319997787,-1.44000,-5.72000
,,,-7.83279991150,-1.56000,-5.60000
,,,-7.83239984512,-1.48000,-5.84000
,,,-7.83199977875,-1.60000,-5.72000
,,,-7.83159971237,-1.52000,-5.60000
,,,-7.83119964600,-1.48000,-4.28000
,,,-7.83079957962,-1.56000,-5.64000
,,,-7.83039999008,-1.44000,-5.72000
,,,-7.82999992371,-1.52000,-5.68000
,,,-7.82959985733,-1.48000,-5.60000
,,,-7.82919979095,-1.56000,-5.76000
,,,-7.82879972458,-1.48000,-5.64000
,,,-7.82839965820,-1.52000,-4.24000
,,,-7.82799959183,-1.52000,-5.68000
,,,-7.82760000229,-1.44000,-5.40000
,,,-7.82719993591,-1.56000,-5.72000
,,,-7.82679986954,-1.44000,-5.48000
,,,-7.82639980316,-1.56000,-5.76000
,,,-7.82599973679,-1.48000,-5.60000
,,,-7.82559967041,-1.52000,-4.44000
,,,-7.82519960403,-1.52000,-5.84000
,,,-7.82480001450,-1.44000,-4.80000
,,,-7.82439994812,-1.52000,-5.84000
,,,-7.82399988174,-1.44000,-5.44000
,,,-7.82359981537,-1.56000,-5.60000
,,,-7.82319974899,-1.44000,-5.76000
,,,-7.82279968262,-1.52000,-4.80000
,,,-7.82239961624,-1.52000,-5.72000
,,,-7.82200002670,-1.40000,-4.72000
,,,-7.82159996033,-1.52000,-5.68000
,,,-7.82119989395,-1.44000,-5.60000
,,,-7.82079982758,-1.52000,-5.72000
,,,-7.82039976120,-1.44000,-5.64000
,,,-7.81999969482,-1.56000,-5.36000
,,,-7.81959962845,-1.48000,-5.68000
,,,-7.81920003891,-1.44000,-4.44000
,,,-7.81879997253,-1.52000,-5.68000
,,,-7.81839990616,-1.44000,-5.64000
,,,-7.81799983978,-1.52000,-5.72000
,,,-7.81759977341,-1.44000,-5.64000
,,,-7.81719970703,-1.60000,-5.76000
,,,-7.81679964066,-1.48000,-5.20000
,,,-7.81639957428,-1.44000,-4.36000
,,,-7.81599998474,-1.48000,-5.68000
,,,-7.81559991837,-1.40000,-5.52000
,,,-7.81519985199,-1.52000,-5.84000
,,,-7.81479978561,-1.44000,-5.48000
,,,-7.81439971924,-1.56000,-5.76000
,,,-7.81399965286,-1.44000,-5.56000
,,,-7.81359958649,-1.44000,-4.08000
,,,-7.81319999695,-1.48000,-5.64000
,,,-7.81279993057,-1.44000,-5.56000
,,,-7.81239986420,-1.52000,-5.68000
,,,-7.81199979782,-1.44000,-5.52000
,,,-7.81159973145,-1.52000,-5.72000
,,,-7.81119966507,-1.44000,-5.60000
,,,-7.81079959869,-1.48000,-4.16000
,,,-7.81040000916,-1.48000,-5.64000
,,,-7.80999994278,-1.36000,-5.20000
,,,-7.80959987640,-1.52000,-5.64000
,,,-7.80919981003,-1.44000,-5.44000
,,,-7.80879974365,-1.52000,-5.60000
,,,-7.80839967728,-1.44000,-5.48000
,,,-7.80799961090,-1.48000,-4.40000
,,,-7.80760002136,-1.52000,-5.56000
,,,-7.80719995499,-1.36000,-4.88000
,,,-7.80679988861,-1.48000,-5.56000
,,,-7.80639982224,-1.44000,-5.40000
,,,-7.80599975586,-1.52000,-5.64000
,,,-7.80559968948,-1.44000,-5.56000
,,,-7.80519962311,-1.52000,-4.68000
,,,-7.80480003357,-1.44000,-5.52000
,,,-7.80439996719,-1.36000,-4.52000
,,,-7.80399990082,-1.48000,-5.64000
,,,-7.80359983444,-1.44000,-5.48000
,,,-7.80319976807,-1.48000,-5.68000
,,,-7.80279970169,-1.44000,-5.64000
,,,-7.80239963531,-1.52000,-5.16000
,,,-7.80199956894,-1.44000,-5.64000
,,,-7.80159997940,-1.40000,-4.36000
,,,-7.80119991302,-1.48000,-5.64000
,,,-7.80079984665,-1.40000,-5.64000
,,,-7.80039978027,-1.52000,-5.52000
,,,-7.79999971390,-1.40000,-5.64000
,,,-7.79959964752,-1.48000,-5.48000
,,,-7.79919958115,-1.44000,-5.64000
,,,-7.79879999161,-1.44000,-4.28000
,,,-7.79839992523,-1.48000,-5.56000
,,,-7.79799985886,-1.40000,-5.68000
,,,-7.79759979248,-1.52000,-5.60000
,,,-7.79719972610,-1.36000,-5.52000
,,,-7.79679965973,-1.52000,-5.64000
,,,-7.79639959335,-1.44000,-5.56000
,,,-7.79600000381,-1.44000,-4.28000
,,,-7.79559993744,-1.44000,-5.60000
,,,-7.79519987106,-1.32000,-5.36000
,,,-7.79479980469,-1.48000,-5.64000
,,,-7.79439973831,-1.40000,-5.36000
,,,-7.79399967194,-1.52000,-5.68000
,,,-7.79359960556,-1.44000,-5.52000
,,,-7.79320001602,-1.44000,-4.12000
,,,-7.79279994965,-1.48000,-5.60000
,,,-7.79239988327,-1.36000,-4.88000
,,,-7.79199981689,-1.48000,-5.84000
,,,-7.79159975052,-1.40000,-5.12000
,,,-7.79119968414,-1.48000,-5.72000
,,,-7.79079961777,-1.44000,-5.56000
,,,-7.79040002823,-1.48000,-4.16000
,,,-7.78999996185,-1.44000,-5.76000
,,,-7.78959989548,-1.32000,-4.36000
,,,-7.78919982910,-1.48000,-5.64000
,,,-7.78879976273,-1.40000,-5.40000
,,,-7.78839969635,-1.48000,-5.60000
,,,-7.78799962997,-1.40000,-5.60000
,,,-7.78760004044,-1.48000,-4.44000
,,,-7.78719997406,-1.44000,-5.56000
,,,-7.78679990768,-1.40000,-4.36000
,,,-7.78639984131,-1.44000,-5.56000
,,,-7.78599977493,-1.36000,-5.52000
,,,-7.78559970856,-1.48000,-5.64000
,,,-7.78519964218,-1.40000,-5.60000
,,,-7.78479957581,-1.52000,-5.00000
,,,-7.78439998627,-1.44000,-5.52000
,,,-7.78399991989,-1.36000,-4.36000
,,,-7.78359985352,-1.44000,-5.36000
,,,-7.78319978714,-1.36000,-5.56000
,,,-7.78279972076,-1.48000,-5.60000
,,,-7.78239965439,-1.36000,-5.44000
,,,-7.78199958801,-1.52000,-5.52000
