Oscope_Logs/testdata_20210930/BK000009.CSV

Record Length,40000,,Source,CH1,CH2
Sample Interval,CH1:0.0003999999899 CH2:0.0003999999899,,Second,Volt,Volt
Vertical Units,CH1:V CH2:V,,-8.00000000000,-1.08000,0.00
Vertical Scale,CH1:1.00 CH2:1.00,,-7.99959993362,-1.00000,0.04000
Vertical Offset,CH1:0.00 CH2:1.00000,,-7.99919986725,-1.12000,0.04000
Horizontal Units,s,,-7.99879980087,-0.96000,0.04000
Horizontal Scale,1.0000000000,,-7.99839973450,-1.16000,0.04000
Model Number,2190E,,-7.99799966812,-1.04000,-0.04000
Serial Number,512C18110,,-7.99759960175,-1.08000,0.00
Software Version,6.01.01.19,,-7.99720001221,-1.08000,0.04000
,,,-7.99679994583,-1.04000,0.04000
,,,-7.99639987946,-1.08000,0.04000
,,,-7.99599981308,-0.96000,0.04000
,,,-7.99559974670,-1.16000,0.04000
,,,-7.99519968033,-0.96000,0.04000
,,,-7.99479961395,-1.12000,0.04000
,,,-7.99440002441,-1.04000,0.04000
,,,-7.99399995804,-1.04000,0.04000
,,,-7.99359989166,-1.08000,0.04000
,,,-7.99319982529,-0.96000,0.04000
,,,-7.99279975891,-1.12000,0.00
,,,-7.99239969254,-0.96000,0.04000
,,,-7.99199962616,-1.12000,0.00
,,,-7.99159955978,-1.04000,0.04000
,,,-7.99119997025,-1.04000,0.04000
,,,-7.99079990387,-1.08000,0.04000
,,,-7.99039983749,-0.96000,0.04000
,,,-7.98999977112,-1.12000,0.04000
,,,-7.98959970474,-0.96000,0.04000
,,,-7.98919963837,-1.12000,0.04000
,,,-7.98879957199,-1.04000,0.00
,,,-7.98839998245,-1.08000,0.04000
,,,-7.98799991608,-1.08000,0.04000
,,,-7.98759984970,-0.96000,0.00
,,,-7.98719978333,-1.08000,0.00
,,,-7.98679971695,-0.96000,0.00
,,,-7.98639965057,-1.12000,0.04000
,,,-7.98599958420,-1.00000,0.04000
,,,-7.98559999466,-1.08000,0.00
,,,-7.98519992828,-1.04000,0.04000
,,,-7.98479986191,-0.96000,0.04000
,,,-7.98439979553,-1.08000,0.04000
,,,-7.98399972916,-0.96000,0.04000
,,,-7.98359966278,-1.12000,0.04000
,,,-7.98319959641,-0.96000,0.04000
,,,-7.98280000687,-1.08000,0.00
,,,-7.98239994049,-1.00000,0.04000
,,,-7.98199987411,-0.96000,0.04000
,,,-7.98159980774,-1.08000,0.04000
,,,-7.98119974136,-0.92000,0.04000
,,,-7.98079967499,-1.12000,0.04000
,,,-7.98039960861,-0.96000,0.04000
,,,-7.98000001907,-1.08000,0.04000
,,,-7.97959995270,-1.00000,0.00
,,,-7.97919988632,-0.96000,0.04000
,,,-7.97879981995,-1.08000,0.04000
,,,-7.97839975357,-0.92000,0.04000
,,,-7.97799968719,-1.12000,0.04000
,,,-7.97759962082,-0.96000,0.04000
,,,-7.97720003128,-1.08000,0.04000
,,,-7.97679996490,-1.00000,0.04000
,,,-7.97639989853,-0.96000,0.04000
,,,-7.97599983215,-1.08000,0.04000
,,,-7.97559976578,-0.96000,0.00
,,,-7.97519969940,-1.08000,0.04000
,,,-7.97479963303,-0.96000,0.00
,,,-7.97439956665,-1.08000,0.00
,,,-7.97399997711,-1.00000,0.04000
,,,-7.97359991074,-1.00000,0.04000
,,,-7.97319984436,-1.08000,0.04000
,,,-7.97279977798,-0.92000,0.04000
,,,-7.97239971161,-1.08000,0.04000
,,,-7.97199964523,-0.92000,0.04000
,,,-7.97159957886,-1.08000,0.04000
,,,-7.97119998932,-1.00000,0.04000
,,,-7.97079992294,-1.04000,0.04000
,,,-7.97039985657,-1.04000,0.04000
,,,-7.96999979019,-0.92000,0.04000
,,,-7.96959972382,-1.12000,0.04000
,,,-7.96919965744,-0.92000,0.04000
,,,-7.96879959106,-1.08000,0.04000
,,,-7.96840000153,-0.96000,0.04000
,,,-7.96799993515,-1.00000,0.04000
,,,-7.96759986877,-1.00000,0.04000
,,,-7.96719980240,-0.92000,0.04000
,,,-7.96679973602,-1.04000,0.04000
,,,-7.96639966965,-0.92000,0.04000
,,,-7.96599960327,-1.08000,0.00
,,,-7.96560001373,-0.96000,0.00
,,,-7.96519994736,-1.00000,0.08000
,,,-7.96479988098,-1.04000,0.04000
,,,-7.96439981461,-0.96000,0.00
,,,-7.96399974823,-1.08000,0.04000
,,,-7.96359968185,-0.92000,0.00
,,,-7.96319961548,-1.12000,0.04000
,,,-7.96280002594,-0.96000,0.04000
,,,-7.96239995956,-1.04000,0.04000
,,,-7.96199989319,-1.00000,0.04000
,,,-7.96159982681,-0.96000,0.00
,,,-7.96119976044,-1.08000,0.04000
,,,-7.96079969406,-0.92000,0.04000
,,,-7.96039962769,-1.12000,0.00
,,,-7.95999956131,-0.92000,0.00
,,,-7.95959997177,-1.04000,0.04000
,,,-7.95919990540,-0.96000,0.04000
,,,-7.95879983902,-0.96000,0.04000
,,,-7.95839977264,-1.00000,0.00
,,,-7.95799970627,-0.92000,0.00
,,,-7.95759963989,-1.08000,0.00
,,,-7.95719957352,-0.92000,0.00
,,,-7.95679998398,-1.08000,0.04000
,,,-7.95639991760,-0.96000,0.04000
,,,-7.95599985123,-1.00000,0.04000
,,,-7.95559978485,-1.00000,0.00
,,,-7.95519971848,-0.92000,0.04000
,,,-7.95479965210,-1.08000,0.04000
,,,-7.95439958572,-0.88000,0.04000
,,,-7.95399999619,-1.08000,0.04000
,,,-7.95359992981,-0.96000,0.04000
,,,-7.95319986343,-1.00000,0.00
,,,-7.95279979706,-1.00000,0.00
,,,-7.95239973068,-0.92000,0.04000
,,,-7.95199966431,-1.08000,0.04000
,,,-7.95159959793,-0.92000,0.04000
,,,-7.95120000839,-1.08000,0.04000
,,,-7.95079994202,-0.92000,0.04000
,,,-7.95039987564,-1.00000,0.04000
,,,-7.94999980927,-0.96000,0.00
,,,-7.94959974289,-0.92000,0.04000
,,,-7.94919967651,-1.08000,0.04000
,,,-7.94879961014,-0.88000,0.04000
,,,-7.94840002060,-1.08000,0.04000
,,,-7.94799995422,-0.92000,0.04000
,,,-7.94759988785,-1.00000,0.00
,,,-7.94719982147,-0.96000,0.04000
,,,-7.94679975510,-0.92000,0.04000
,,,-7.94639968872,-1.04000,0.04000
,,,-7.94599962234,-0.88000,0.04000
,,,-7.94560003281,-1.04000,0.04000
,,,-7.94519996643,-0.92000,0.04000
,,,-7.94479990005,-1.00000,0.04000
,,,-7.94439983368,-0.96000,0.04000
,,,-7.94399976730,-0.96000,0.04000
,,,-7.94359970093,-1.00000,0.04000
,,,-7.94319963455,-0.88000,0.04000
,,,-7.94279956818,-1.08000,0.04000
,,,-7.94239997864,-0.92000,0.04000
,,,-7.94199991226,-1.00000,0.00
,,,-7.94159984589,-0.96000,0.04000
,,,-7.94119977951,-0.92000,0.04000
,,,-7.94079971313,-1.00000,0.00
,,,-7.94039964676,-0.92000,0.04000
,,,-7.93999958038,-1.08000,0.00
,,,-7.93959999084,-0.92000,0.04000
,,,-7.93919992447,-1.00000,0.04000
,,,-7.93879985809,-0.92000,0.04000
,,,-7.93839979172,-0.96000,0.04000
,,,-7.93799972534,-1.00000,0.04000
,,,-7.93759965897,-0.88000,0.04000
,,,-7.93719959259,-1.04000,0.00
,,,-7.93680000305,-0.84000,0.04000
,,,-7.93639993668,-1.04000,0.00
,,,-7.93599987030,-0.92000,0.04000
,,,-7.93559980392,-0.96000,0.04000
,,,-7.93519973755,-0.96000,0.04000
,,,-7.93479967117,-0.92000,0.04000
,,,-7.93439960480,-1.00000,0.04000
,,,-7.93400001526,-0.84000,0.04000
,,,-7.93359994888,-1.00000,0.04000
,,,-7.93319988251,-0.92000,0.04000
,,,-7.93279981613,-1.00000,0.04000
,,,-7.93239974976,-0.92000,0.04000
,,,-7.93199968338,-0.92000,0.04000
,,,-7.93159961700,-1.00000,0.04000
,,,-7.93120002747,-0.84000,0.04000
,,,-7.93079996109,-1.08000,0.04000
,,,-7.93039989471,-0.92000,0.04000
,,,-7.92999982834,-1.00000,0.04000
,,,-7.92959976196,-0.96000,0.04000
,,,-7.92919969559,-0.92000,0.04000
,,,-7.92879962921,-1.00000,0.00
,,,-7.92839956284,-0.84000,0.04000
,,,-7.92799997330,-1.04000,0.04000
,,,-7.92759990692,-0.88000,0.04000
,,,-7.92719984055,-0.96000,0.04000
,,,-7.92679977417,-0.96000,0.04000
,,,-7.92639970779,-0.92000,0.00
,,,-7.92599964142,-1.00000,0.00
,,,-7.92559957504,-0.84000,0.04000
,,,-7.92519998550,-1.04000,0.04000
,,,-7.92479991913,-0.88000,0.04000
,,,-7.92439985275,-0.96000,0.04000
,,,-7.92399978638,-0.96000,0.04000
,,,-7.92359972000,-0.92000,0.04000
,,,-7.92319965363,-0.96000,0.04000
,,,-7.92279958725,-0.84000,0.04000
,,,-7.92239999771,-1.00000,0.04000
,,,-7.92199993134,-0.84000,0.00
,,,-7.92159986496,-1.00000,0.00
,,,-7.92119979858,-0.92000,0.00
,,,-7.92079973221,-0.88000,0.00
,,,-7.92039966583,-0.96000,0.04000
,,,-7.91999959946,-0.84000,0.04000
,,,-7.91960000992,-1.00000,0.00
,,,-7.91919994354,-0.84000,0.04000
,,,-7.91879987717,-1.00000,0.04000
,,,-7.91839981079,-0.92000,0.00
,,,-7.91799974442,-0.92000,0.00
,,,-7.91759967804,-0.96000,0.04000
,,,-7.91719961166,-0.88000,0.04000
,,,-7.91680002213,-1.00000,0.04000
,,,-7.91639995575,-0.84000,0.04000
,,,-7.91599988937,-1.00000,0.04000
,,,-7.91559982300,-0.88000,0.04000
,,,-7.91519975662,-0.92000,0.04000
,,,-7.91479969025,-0.92000,0.04000
,,,-7.91439962387,-0.88000,0.04000
,,,-7.91400003433,-1.00000,0.00
,,,-7.91359996796,-0.80000,0.04000
,,,-7.91319990158,-1.04000,0.00
,,,-7.91279983521,-0.84000,0.04000
,,,-7.91239976883,-0.96000,0.04000
,,,-7.91199970245,-0.92000,0.04000
,,,-7.91159963608,-0.88000,0.04000
,,,-7.91119956970,-0.96000,0.04000
,,,-7.91079998016,-0.80000,0.04000
,,,-7.91039991379,-1.00000,0.04000
,,,-7.90999984741,-0.84000,0.04000
,,,-7.90959978104,-0.92000,0.04000
,,,-7.90919971466,-0.92000,0.04000
,,,-7.90879964828,-0.92000,0.04000
,,,-7.90839958191,-0.96000,0.04000
,,,-7.90799999237,-0.80000,0.04000
,,,-7.90759992599,-1.00000,0.00
,,,-7.90719985962,-0.84000,0.04000
,,,-7.90679979324,-0.96000,0.04000
,,,-7.90639972687,-0.88000,0.04000
,,,-7.90599966049,-0.92000,0.00
,,,-7.90559959412,-0.92000,0.04000
,,,-7.90520000458,-0.80000,0.04000
,,,-7.90479993820,-1.00000,0.04000
,,,-7.90439987183,-0.84000,0.04000
,,,-7.90399980545,-0.96000,0.00
,,,-7.90359973907,-0.92000,0.04000
,,,-7.90319967270,-0.92000,0.04000
,,,-7.90279960632,-0.92000,0.00
,,,-7.90240001678,-0.84000,0.04000
,,,-7.90199995041,-0.96000,0.00
,,,-7.90159988403,-0.92000,0.04000
,,,-7.90119981766,-0.92000,0.04000
,,,-7.90079975128,-0.92000,0.00
,,,-7.90039968491,-0.84000,0.04000
,,,-7.89999961853,-1.00000,0.04000
,,,-7.89960002899,-0.80000,0.04000
,,,-7.89919996262,-0.96000,0.04000
,,,-7.89879989624,-0.84000,0.04000
,,,-7.89839982986,-0.92000,0.04000
,,,-7.89799976349,-0.92000,0.04000
,,,-7.89759969711,-0.80000,0.04000
,,,-7.89719963074,-0.96000,0.04000
,,,-7.89679956436,-0.80000,0.04000
,,,-7.89639997482,-0.96000,0.04000
,,,-7.89599990845,-0.84000,0.04000
,,,-7.89559984207,-0.92000,0.04000
,,,-7.89519977570,-0.92000,0.00
,,,-7.89479970932,-0.84000,0.04000
,,,-7.89439964294,-0.96000,0.04000
,,,-7.89399957657,-0.76000,0.04000
,,,-7.89359998703,-0.96000,0.04000
,,,-7.89319992065,-0.84000,0.04000
,,,-7.89279985428,-0.92000,0.04000
,,,-7.89239978790,-0.92000,0.04000
,,,-7.89199972153,-0.84000,0.04000
,,,-7.89159965515,-0.96000,0.04000
,,,-7.89119958878,-0.76000,0.04000
,,,-7.89079999924,-0.96000,0.04000
,,,-7.89039993286,-0.84000,0.00
,,,-7.88999986649,-0.92000,0.04000
,,,-7.88959980011,-0.84000,0.04000
,,,-7.88919973373,-0.84000,0.04000
,,,-7.88879966736,-0.92000,0.04000
,,,-7.88839960098,-0.80000,0.00
,,,-7.88800001144,-0.96000,0.08000
,,,-7.88759994507,-0.80000,0.04000
,,,-7.88719987869,-0.92000,0.00
,,,-7.88679981232,-0.84000,0.00
,,,-7.88639974594,-0.88000,0.00
,,,-7.88599967957,-0.92000,0.04000
,,,-7.88559961319,-0.80000,0.00
,,,-7.88520002365,-1.00000,0.04000
,,,-7.88479995728,-0.80000,0.04000
,,,-7.88439989090,-0.96000,0.00
,,,-7.88399982452,-0.84000,0.04000
,,,-7.88359975815,-0.88000,0.04000
,,,-7.88319969177,-0.92000,0.04000
,,,-7.88279962540,-0.80000,0.00
,,,-7.88240003586,-0.96000,0.04000
,,,-7.88199996948,-0.80000,0.04000
,,,-7.88159990311,-0.92000,0.04000
,,,-7.88119983673,-0.88000,0.00
,,,-7.88079977036,-0.88000,0.04000
,,,-7.88039970398,-0.92000,0.00
,,,-7.87999963760,-0.80000,0.04000
,,,-7.87959957123,-0.96000,0.00
,,,-7.87919998169,-0.76000,0.04000
,,,-7.87879991531,-0.96000,0.04000
,,,-7.87839984894,-0.84000,0.04000
,,,-7.87799978256,-0.88000,0.04000
,,,-7.87759971619,-0.88000,0.04000
,,,-7.87719964981,-0.80000,0.04000
,,,-7.87679958344,-0.92000,0.04000
,,,-7.87639999390,-0.76000,0.04000
,,,-7.87599992752,-0.96000,0.00
,,,-7.87559986115,-0.80000,0.04000
,,,-7.87519979477,-0.88000,0.04000
,,,-7.87479972839,-0.84000,0.04000
,,,-7.87439966202,-0.84000,0.00
,,,-7.87399959564,-0.92000,0.04000
,,,-7.87360000610,-0.76000,0.04000
,,,-7.87319993973,-0.96000,0.04000
,,,-7.87279987335,-0.80000,0.00
,,,-7.87239980698,-0.92000,0.04000
,,,-7.87199974060,-0.84000,0.04000
,,,-7.87159967422,-0.80000,0.04000
,,,-7.87119960785,-0.88000,0.04000
,,,-7.87080001831,-0.76000,0.08000
,,,-7.87039995193,-0.92000,0.04000
,,,-7.86999988556,-0.80000,0.04000
,,,-7.86959981918,-0.92000,0.00
,,,-7.86919975281,-0.84000,0.04000
,,,-7.86879968643,-0.84000,0.04000
,,,-7.86839962006,-0.88000,0.04000
,,,-7.86800003052,-0.76000,0.04000
,,,-7.86759996414,-0.92000,0.04000
,,,-7.86719989777,-0.76000,0.04000
,,,-7.86679983139,-0.92000,0.04000
,,,-7.86639976501,-0.80000,0.00
,,,-7.86599969864,-0.84000,0.00
,,,-7.86559963226,-0.88000,0.04000
,,,-7.86519956589,-0.76000,0.04000
,,,-7.86479997635,-0.92000,0.00
,,,-7.86439990997,-0.76000,0.04000
,,,-7.86399984360,-0.92000,0.04000
,,,-7.86359977722,-0.80000,0.00
,,,-7.86319971085,-0.84000,0.00
,,,-7.86279964447,-0.84000,0.04000
,,,-7.86239957809,-0.80000,0.04000
,,,-7.86199998856,-0.92000,0.04000
,,,-7.86159992218,-0.76000,0.04000
,,,-7.86119985580,-0.92000,0.04000
,,,-7.86079978943,-0.80000,0.00
,,,-7.86039972305,-0.84000,0.00
,,,-7.85999965668,-0.84000,0.04000
,,,-7.85959959030,-0.80000,0.04000
,,,-7.85920000076,-0.92000,0.04000
,,,-7.85879993439,-0.72000,0.04000
,,,-7.85839986801,-0.96000,0.00
,,,-7.85799980164,-0.76000,0.04000
,,,-7.85759973526,-0.84000,0.04000
,,,-7.85719966888,-0.84000,0.04000
,,,-7.85679960251,-0.80000,0.04000
,,,-7.85640001297,-0.92000,0.04000
,,,-7.85599994659,-0.72000,0.00
,,,-7.85559988022,-0.92000,0.04000
,,,-7.85519981384,-0.72000,0.00
,,,-7.85479974747,-0.84000,0.04000
,,,-7.85439968109,-0.84000,0.04000
,,,-7.85399961472,-0.80000,0.04000
,,,-7.85360002518,-0.92000,0.04000
,,,-7.85319995880,-0.76000,0.04000
,,,-7.85279989243,-0.92000,0.04000
,,,-7.85239982605,-0.76000,0.00
,,,-7.85199975967,-0.88000,0.04000
,,,-7.85159969330,-0.80000,0.04000
,,,-7.85119962692,-0.84000,0.04000
,,,-7.85080003738,-0.84000,0.04000
,,,-7.85039997101,-0.76000,0.04000
,,,-7.84999990463,-0.92000,0.04000
,,,-7.84959983826,-0.76000,0.04000
,,,-7.84919977188,-0.92000,0.04000
,,,-7.84879970551,-0.80000,0.04000
,,,-7.84839963913,-0.80000,0.04000
,,,-7.84799957275,-0.84000,0.04000
,,,-7.84759998322,-0.76000,0.04000
,,,-7.84719991684,-0.92000,0.04000
,,,-7.84679985046,-0.72000,0.00
,,,-7.84639978409,-0.92000,0.04000
,,,-7.84599971771,-0.80000,0.04000
,,,-7.84559965134,-0.84000,0.04000
,,,-7.84519958496,-0.84000,0.00
,,,-7.84479999542,-0.76000,0.04000
,,,-7.84439992905,-0.88000,0.00
,,,-7.84399986267,-0.68000,0.04000
,,,-7.84359979630,-0.92000,0.04000
,,,-7.84319972992,-0.76000,0.04000
,,,-7.84279966354,-0.84000,0.04000
,,,-7.84239959717,-0.80000,0.04000
,,,-7.84200000763,-0.76000,0.04000
,,,-7.84159994125,-0.88000,0.04000
,,,-7.84119987488,-0.68000,0.04000
,,,-7.84079980850,-0.92000,0.04000
,,,-7.84039974213,-0.76000,0.00
,,,-7.83999967575,-0.84000,0.04000
,,,-7.83959960938,-0.80000,0.04000
,,,-7.83920001984,-0.76000,0.04000
,,,-7.83879995346,-0.84000,0.04000
,,,-7.83839988708,-0.68000,0.04000
,,,-7.83799982071,-0.88000,0.04000
,,,-7.83759975433,-0.76000,0.04000
,,,-7.83719968796,-0.84000,0.04000
,,,-7.83679962158,-0.76000,0.04000
,,,-7.83640003204,-0.76000,0.04000
,,,-7.83599996567,-0.84000,0.04000
,,,-7.83559989929,-0.68000,0.04000
,,,-7.83519983292,-0.92000,0.00
,,,-7.83479976654,-0.68000,0.04000
,,,-7.83439970016,-0.84000,0.04000
,,,-7.83399963379,-0.76000,0.04000
,,,-7.83359956741,-0.80000,0.04000
,,,-7.83319997787,-0.84000,0.04000
,,,-7.83279991150,-0.68000,0.00
,,,-7.83239984512,-0.92000,0.04000
,,,-7.83199977875,-0.68000,0.00
,,,-7.83159971237,-0.84000,0.00
,,,-7.83119964600,-0.76000,0.04000
,,,-7.83079957962,-0.80000,0.04000
,,,-7.83039999008,-0.80000,0.04000
,,,-7.82999992371,-0.68000,0.04000
,,,-7.82959985733,-0.88000,0.04000
,,,-7.82919979095,-0.68000,0.04000
,,,-7.82879972458,-0.88000,0.04000
,,,-7.82839965820,-0.76000,0.04000
,,,-7.82799959183,-0.80000,0.04000
,,,-7.82760000229,-0.80000,0.00
,,,-7.82719993591,-0.72000,0.04000
,,,-7.82679986954,-0.84000,0.04000
,,,-7.82639980316,-0.68000,0.04000
,,,-7.82599973679,-0.84000,0.00
,,,-7.82559967041,-0.68000,0.04000
,,,-7.82519960403,-0.76000,0.04000
,,,-7.82480001450,-0.76000,0.04000
,,,-7.82439994812,-0.68000,0.04000
,,,-7.82399988174,-0.84000,0.04000
,,,-7.82359981537,-0.68000,0.04000
,,,-7.82319974899,-0.84000,0.04000
,,,-7.82279968262,-0.68000,0.04000
,,,-7.82239961624,-0.80000,0.04000
,,,-7.82200002670,-0.76000,0.04000
,,,-7.82159996033,-0.76000,0.04000
,,,-7.82119989395,-0.84000,0.00
,,,-7.82079982758,-0.68000,0.04000
,,,-7.82039976120,-0.84000,0.00
,,,-7.81999969482,-0.68000,0.00
,,,-7.81959962845,-0.76000,0.04000
,,,-7.81920003891,-0.72000,0.04000
,,,-7.81879997253,-0.76000,0.04000
,,,-7.81839990616,-0.84000,0.04000
,,,-7.81799983978,-0.68000,0.04000
,,,-7.81759977341,-0.84000,0.04000
,,,-7.81719970703,-0.68000,0.00
,,,-7.81679964066,-0.84000,0.04000
,,,-7.81639957428,-0.76000,0.04000
,,,-7.81599998474,-0.72000,0.04000
,,,-7.81559991837,-0.80000,0.04000
,,,-7.81519985199,-0.64000,0.04000
,,,-7.81479978561,-0.84000,0.00
,,,-7.81439971924,-0.64000,0.04000
,,,-7.81399965286,-0.80000,0.00
,,,-7.81359958649,-0.68000,0.04000
,,,-7.81319999695,-0.72000,0.04000
,,,-7.81279993057,-0.76000,0.00
,,,-7.81239986420,-0.68000,0.04000
,,,-7.81199979782,-0.84000,0.04000
,,,-7.81159973145,-0.64000,0.04000
,,,-7.81119966507,-0.80000,0.04000
,,,-7.81079959869,-0.68000,0.00
,,,-7.81040000916,-0.76000,0.04000
,,,-7.80999994278,-0.76000,0.04000
,,,-7.80959987640,-0.68000,0.00
,,,-7.80919981003,-0.84000,0.04000
,,,-7.80879974365,-0.60000,0.04000
,,,-7.80839967728,-0.84000,0.00
,,,-7.80799961090,-0.68000,0.04000
,,,-7.80760002136,-0.76000,0.00
,,,-7.80719995499,-0.76000,0.04000
,,,-7.80679988861,-0.68000,0.04000
,,,-7.80639982224,-0.80000,0.04000
,,,-7.80599975586,-0.64000,0.04000
,,,-7.80559968948,-0.80000,0.04000
,,,-7.80519962311,-0.68000,0.04000
,,,-7.80480003357,-0.76000,0.04000
,,,-7.80439996719,-0.72000,0.04000
,,,-7.80399990082,-0.68000,0.04000
,,,-7.80359983444,-0.80000,0.04000
,,,-7.80319976807,-0.64000,0.04000
,,,-7.80279970169,-0.84000,0.04000
,,,-7.80239963531,-0.64000,0.04000
,,,-7.80199956894,-0.76000,0.04000
,,,-7.80159997940,-0.72000,0.04000
,,,-7.80119991302,-0.68000,0.04000
,,,-7.80079984665,-0.76000,0.04000
,,,-7.80039978027,-0.64000,0.04000
,,,-7.79999971390,-0.84000,0.00
,,,-7.79959964752,-0.60000,0.04000
,,,-7.79919958115,-0.80000,0.04000
,,,-7.79879999161,-0.68000,0.04000
,,,-7.79839992523,-0.68000,0.04000
,,,-7.79799985886,-0.80000,0.04000
,,,-7.79759979248,-0.64000,0.04000
,,,-7.79719972610,-0.80000,0.04000
,,,-7.79679965973,-0.64000,0.04000
,,,-7.79639959335,-0.80000,0.04000
,,,-7.79600000381,-0.68000,0.00
,,,-7.79559993744,-0.76000,0.04000
,,,-7.79519987106,-0.76000,0.04000
,,,-7.79479980469,-0.64000,0.04000
,,,-7.79439973831,-0.80000,0.04000
,,,-7.79399967194,-0.64000,0.00
,,,-7.79359960556,-0.76000,0.04000
,,,-7.79320001602,-0.68000,0.04000
,,,-7.79279994965,-0.76000,0.04000
,,,-7.79239988327,-0.76000,0.00
,,,-7.79199981689,-0.64000,0.00
,,,-7.79159975052,-0.80000,0.04000
,,,-7.79119968414,-0.60000,0.00
,,,-7.79079961777,-0.80000,0.04000
,,,-7.79040002823,-0.64000,0.04000
,,,-7.78999996185,-0.72000,0.04000
,,,-7.78959989548,-0.72000,0.04000
,,,-7.78919982910,-0.64000,0.04000
,,,-7.78879976273,-0.76000,0.04000
,,,-7.78839969635,-0.60000,0.04000
,,,-7.78799962997,-0.80000,0.04000
,,,-7.78760004044,-0.60000,0.04000
,,,-7.78719997406,-0.72000,0.04000
,,,-7.78679990768,-0.68000,0.04000
,,,-7.78639984131,-0.68000,0.04000
,,,-7.78599977493,-0.80000,0.04000
,,,-7.78559970856,-0.60000,0.04000
,,,-7.78519964218,-0.80000,0.04000
,,,-7.78479957581,-0.60000,0.04000
,,,-7.78439998627,-0.76000,0.04000
,,,-7.78399991989,-0.68000,0.04000
,,,-7.78359985352,-0.64000,0.04000
,,,-7.78319978714,-0.76000,0.04000
,,,-7.78279972076,-0.60000,0.04000
,,,-7.78239965439,-0.80000,0.04000
,,,-7.78199958801,-0.64000,0.04000
,,,-7.78159999847,-0.76000,0.04000
,,,-7.78119993210,-0.68000,0.04000
,,,-7.78079986572,-0.68000,0.04000
,,,-7.78039979935,-0.76000,0.00
,,,-7.77999973297,-0.60000,0.04000
,,,-7.77959966660,-0.80000,0.00
,,,-7.77919960022,-0.60000,0.04000
,,,-7.77880001068,-0.76000,0.04000
,,,-7.77839994431,-0.64000,0.04000
,,,-7.77799987793,-0.68000,0.04000
,,,-7.77759981155,-0.72000,0.04000
,,,-7.77719974518,-0.64000,0.04000
,,,-7.77679967880,-0.80000,0.08000
,,,-7.77639961243,-0.56000,0.04000
,,,-7.77600002289,-0.76000,0.04000
,,,-7.77559995651,-0.64000,0.04000
,,,-7.77519989014,-0.68000,0.00
,,,-7.77479982376,-0.68000,0.04000
,,,-7.77439975739,-0.64000,0.04000
,,,-7.77399969101,-0.76000,0.00
,,,-7.77359962463,-0.60000,0.04000
,,,-7.77320003510,-0.76000,0.04000
,,,-7.77279996872,-0.64000,0.04000
,,,-7.77239990234,-0.68000,0.00
,,,-7.77199983597,-0.68000,0.00
,,,-7.77159976959,-0.64000,0.04000
