Oscope_Logs/testdata_20211005/BK000006.CSV

Record Length,40000,,Source,CH1,CH2
Sample Interval,CH1:0.0003999999899 CH2:0.0003999999899,,Second,Volt,Volt
Vertical Units,CH1:V CH2:V,,-8.00000000000,-0.32000,-3.20000
Vertical Scale,CH1:2.00 CH2:2.00,,-7.99959993362,-0.32000,-3.36000
Vertical Offset,CH1:0.00 CH2:0.00,,-7.99919986725,-0.32000,-3.28000
Horizontal Units,s,,-7.99879980087,-0.32000,-3.36000
Horizontal Scale,1.0000000000,,-7.99839973450,-0.32000,-3.44000
Model Number,2190E,,-7.99799966812,-0.32000,-3.44000
Serial Number,512C18110,,-7.99759960175,-0.32000,-3.36000
Software Version,6.01.01.19,,-7.99720001221,-0.32000,-3.28000
,,,-7.99679994583,-0.32000,-3.44000
,,,-7.99639987946,-0.32000,-3.28000
,,,-7.99599981308,-0.32000,-3.44000
,,,-7.99559974670,-0.32000,-3.44000
,,,-7.99519968033,-0.32000,-3.44000
,,,-7.99479961395,-0.32000,-3.44000
,,,-7.99440002441,-0.40000,-3.28000
,,,-7.99399995804,-0.32000,-3.44000
,,,-7.99359989166,-0.32000,-3.28000
,,,-7.99319982529,-0.32000,-3.44000
,,,-7.99279975891,-0.32000,-3.36000
,,,-7.99239969254,-0.32000,-3.44000
,,,-7.99199962616,-0.32000,-3.44000
,,,-7.99159955978,-0.40000,-3.36000
,,,-7.99119997025,-0.40000,-3.44000
,,,-7.99079990387,-0.40000,-3.28000
,,,-7.99039983749,-0.32000,-3.44000
,,,-7.98999977112,-0.40000,-3.44000
,,,-7.98959970474,-0.40000,-3.44000
,,,-7.98919963837,-0.32000,-3.44000
,,,-7.98879957199,-0.40000,-3.44000
,,,-7.98839998245,-0.32000,-3.44000
,,,-7.98799991608,-0.32000,-3.28000
,,,-7.98759984970,-0.40000,-3.52000
,,,-7.98719978333,-0.32000,-3.44000
,,,-7.98679971695,-0.40000,-3.44000
,,,-7.98639965057,-0.40000,-3.44000
,,,-7.98599958420,-0.32000,-3.52000
,,,-7.98559999466,-0.40000,-3.44000
,,,-7.98519992828,-0.32000,-3.28000
,,,-7.98479986191,-0.40000,-3.44000
,,,-7.98439979553,-0.32000,-3.36000
,,,-7.98399972916,-0.40000,-3.44000
,,,-7.98359966278,-0.32000,-3.44000
,,,-7.98319959641,-0.40000,-3.52000
,,,-7.98280000687,-0.32000,-3.44000
,,,-7.98239994049,-0.40000,-3.28000
,,,-7.98199987411,-0.32000,-3.44000
,,,-7.98159980774,-0.32000,-3.36000
,,,-7.98119974136,-0.40000,-3.44000
,,,-7.98079967499,-0.40000,-3.52000
,,,-7.98039960861,-0.40000,-3.44000
,,,-7.98000001907,-0.40000,-3.52000
,,,-7.97959995270,-0.40000,-3.36000
,,,-7.97919988632,-0.40000,-3.52000
,,,-7.97879981995,-0.40000,-3.36000
,,,-7.97839975357,-0.40000,-3.52000
,,,-7.97799968719,-0.32000,-3.52000
,,,-7.97759962082,-0.40000,-3.52000
,,,-7.97720003128,-0.40000,-3.44000
,,,-7.97679996490,-0.40000,-3.36000
,,,-7.97639989853,-0.40000,-3.52000
,,,-7.97599983215,-0.40000,-3.36000
,,,-7.97559976578,-0.40000,-3.52000
,,,-7.97519969940,-0.32000,-3.52000
,,,-7.97479963303,-0.40000,-3.52000
,,,-7.97439956665,-0.40000,-3.52000
,,,-7.97399997711,-0.40000,-3.44000
,,,-7.97359991074,-0.40000,-3.52000
,,,-7.97319984436,-0.40000,-3.36000
,,,-7.97279977798,-0.32000,-3.52000
,,,-7.97239971161,-0.40000,-3.52000
,,,-7.97199964523,-0.40000,-3.52000
,,,-7.97159957886,-0.40000,-3.52000
,,,-7.97119998932,-0.32000,-3.52000
,,,-7.97079992294,-0.32000,-3.44000
,,,-7.97039985657,-0.40000,-3.36000
,,,-7.96999979019,-0.40000,-3.52000
,,,-7.96959972382,-0.32000,-3.44000
,,,-7.96919965744,-0.40000,-3.52000
,,,-7.96879959106,-0.40000,-3.44000
,,,-7.96840000153,-0.40000,-3.52000
,,,-7.96799993515,-0.40000,-3.52000
,,,-7.96759986877,-0.40000,-3.36000
,,,-7.96719980240,-0.40000,-3.52000
,,,-7.96679973602,-0.40000,-3.44000
,,,-7.96639966965,-0.40000,-3.60000
,,,-7.96599960327,-0.40000,-3.52000
,,,-7.96560001373,-0.40000,-3.52000
,,,-7.96519994736,-0.32000,-3.52000
,,,-7.96479988098,-0.40000,-3.36000
,,,-7.96439981461,-0.40000,-3.52000
,,,-7.96399974823,-0.40000,-3.44000
,,,-7.96359968185,-0.40000,-3.52000
,,,-7.96319961548,-0.40000,-3.60000
,,,-7.96280002594,-0.40000,-3.60000
,,,-7.96239995956,-0.40000,-3.52000
,,,-7.96199989319,-0.40000,-3.44000
,,,-7.96159982681,-0.40000,-3.52000
,,,-7.96119976044,-0.40000,-3.44000
,,,-7.96079969406,-0.40000,-3.60000
,,,-7.96039962769,-0.40000,-3.52000
,,,-7.95999956131,-0.48000,-3.60000
,,,-7.95959997177,-0.40000,-3.52000
,,,-7.95919990540,-0.40000,-3.44000
,,,-7.95879983902,-0.48000,-3.60000
,,,-7.95839977264,-0.40000,-3.36000
,,,-7.95799970627,-0.40000,-3.60000
,,,-7.95759963989,-0.40000,-3.52000
,,,-7.95719957352,-0.40000,-3.60000
,,,-7.95679998398,-0.40000,-3.60000
,,,-7.95639991760,-0.48000,-3.52000
,,,-7.95599985123,-0.40000,-3.52000
,,,-7.95559978485,-0.40000,-3.44000
,,,-7.95519971848,-0.40000,-3.60000
,,,-7.95479965210,-0.40000,-3.52000
,,,-7.95439958572,-0.48000,-3.60000
,,,-7.95399999619,-0.40000,-3.52000
,,,-7.95359992981,-0.40000,-3.60000
,,,-7.95319986343,-0.40000,-3.60000
,,,-7.95279979706,-0.40000,-3.36000
,,,-7.95239973068,-0.40000,-3.60000
,,,-7.95199966431,-0.40000,-3.52000
,,,-7.95159959793,-0.48000,-3.60000
,,,-7.95120000839,-0.40000,-3.60000
,,,-7.95079994202,-0.40000,-3.60000
,,,-7.95039987564,-0.48000,-3.60000
,,,-7.94999980927,-0.40000,-3.44000
,,,-7.94959974289,-0.40000,-3.60000
,,,-7.94919967651,-0.40000,-3.52000
,,,-7.94879961014,-0.48000,-3.60000
,,,-7.94840002060,-0.40000,-3.60000
,,,-7.94799995422,-0.40000,-3.68000
,,,-7.94759988785,-0.40000,-3.60000
,,,-7.94719982147,-0.48000,-3.52000
,,,-7.94679975510,-0.40000,-3.60000
,,,-7.94639968872,-0.48000,-3.44000
,,,-7.94599962234,-0.40000,-3.60000
,,,-7.94560003281,-0.40000,-3.60000
,,,-7.94519996643,-0.48000,-3.60000
,,,-7.94479990005,-0.40000,-3.60000
,,,-7.94439983368,-0.40000,-3.52000
,,,-7.94399976730,-0.40000,-3.60000
,,,-7.94359970093,-0.40000,-3.52000
,,,-7.94319963455,-0.40000,-3.60000
,,,-7.94279956818,-0.40000,-3.60000
,,,-7.94239997864,-0.48000,-3.60000
,,,-7.94199991226,-0.48000,-3.60000
,,,-7.94159984589,-0.48000,-3.60000
,,,-7.94119977951,-0.40000,-3.68000
,,,-7.94079971313,-0.48000,-3.52000
,,,-7.94039964676,-0.40000,-3.60000
,,,-7.93999958038,-0.48000,-3.60000
,,,-7.93959999084,-0.48000,-3.60000
,,,-7.93919992447,-0.48000,-3.60000
,,,-7.93879985809,-0.48000,-3.60000
,,,-7.93839979172,-0.48000,-3.60000
,,,-7.93799972534,-0.48000,-3.44000
,,,-7.93759965897,-0.48000,-3.60000
,,,-7.93719959259,-0.48000,-3.68000
,,,-7.93680000305,-0.48000,-3.68000
,,,-7.93639993668,-0.48000,-3.60000
,,,-7.93599987030,-0.48000,-3.60000
,,,-7.93559980392,-0.48000,-3.68000
,,,-7.93519973755,-0.48000,-3.52000
,,,-7.93479967117,-0.48000,-3.68000
,,,-7.93439960480,-0.48000,-3.60000
,,,-7.93400001526,-0.48000,-3.68000
,,,-7.93359994888,-0.48000,-3.60000
,,,-7.93319988251,-0.56000,-3.60000
,,,-7.93279981613,-0.48000,-3.68000
,,,-7.93239974976,-0.48000,-3.52000
,,,-7.93199968338,-0.48000,-3.68000
,,,-7.93159961700,-0.48000,-3.60000
,,,-7.93120002747,-0.48000,-3.68000
,,,-7.93079996109,-0.48000,-3.68000
,,,-7.93039989471,-0.48000,-3.68000
,,,-7.92999982834,-0.48000,-3.68000
,,,-7.92959976196,-0.56000,-3.52000
,,,-7.92919969559,-0.48000,-3.68000
,,,-7.92879962921,-0.48000,-3.60000
,,,-7.92839956284,-0.48000,-3.68000
,,,-7.92799997330,-0.48000,-3.68000
,,,-7.92759990692,-0.48000,-3.68000
,,,-7.92719984055,-0.48000,-3.68000
,,,-7.92679977417,-0.48000,-3.60000
,,,-7.92639970779,-0.48000,-3.68000
,,,-7.92599964142,-0.40000,-3.52000
,,,-7.92559957504,-0.48000,-3.68000
,,,-7.92519998550,-0.48000,-3.68000
,,,-7.92479991913,-0.56000,-3.68000
,,,-7.92439985275,-0.56000,-3.68000
,,,-7.92399978638,-0.56000,-3.60000
,,,-7.92359972000,-0.48000,-3.68000
,,,-7.92319965363,-0.48000,-3.52000
,,,-7.92279958725,-0.48000,-3.76000
,,,-7.92239999771,-0.48000,-3.68000
,,,-7.92199993134,-0.56000,-3.76000
,,,-7.92159986496,-0.56000,-3.68000
,,,-7.92119979858,-0.56000,-3.68000
,,,-7.92079973221,-0.56000,-3.68000
,,,-7.92039966583,-0.48000,-3.52000
,,,-7.91999959946,-0.56000,-3.68000
,,,-7.91960000992,-0.48000,-3.68000
,,,-7.91919994354,-0.48000,-3.68000
,,,-7.91879987717,-0.56000,-3.68000
,,,-7.91839981079,-0.56000,-3.76000
,,,-7.91799974442,-0.56000,-3.68000
,,,-7.91759967804,-0.48000,-3.52000
,,,-7.91719961166,-0.48000,-3.76000
,,,-7.91680002213,-0.56000,-3.68000
,,,-7.91639995575,-0.56000,-3.76000
,,,-7.91599988937,-0.56000,-3.68000
,,,-7.91559982300,-0.48000,-3.68000
,,,-7.91519975662,-0.56000,-3.68000
,,,-7.91479969025,-0.56000,-3.52000
,,,-7.91439962387,-0.56000,-3.76000
,,,-7.91400003433,-0.48000,-3.68000
,,,-7.91359996796,-0.56000,-3.76000
,,,-7.91319990158,-0.48000,-3.68000
,,,-7.91279983521,-0.56000,-3.76000
,,,-7.91239976883,-0.56000,-3.76000
,,,-7.91199970245,-0.56000,-3.60000
,,,-7.91159963608,-0.56000,-3.76000
,,,-7.91119956970,-0.48000,-3.68000
,,,-7.91079998016,-0.56000,-3.76000
,,,-7.91039991379,-0.56000,-3.76000
,,,-7.90999984741,-0.56000,-3.76000
,,,-7.90959978104,-0.56000,-3.76000
,,,-7.90919971466,-0.56000,-3.68000
,,,-7.90879964828,-0.56000,-3.76000
,,,-7.90839958191,-0.56000,-3.60000
,,,-7.90799999237,-0.56000,-3.76000
,,,-7.90759992599,-0.56000,-3.76000
,,,-7.90719985962,-0.56000,-3.76000
,,,-7.90679979324,-0.56000,-3.76000
,,,-7.90639972687,-0.56000,-3.76000
,,,-7.90599966049,-0.56000,-3.76000
,,,-7.90559959412,-0.56000,-3.60000
,,,-7.90520000458,-0.56000,-3.76000
,,,-7.90479993820,-0.56000,-3.76000
,,,-7.90439987183,-0.56000,-3.76000
,,,-7.90399980545,-0.56000,-3.76000
,,,-7.90359973907,-0.56000,-3.76000
,,,-7.90319967270,-0.56000,-3.76000
,,,-7.90279960632,-0.56000,-3.60000
,,,-7.90240001678,-0.56000,-3.76000
,,,-7.90199995041,-0.56000,-3.84000
,,,-7.90159988403,-0.56000,-3.76000
,,,-7.90119981766,-0.56000,-3.76000
,,,-7.90079975128,-0.56000,-3.84000
,,,-7.90039968491,-0.56000,-3.76000
,,,-7.89999961853,-0.56000,-3.60000
,,,-7.89960002899,-0.56000,-3.76000
,,,-7.89919996262,-0.56000,-3.76000
,,,-7.89879989624,-0.56000,-3.76000
,,,-7.89839982986,-0.56000,-3.76000
,,,-7.89799976349,-0.56000,-3.84000
,,,-7.89759969711,-0.56000,-3.76000
,,,-7.89719963074,-0.56000,-3.68000
,,,-7.89679956436,-0.56000,-3.76000
,,,-7.89639997482,-0.56000,-3.84000
,,,-7.89599990845,-0.56000,-3.84000
,,,-7.89559984207,-0.56000,-3.76000
,,,-7.89519977570,-0.56000,-3.84000
,,,-7.89479970932,-0.56000,-3.76000
,,,-7.89439964294,-0.56000,-3.68000
,,,-7.89399957657,-0.56000,-3.76000
,,,-7.89359998703,-0.56000,-3.76000
,,,-7.89319992065,-0.56000,-3.76000
,,,-7.89279985428,-0.56000,-3.76000
,,,-7.89239978790,-0.56000,-3.76000
,,,-7.89199972153,-0.56000,-3.84000
,,,-7.89159965515,-0.56000,-3.76000
,,,-7.89119958878,-0.56000,-3.76000
,,,-7.89079999924,-0.56000,-3.68000
,,,-7.89039993286,-0.56000,-3.84000
,,,-7.88999986649,-0.56000,-3.76000
,,,-7.88959980011,-0.56000,-3.84000
,,,-7.88919973373,-0.56000,-3.84000
,,,-7.88879966736,-0.56000,-3.84000
,,,-7.88839960098,-0.56000,-3.84000
,,,-7.88800001144,-0.56000,-3.68000
,,,-7.88759994507,-0.56000,-3.84000
,,,-7.88719987869,-0.56000,-3.84000
,,,-7.88679981232,-0.56000,-3.84000
,,,-7.88639974594,-0.56000,-3.84000
,,,-7.88599967957,-0.56000,-3.84000
,,,-7.88559961319,-0.56000,-3.84000
,,,-7.88520002365,-0.56000,-3.68000
,,,-7.88479995728,-0.56000,-3.84000
,,,-7.88439989090,-0.56000,-3.84000
,,,-7.88399982452,-0.56000,-3.84000
,,,-7.88359975815,-0.56000,-3.84000
,,,-7.88319969177,-0.56000,-3.84000
,,,-7.88279962540,-0.56000,-3.84000
,,,-7.88240003586,-0.56000,-3.60000
,,,-7.88199996948,-0.56000,-3.84000
,,,-7.88159990311,-0.56000,-3.84000
,,,-7.88119983673,-0.56000,-3.84000
,,,-7.88079977036,-0.56000,-3.84000
,,,-7.88039970398,-0.56000,-3.84000
,,,-7.87999963760,-0.56000,-3.84000
,,,-7.87959957123,-0.56000,-3.68000
,,,-7.87919998169,-0.56000,-3.84000
,,,-7.87879991531,-0.56000,-3.84000
,,,-7.87839984894,-0.56000,-3.84000
,,,-7.87799978256,-0.56000,-3.76000
,,,-7.87759971619,-0.56000,-3.84000
,,,-7.87719964981,-0.56000,-3.84000
,,,-7.87679958344,-0.56000,-3.76000
,,,-7.87639999390,-0.56000,-3.84000
,,,-7.87599992752,-0.56000,-3.84000
,,,-7.87559986115,-0.56000,-3.84000
,,,-7.87519979477,-0.64000,-3.84000
,,,-7.87479972839,-0.56000,-3.84000
,,,-7.87439966202,-0.56000,-3.84000
,,,-7.87399959564,-0.56000,-3.84000
,,,-7.87360000610,-0.56000,-3.84000
,,,-7.87319993973,-0.56000,-3.76000
,,,-7.87279987335,-0.64000,-3.84000
,,,-7.87239980698,-0.56000,-3.84000
,,,-7.87199974060,-0.64000,-3.92000
,,,-7.87159967422,-0.56000,-3.84000
,,,-7.87119960785,-0.56000,-3.84000
,,,-7.87080001831,-0.56000,-3.84000
,,,-7.87039995193,-0.56000,-3.76000
,,,-7.86999988556,-0.56000,-3.92000
,,,-7.86959981918,-0.64000,-3.92000
,,,-7.86919975281,-0.56000,-3.92000
,,,-7.86879968643,-0.64000,-3.92000
,,,-7.86839962006,-0.56000,-3.92000
,,,-7.86800003052,-0.56000,-3.92000
,,,-7.86759996414,-0.56000,-3.76000
,,,-7.86719989777,-0.56000,-3.92000
,,,-7.86679983139,-0.64000,-3.92000
,,,-7.86639976501,-0.56000,-3.92000
,,,-7.86599969864,-0.56000,-3.92000
,,,-7.86559963226,-0.64000,-3.92000
,,,-7.86519956589,-0.64000,-3.84000
,,,-7.86479997635,-0.56000,-3.76000
,,,-7.86439990997,-0.56000,-3.92000
,,,-7.86399984360,-0.56000,-3.92000
,,,-7.86359977722,-0.56000,-3.92000
,,,-7.86319971085,-0.64000,-3.92000
,,,-7.86279964447,-0.56000,-3.92000
,,,-7.86239957809,-0.56000,-3.92000
,,,-7.86199998856,-0.56000,-3.76000
,,,-7.86159992218,-0.64000,-3.92000
,,,-7.86119985580,-0.64000,-3.92000
,,,-7.86079978943,-0.64000,-4.00000
,,,-7.86039972305,-0.56000,-3.92000
,,,-7.85999965668,-0.56000,-4.00000
,,,-7.85959959030,-0.56000,-3.92000
,,,-7.85920000076,-0.56000,-3.84000
,,,-7.85879993439,-0.56000,-3.92000
,,,-7.85839986801,-0.56000,-3.92000
,,,-7.85799980164,-0.64000,-3.92000
,,,-7.85759973526,-0.56000,-3.92000
,,,-7.85719966888,-0.64000,-4.00000
,,,-7.85679960251,-0.56000,-3.92000
,,,-7.85640001297,-0.56000,-3.92000
,,,-7.85599994659,-0.64000,-4.00000
,,,-7.85559988022,-0.56000,-3.84000
,,,-7.85519981384,-0.64000,-3.92000
,,,-7.85479974747,-0.56000,-3.92000
,,,-7.85439968109,-0.56000,-3.92000
,,,-7.85399961472,-0.64000,-4.00000
,,,-7.85360002518,-0.64000,-4.00000
,,,-7.85319995880,-0.64000,-3.92000
,,,-7.85279989243,-0.64000,-3.76000
,,,-7.85239982605,-0.64000,-3.92000
,,,-7.85199975967,-0.64000,-3.92000
,,,-7.85159969330,-0.56000,-3.92000
,,,-7.85119962692,-0.64000,-4.00000
,,,-7.85080003738,-0.64000,-4.00000
,,,-7.85039997101,-0.56000,-4.00000
,,,-7.84999990463,-0.64000,-3.84000
,,,-7.84959983826,-0.56000,-4.00000
,,,-7.84919977188,-0.64000,-4.00000
,,,-7.84879970551,-0.64000,-4.00000
,,,-7.84839963913,-0.64000,-4.00000
,,,-7.84799957275,-0.64000,-4.00000
,,,-7.84759998322,-0.64000,-4.00000
,,,-7.84719991684,-0.64000,-3.76000
,,,-7.84679985046,-0.64000,-3.92000
,,,-7.84639978409,-0.56000,-4.00000
,,,-7.84599971771,-0.64000,-4.00000
,,,-7.84559965134,-0.64000,-4.00000
,,,-7.84519958496,-0.64000,-4.00000
,,,-7.84479999542,-0.64000,-4.00000
,,,-7.84439992905,-0.56000,-3.84000
,,,-7.84399986267,-0.56000,-4.00000
,,,-7.84359979630,-0.64000,-4.00000
,,,-7.84319972992,-0.64000,-4.00000
,,,-7.84279966354,-0.56000,-3.92000
,,,-7.84239959717,-0.64000,-4.00000
,,,-7.84200000763,-0.64000,-4.00000
,,,-7.84159994125,-0.64000,-3.92000
,,,-7.84119987488,-0.64000,-4.00000
,,,-7.84079980850,-0.64000,-4.00000
,,,-7.84039974213,-0.64000,-4.00000
,,,-7.83999967575,-0.64000,-4.00000
,,,-7.83959960938,-0.64000,-4.00000
,,,-7.83920001984,-0.64000,-4.00000
,,,-7.83879995346,-0.72000,-4.00000
,,,-7.83839988708,-0.64000,-4.08000
,,,-7.83799982071,-0.56000,-3.92000
,,,-7.83759975433,-0.64000,-4.00000
,,,-7.83719968796,-0.64000,-4.00000
,,,-7.83679962158,-0.64000,-4.00000
,,,-7.83640003204,-0.64000,-4.00000
,,,-7.83599996567,-0.64000,-4.00000
,,,-7.83559989929,-0.64000,-4.00000
,,,-7.83519983292,-0.64000,-3.84000
,,,-7.83479976654,-0.64000,-4.00000
,,,-7.83439970016,-0.64000,-4.00000
,,,-7.83399963379,-0.64000,-4.00000
,,,-7.83359956741,-0.64000,-4.00000
,,,-7.83319997787,-0.56000,-4.00000
,,,-7.83279991150,-0.64000,-4.00000
,,,-7.83239984512,-0.64000,-3.84000
,,,-7.83199977875,-0.64000,-4.00000
,,,-7.83159971237,-0.64000,-4.08000
,,,-7.83119964600,-0.64000,-4.08000
,,,-7.83079957962,-0.64000,-4.08000
,,,-7.83039999008,-0.64000,-4.08000
,,,-7.82999992371,-0.64000,-4.08000
,,,-7.82959985733,-0.64000,-3.92000
,,,-7.82919979095,-0.64000,-4.08000
,,,-7.82879972458,-0.64000,-4.08000
,,,-7.82839965820,-0.64000,-4.08000
,,,-7.82799959183,-0.64000,-4.08000
,,,-7.82760000229,-0.64000,-4.00000
,,,-7.82719993591,-0.64000,-4.08000
,,,-7.82679986954,-0.64000,-4.00000
,,,-7.82639980316,-0.64000,-4.00000
,,,-7.82599973679,-0.64000,-4.08000
,,,-7.82559967041,-0.64000,-4.08000
,,,-7.82519960403,-0.64000,-4.08000
,,,-7.82480001450,-0.64000,-4.08000
,,,-7.82439994812,-0.72000,-4.00000
,,,-7.82399988174,-0.64000,-4.00000
,,,-7.82359981537,-0.64000,-4.08000
,,,-7.82319974899,-0.64000,-4.08000
,,,-7.82279968262,-0.72000,-4.08000
,,,-7.82239961624,-0.72000,-4.00000
,,,-7.82200002670,-0.72000,-4.08000
,,,-7.82159996033,-0.72000,-4.08000
,,,-7.82119989395,-0.64000,-4.08000
,,,-7.82079982758,-0.64000,-4.08000
,,,-7.82039976120,-0.64000,-4.00000
,,,-7.81999969482,-0.72000,-4.08000
,,,-7.81959962845,-0.64000,-4.08000
,,,-7.81920003891,-0.64000,-4.08000
,,,-7.81879997253,-0.64000,-4.08000
,,,-7.81839990616,-0.64000,-4.08000
,,,-7.81799983978,-0.64000,-4.08000
,,,-7.81759977341,-0.64000,-3.92000
,,,-7.81719970703,-0.72000,-4.08000
,,,-7.81679964066,-0.64000,-4.08000
,,,-7.81639957428,-0.72000,-4.16000
,,,-7.81599998474,-0.64000,-4.08000
,,,-7.81559991837,-0.72000,-4.08000
,,,-7.81519985199,-0.64000,-4.08000
,,,-7.81479978561,-0.64000,-4.00000
,,,-7.81439971924,-0.64000,-4.08000
,,,-7.81399965286,-0.64000,-4.16000
,,,-7.81359958649,-0.64000,-4.08000
,,,-7.81319999695,-0.64000,-4.08000
,,,-7.81279993057,-0.72000,-4.08000
,,,-7.81239986420,-0.64000,-4.08000
,,,-7.81199979782,-0.64000,-4.00000
,,,-7.81159973145,-0.64000,-4.16000
,,,-7.81119966507,-0.64000,-4.16000
,,,-7.81079959869,-0.72000,-4.08000
,,,-7.81040000916,-0.64000,-4.08000
,,,-7.80999994278,-0.64000,-4.08000
,,,-7.80959987640,-0.64000,-4.08000
,,,-7.80919981003,-0.64000,-4.08000
,,,-7.80879974365,-0.64000,-4.16000
,,,-7.80839967728,-0.72000,-4.16000
,,,-7.80799961090,-0.64000,-4.08000
,,,-7.80760002136,-0.72000,-4.08000
,,,-7.80719995499,-0.64000,-4.16000
,,,-7.80679988861,-0.64000,-4.16000
,,,-7.80639982224,-0.72000,-4.16000
,,,-7.80599975586,-0.64000,-4.16000
,,,-7.80559968948,-0.72000,-4.16000
,,,-7.80519962311,-0.72000,-4.16000
,,,-7.80480003357,-0.64000,-4.08000
,,,-7.80439996719,-0.64000,-4.16000
,,,-7.80399990082,-0.72000,-4.16000
,,,-7.80359983444,-0.64000,-4.16000
,,,-7.80319976807,-0.72000,-4.16000
,,,-7.80279970169,-0.72000,-4.16000
,,,-7.80239963531,-0.72000,-4.16000
,,,-7.80199956894,-0.72000,-4.16000
,,,-7.80159997940,-0.72000,-4.16000
,,,-7.80119991302,-0.72000,-4.16000
,,,-7.80079984665,-0.72000,-4.16000
,,,-7.80039978027,-0.64000,-4.16000
,,,-7.79999971390,-0.72000,-4.08000
,,,-7.79959964752,-0.72000,-4.16000
,,,-7.79919958115,-0.72000,-4.16000
,,,-7.79879999161,-0.72000,-4.16000
,,,-7.79839992523,-0.72000,-4.16000
,,,-7.79799985886,-0.72000,-4.16000
,,,-7.79759979248,-0.72000,-4.16000
,,,-7.79719972610,-0.72000,-4.08000
,,,-7.79679965973,-0.72000,-4.16000
,,,-7.79639959335,-0.64000,-4.24000
,,,-7.79600000381,-0.72000,-4.16000
,,,-7.79559993744,-0.72000,-4.16000
,,,-7.79519987106,-0.72000,-4.16000
,,,-7.79479980469,-0.72000,-4.16000
,,,-7.79439973831,-0.72000,-4.08000
,,,-7.79399967194,-0.72000,-4.16000
,,,-7.79359960556,-0.72000,-4.16000
,,,-7.79320001602,-0.72000,-4.16000
,,,-7.79279994965,-0.72000,-4.16000
,,,-7.79239988327,-0.64000,-4.24000
,,,-7.79199981689,-0.80000,-4.16000
,,,-7.79159975052,-0.72000,-4.16000
,,,-7.79119968414,-0.64000,-4.24000
,,,-7.79079961777,-0.72000,-4.24000
,,,-7.79040002823,-0.72000,-4.16000
,,,-7.78999996185,-0.72000,-4.16000
,,,-7.78959989548,-0.72000,-4.16000
,,,-7.78919982910,-0.72000,-4.24000
,,,-7.78879976273,-0.72000,-4.24000
,,,-7.78839969635,-0.64000,-4.16000
,,,-7.78799962997,-0.72000,-4.16000
,,,-7.78760004044,-0.72000,-4.24000
,,,-7.78719997406,-0.72000,-4.24000
,,,-7.78679990768,-0.72000,-4.16000
,,,-7.78639984131,-0.72000,-4.24000
,,,-7.78599977493,-0.64000,-4.24000
,,,-7.78559970856,-0.72000,-4.24000
,,,-7.78519964218,-0.72000,-4.16000
,,,-7.78479957581,-0.72000,-4.24000
,,,-7.78439998627,-0.72000,-4.24000
,,,-7.78399991989,-0.72000,-4.24000
,,,-7.78359985352,-0.72000,-4.24000
,,,-7.78319978714,-0.72000,-4.24000
,,,-7.78279972076,-0.72000,-4.24000
,,,-7.78239965439,-0.72000,-4.16000
,,,-7.78199958801,-0.72000,-4.24000
,,,-7.78159999847,-0.72000,-4.24000
